multimernew/e_hJUNOe_s_hSOF1f/unrelaxed_model_1_multimer_v3_1.pdb,B,0.0224684717052419,11.244472447754017,0.44162167596896856,52.03140625,0.22978196831147268
multimernew/e_hJUNOe_s_hSOF1f/unrelaxed_model_1_multimer_v3_1.pdb,C,0.0224684717052419,11.244472447754017,0.44162167596896856,52.031406249999996,0.22978196831147266
multimernew/e_hJUNOe_s_hSOF1f/unrelaxed_model_1_multimer_v3_2.pdb,B,0.02010482427277006,12.13506036689686,0.4044330879660482,51.82485294117647,0.20959685308386333
multimernew/e_hJUNOe_s_hSOF1f/unrelaxed_model_1_multimer_v3_2.pdb,C,0.02010482427277006,12.13506036689686,0.4044330879660482,51.824852941176474,0.20959685308386336
multimernew/e_hJUNOe_s_hSOF1f/unrelaxed_model_1_multimer_v3_3.pdb,B,0.02041316698956282,11.813804080370172,0.4174215616480943,50.87881355932203,0.21237913810734438
multimernew/e_hJUNOe_s_hSOF1f/unrelaxed_model_1_multimer_v3_3.pdb,C,0.02041316698956282,11.813804080370172,0.4174215616480943,50.87881355932203,0.21237913810734438
multimernew/e_hJUNOe_s_hSOF1f/unrelaxed_model_1_multimer_v3_4.pdb,B,0.019968871574004825,12.143963144339658,0.404079847374579,51.562714285714286,0.20835453718790453
multimernew/e_hJUNOe_s_hSOF1f/unrelaxed_model_1_multimer_v3_4.pdb,C,0.01996887157400484,12.143963144339658,0.404079847374579,51.56271428571429,0.2083545371879046
multimernew/e_hJUNOe_s_hSOF1f/unrelaxed_model_1_multimer_v3_5.pdb,B,0.021707482982081316,11.40106640053054,0.4348122608703325,51.41460317460317,0.2235569984810018
multimernew/e_hJUNOe_s_hSOF1f/unrelaxed_model_1_multimer_v3_5.pdb,C,0.021707482982081316,11.40106640053054,0.4348122608703325,51.41460317460317,0.2235569984810018
multimernew/e_hJUNOe_s_hSOF1f/unrelaxed_model_2_multimer_v3_1.pdb,B,0.024312409919090713,11.903766850786887,0.4137366094469972,58.958474576271186,0.24393279369353427
multimernew/e_hJUNOe_s_hSOF1f/unrelaxed_model_2_multimer_v3_1.pdb,C,0.024312409919090713,11.903766850786887,0.4137366094469972,58.958474576271186,0.24393279369353427
multimernew/e_hJUNOe_s_hSOF1f/unrelaxed_model_2_multimer_v3_2.pdb,B,0.026462036951372284,11.367022404414381,0.43628266545652017,59.36392857142857,0.2589945298911333
multimernew/e_hJUNOe_s_hSOF1f/unrelaxed_model_2_multimer_v3_2.pdb,C,0.026462036951372284,11.367022404414381,0.43628266545652017,59.36392857142857,0.2589945298911333
multimernew/e_hJUNOe_s_hSOF1f/unrelaxed_model_2_multimer_v3_3.pdb,B,0.025848348131195013,11.46681776734775,0.4319880037167631,58.991578947368424,0.25483654425573515
multimernew/e_hJUNOe_s_hSOF1f/unrelaxed_model_2_multimer_v3_3.pdb,C,0.025848348131195013,11.46681776734775,0.4319880037167631,58.991578947368424,0.25483654425573515
multimernew/e_hJUNOe_s_hSOF1f/unrelaxed_model_2_multimer_v3_4.pdb,B,0.022006872582777202,12.25649123976183,0.39964578992337413,56.55883333333333,0.22603499624644463
multimernew/e_hJUNOe_s_hSOF1f/unrelaxed_model_2_multimer_v3_4.pdb,C,0.022006872582777202,12.25649123976183,0.39964578992337413,56.55883333333333,0.22603499624644463
multimernew/e_hJUNOe_s_hSOF1f/unrelaxed_model_2_multimer_v3_5.pdb,B,0.021458874700716432,12.423474368072894,0.39317029329064823,56.32921568627451,0.22146974252204732
multimernew/e_hJUNOe_s_hSOF1f/unrelaxed_model_2_multimer_v3_5.pdb,C,0.021458874700716432,12.423474368072894,0.39317029329064823,56.32921568627451,0.22146974252204732
multimernew/e_hJUNOe_s_hSOF1f/unrelaxed_model_3_multimer_v3_1.pdb,B,0.015108819550612893,14.59001142172159,0.3196231685943161,48.82431372549019,0.15605381857384132
multimernew/e_hJUNOe_s_hSOF1f/unrelaxed_model_3_multimer_v3_1.pdb,C,0.015108819550612893,14.59001142172159,0.3196231685943161,48.82431372549019,0.15605381857384132
multimernew/e_hJUNOe_s_hSOF1f/unrelaxed_model_3_multimer_v3_2.pdb,B,0.016762301902469426,13.802911040112525,0.34420996293367584,51.08448275862068,0.17583787916830826
multimernew/e_hJUNOe_s_hSOF1f/unrelaxed_model_3_multimer_v3_2.pdb,C,0.016762301902469426,13.802911040112525,0.34420996293367584,51.084482758620695,0.17583787916830831
multimernew/e_hJUNOe_s_hSOF1f/unrelaxed_model_3_multimer_v3_3.pdb,B,0.017116238809830705,13.624219289474285,0.3501163333757525,51.34599999999999,0.17977073253511386
multimernew/e_hJUNOe_s_hSOF1f/unrelaxed_model_3_multimer_v3_3.pdb,C,0.017116238809830705,13.624219289474285,0.3501163333757525,51.346,0.17977073253511386
multimernew/e_hJUNOe_s_hSOF1f/unrelaxed_model_3_multimer_v3_4.pdb,B,0.017292126748863237,13.637215796942726,0.3496825611700765,51.95843137254902,0.18168957356732596
multimernew/e_hJUNOe_s_hSOF1f/unrelaxed_model_3_multimer_v3_4.pdb,C,0.017292126748863237,13.637215796942726,0.3496825611700765,51.958431372549015,0.18168957356732596
multimernew/e_hJUNOe_s_hSOF1f/unrelaxed_model_3_multimer_v3_5.pdb,B,0.01659990357165165,14.085629356596309,0.3351150794753081,51.92254545454546,0.174000279465603
multimernew/e_hJUNOe_s_hSOF1f/unrelaxed_model_3_multimer_v3_5.pdb,C,0.01659990357165165,14.085629356596309,0.3351150794753081,51.92254545454546,0.174000279465603
multimernew/e_hJUNOe_s_hSOF1f/unrelaxed_model_4_multimer_v3_1.pdb,B,0.015715020974665768,14.119899688940444,0.3340330577372273,48.97604651162789,0.1635961857215973
multimernew/e_hJUNOe_s_hSOF1f/unrelaxed_model_4_multimer_v3_1.pdb,C,0.01571502097466578,14.119899688940444,0.3340330577372273,48.976046511627914,0.16359618572159737
multimernew/e_hJUNOe_s_hSOF1f/unrelaxed_model_4_multimer_v3_2.pdb,B,0.020708503362340227,12.816331656160896,0.37841754974023584,56.81538461538463,0.21499938633702942
multimernew/e_hJUNOe_s_hSOF1f/unrelaxed_model_4_multimer_v3_2.pdb,C,0.020708503362340213,12.816331656160896,0.37841754974023584,56.81538461538461,0.21499938633702936
multimernew/e_hJUNOe_s_hSOF1f/unrelaxed_model_4_multimer_v3_3.pdb,B,0.016050146294239204,14.173965602894164,0.3323348875425318,50.43617647058823,0.16761701035428228
multimernew/e_hJUNOe_s_hSOF1f/unrelaxed_model_4_multimer_v3_3.pdb,C,0.016050146294239204,14.173965602894164,0.3323348875425318,50.43617647058824,0.1676170103542823
multimernew/e_hJUNOe_s_hSOF1f/unrelaxed_model_4_multimer_v3_4.pdb,B,0.016022515406549455,13.61091160646029,0.35056117775279494,47.72043478260869,0.16728931820266746
multimernew/e_hJUNOe_s_hSOF1f/unrelaxed_model_4_multimer_v3_4.pdb,C,0.016022515406549455,13.61091160646029,0.35056117775279494,47.72043478260869,0.16728931820266746
multimernew/e_hJUNOe_s_hSOF1f/unrelaxed_model_4_multimer_v3_5.pdb,B,0.016671653461808104,13.929780711192373,0.3400911824419194,51.402325581395345,0.17481477687241262
multimernew/e_hJUNOe_s_hSOF1f/unrelaxed_model_4_multimer_v3_5.pdb,C,0.016671653461808104,13.929780711192373,0.3400911824419194,51.402325581395345,0.17481477687241262
multimernew/e_hJUNOe_s_hSOF1f/unrelaxed_model_5_multimer_v3_1.pdb,B,0.015478542887568801,14.610197800052438,0.3190221285157412,50.37155172413792,0.16069639647675235
multimernew/e_hJUNOe_s_hSOF1f/unrelaxed_model_5_multimer_v3_1.pdb,C,0.015478542887568801,14.610197800052438,0.3190221285157412,50.37155172413792,0.16069639647675235
multimernew/e_hJUNOe_s_hSOF1f/unrelaxed_model_5_multimer_v3_2.pdb,B,0.013703973975659258,15.264851877224668,0.3002861401102301,45.64295081967214,0.13705945524880409
multimernew/e_hJUNOe_s_hSOF1f/unrelaxed_model_5_multimer_v3_2.pdb,C,0.013703973975659258,15.264851877224668,0.3002861401102301,45.64295081967214,0.13705945524880409
multimernew/e_hJUNOe_s_hSOF1f/unrelaxed_model_5_multimer_v3_3.pdb,B,0.015582587486470671,14.350663972433,0.32685981322856167,49.55603448275862,0.16197876175382642
multimernew/e_hJUNOe_s_hSOF1f/unrelaxed_model_5_multimer_v3_3.pdb,C,0.015582587486470671,14.350663972433,0.32685981322856167,49.55603448275862,0.16197876175382642
multimernew/e_hJUNOe_s_hSOF1f/unrelaxed_model_5_multimer_v3_4.pdb,B,0.014567189326997226,15.260812214734203,0.30039737515238185,49.60015625,0.14899756744648007
multimernew/e_hJUNOe_s_hSOF1f/unrelaxed_model_5_multimer_v3_4.pdb,C,0.014567189326997226,15.260812214734203,0.30039737515238185,49.60015625,0.14899756744648007
multimernew/e_hJUNOe_s_hSOF1f/unrelaxed_model_5_multimer_v3_5.pdb,B,0.013824715197751579,15.451974382882074,0.29519117720922117,47.01507936507936,0.1387843662436274
multimernew/e_hJUNOe_s_hSOF1f/unrelaxed_model_5_multimer_v3_5.pdb,C,0.013824715197751579,15.451974382882074,0.29519117720922117,47.01507936507936,0.1387843662436274
