multimernew/e_hCD81f_s_hIZUMO4f/unrelaxed_model_1_multimer_v3_1.pdb,B,0.014598270861305206,17.540656276522345,0.24529365933918834,60.911111111111126,0.14941109338860342
multimernew/e_hCD81f_s_hIZUMO4f/unrelaxed_model_1_multimer_v3_1.pdb,C,0.014598270861305206,17.540656276522345,0.24529365933918834,60.9111111111111,0.14941109338860337
multimernew/e_hCD81f_s_hIZUMO4f/unrelaxed_model_1_multimer_v3_2.pdb,B,0.014348512619920819,17.922464873290572,0.23740859188889663,61.52148148148149,0.1460572828943735
multimernew/e_hCD81f_s_hIZUMO4f/unrelaxed_model_1_multimer_v3_2.pdb,C,0.014348512619920819,17.922464873290572,0.23740859188889663,61.52148148148148,0.14605728289437347
multimernew/e_hCD81f_s_hIZUMO4f/unrelaxed_model_1_multimer_v3_3.pdb,B,0.013804445607631893,18.43074265999344,0.22743178737959338,60.89566666666666,0.13849610313671923
multimernew/e_hCD81f_s_hIZUMO4f/unrelaxed_model_1_multimer_v3_3.pdb,C,0.013804445607631893,18.43074265999344,0.22743178737959338,60.89566666666666,0.13849610313671923
multimernew/e_hCD81f_s_hIZUMO4f/unrelaxed_model_1_multimer_v3_4.pdb,B,0.014903147839431351,17.307294875703395,0.25028629253204376,61.294285714285714,0.15341119524828387
multimernew/e_hCD81f_s_hIZUMO4f/unrelaxed_model_1_multimer_v3_4.pdb,C,0.014903147839431351,17.307294875703395,0.25028629253204376,61.29428571428571,0.15341119524828384
multimernew/e_hCD81f_s_hIZUMO4f/unrelaxed_model_1_multimer_v3_5.pdb,B,0.01316633365719678,19.176696501529996,0.21379138795572356,60.40566666666667,0.12914211317057453
multimernew/e_hCD81f_s_hIZUMO4f/unrelaxed_model_1_multimer_v3_5.pdb,C,0.01316633365719678,19.176696501529996,0.21379138795572356,60.40566666666668,0.12914211317057456
multimernew/e_hCD81f_s_hIZUMO4f/unrelaxed_model_2_multimer_v3_1.pdb,B,0.010310049741464133,28.450377006573998,0.10995971658794754,71.64175,0.0787770652586459
multimernew/e_hCD81f_s_hIZUMO4f/unrelaxed_model_2_multimer_v3_1.pdb,C,0.010310049741464133,28.450377006573998,0.10995971658794754,71.64175,0.0787770652586459
multimernew/e_hCD81f_s_hIZUMO4f/unrelaxed_model_2_multimer_v3_2.pdb,B,0.010352777463506673,28.15397653376705,0.11202644249479263,71.11,0.07966200325804704
multimernew/e_hCD81f_s_hIZUMO4f/unrelaxed_model_2_multimer_v3_2.pdb,C,0.010352777463506673,28.15397653376705,0.11202644249479263,71.11000000000001,0.07966200325804705
multimernew/e_hCD81f_s_hIZUMO4f/unrelaxed_model_2_multimer_v3_3.pdb,B,0.011013480006748002,25.58631423599558,0.13251009648189466,69.99428571428571,0.09274949553181301
multimernew/e_hCD81f_s_hIZUMO4f/unrelaxed_model_2_multimer_v3_3.pdb,C,0.011013480006748002,25.58631423599558,0.13251009648189466,69.99428571428571,0.09274949553181301
multimernew/e_hCD81f_s_hIZUMO4f/unrelaxed_model_2_multimer_v3_4.pdb,B,0.010045012101814431,28.614124867267254,0.1088413881994996,67.23,0.07317406528652358
multimernew/e_hCD81f_s_hIZUMO4f/unrelaxed_model_2_multimer_v3_4.pdb,C,0.010045012101814431,28.614124867267254,0.1088413881994996,67.22999999999999,0.07317406528652357
multimernew/e_hCD81f_s_hIZUMO4f/unrelaxed_model_2_multimer_v3_5.pdb,B,0.010379853485298242,28.4994027108562,0.10962316484986472,73.17816326530613,0.08022021855042968
multimernew/e_hCD81f_s_hIZUMO4f/unrelaxed_model_2_multimer_v3_5.pdb,C,0.010379853485298242,28.4994027108562,0.10962316484986472,73.17816326530613,0.08022021855042968
multimernew/e_hCD81f_s_hIZUMO4f/unrelaxed_model_3_multimer_v3_1.pdb,B,0.010594299409217132,24.863083084369737,0.13924223531117733,60.73800000000001,0.08457294888330288
multimernew/e_hCD81f_s_hIZUMO4f/unrelaxed_model_3_multimer_v3_1.pdb,C,0.010594299409217132,24.863083084369737,0.13924223531117733,60.73800000000001,0.08457294888330288
multimernew/e_hCD81f_s_hIZUMO4f/unrelaxed_model_3_multimer_v3_2.pdb,B,0.010519575230130699,25.462941933941195,0.13362527570994706,62.166250000000005,0.08306982296103498
multimernew/e_hCD81f_s_hIZUMO4f/unrelaxed_model_3_multimer_v3_2.pdb,C,0.010519575230130699,25.462941933941195,0.13362527570994706,62.16625,0.08306982296103498
multimernew/e_hCD81f_s_hIZUMO4f/unrelaxed_model_3_multimer_v3_3.pdb,B,0.010823716562965525,24.401421985392744,0.14379604993984396,61.963,0.08910034642422553
multimernew/e_hCD81f_s_hIZUMO4f/unrelaxed_model_3_multimer_v3_3.pdb,C,0.010823716562965525,24.401421985392744,0.14379604993984396,61.963,0.08910034642422553
multimernew/e_hCD81f_s_hIZUMO4f/unrelaxed_model_3_multimer_v3_4.pdb,B,0.01075239164698586,24.599208094748576,0.14181962313533847,61.843809523809526,0.08770665759920324
multimernew/e_hCD81f_s_hIZUMO4f/unrelaxed_model_3_multimer_v3_4.pdb,C,0.01075239164698586,24.599208094748576,0.14181962313533847,61.84380952380951,0.08770665759920321
multimernew/e_hCD81f_s_hIZUMO4f/unrelaxed_model_3_multimer_v3_5.pdb,B,0.010833550337822306,24.493789835555855,0.14286821708118225,62.49923076923077,0.08929153668945367
multimernew/e_hCD81f_s_hIZUMO4f/unrelaxed_model_3_multimer_v3_5.pdb,C,0.010833550337822306,24.493789835555855,0.14286821708118225,62.49923076923077,0.08929153668945367
multimernew/e_hCD81f_s_hIZUMO4f/unrelaxed_model_4_multimer_v3_1.pdb,B,0.009987628887395327,24.088402498809906,0.14700453238954694,48.93338461538462,0.07193429323622466
multimernew/e_hCD81f_s_hIZUMO4f/unrelaxed_model_4_multimer_v3_1.pdb,C,0.009987628887395327,24.088402498809906,0.14700453238954694,48.93338461538462,0.07193429323622466
multimernew/e_hCD81f_s_hIZUMO4f/unrelaxed_model_4_multimer_v3_2.pdb,B,0.010740099576840178,23.677231327692855,0.1513749500214993,57.78051282051282,0.08746522240421728
multimernew/e_hCD81f_s_hIZUMO4f/unrelaxed_model_4_multimer_v3_2.pdb,C,0.010740099576840178,23.677231327692855,0.1513749500214993,57.78051282051282,0.08746522240421728
multimernew/e_hCD81f_s_hIZUMO4f/unrelaxed_model_4_multimer_v3_3.pdb,B,0.010582737442530079,23.191844493310374,0.15677380799257923,53.798085106382985,0.08434130664836521
multimernew/e_hCD81f_s_hIZUMO4f/unrelaxed_model_4_multimer_v3_3.pdb,C,0.010582737442530079,23.191844493310374,0.15677380799257923,53.79808510638299,0.08434130664836523
multimernew/e_hCD81f_s_hIZUMO4f/unrelaxed_model_4_multimer_v3_4.pdb,B,0.010504001408158915,23.12642277390397,0.15752213142630836,52.535306122448986,0.08275473395541752
multimernew/e_hCD81f_s_hIZUMO4f/unrelaxed_model_4_multimer_v3_4.pdb,C,0.010504001408158908,23.12642277390397,0.15752213142630836,52.53530612244897,0.08275473395541749
multimernew/e_hCD81f_s_hIZUMO4f/unrelaxed_model_4_multimer_v3_5.pdb,B,0.010028792421503766,23.73279118482664,0.15077376097004477,48.30059523809524,0.07282462401139454
multimernew/e_hCD81f_s_hIZUMO4f/unrelaxed_model_4_multimer_v3_5.pdb,C,0.010028792421503766,23.73279118482664,0.15077376097004477,48.30059523809524,0.07282462401139454
multimernew/e_hCD81f_s_hIZUMO4f/unrelaxed_model_5_multimer_v3_1.pdb,B,0.010219429816980187,24.90489114957386,0.13883998574888426,55.37571428571428,0.07688363382262858
multimernew/e_hCD81f_s_hIZUMO4f/unrelaxed_model_5_multimer_v3_1.pdb,C,0.010219429816980187,24.90489114957386,0.13883998574888426,55.37571428571429,0.07688363382262858
multimernew/e_hCD81f_s_hIZUMO4f/unrelaxed_model_5_multimer_v3_2.pdb,B,0.010454369237898728,24.627518121808077,0.14153988196025144,57.75500000000001,0.08174635882614323
multimernew/e_hCD81f_s_hIZUMO4f/unrelaxed_model_5_multimer_v3_2.pdb,C,0.010454369237898728,24.627518121808077,0.14153988196025144,57.754999999999995,0.08174635882614321
multimernew/e_hCD81f_s_hIZUMO4f/unrelaxed_model_5_multimer_v3_3.pdb,B,0.011136077555901023,21.49298251937378,0.1779523141737087,53.4204761904762,0.09506297362356746
multimernew/e_hCD81f_s_hIZUMO4f/unrelaxed_model_5_multimer_v3_3.pdb,C,0.011136077555901023,21.49298251937378,0.1779523141737087,53.42047619047619,0.09506297362356744
multimernew/e_hCD81f_s_hIZUMO4f/unrelaxed_model_5_multimer_v3_4.pdb,B,0.010495356258316513,24.68964134163951,0.14092875638357577,58.596666666666664,0.08257955361556261
multimernew/e_hCD81f_s_hIZUMO4f/unrelaxed_model_5_multimer_v3_4.pdb,C,0.010495356258316513,24.68964134163951,0.14092875638357577,58.596666666666664,0.08257955361556261
multimernew/e_hCD81f_s_hIZUMO4f/unrelaxed_model_5_multimer_v3_5.pdb,B,0.012458701429118224,19.635536291795646,0.20595019546360277,57.333611111111104,0.11807868414967519
multimernew/e_hCD81f_s_hIZUMO4f/unrelaxed_model_5_multimer_v3_5.pdb,C,0.012458701429118224,19.635536291795646,0.20595019546360277,57.333611111111104,0.11807868414967519
