{
    "iptm+ptm": {
        "model_1_multimer_v3_1": 0.2526887707837892,
        "model_2_multimer_v3_1": 0.15374813577722848,
        "model_3_multimer_v3_1": 0.1817476019311257,
        "model_4_multimer_v3_1": 0.19312725857928953,
        "model_5_multimer_v3_1": 0.1880444043770866,
        "model_1_multimer_v3_2": 0.24893380408269017,
        "model_2_multimer_v3_2": 0.15907757276944978,
        "model_3_multimer_v3_2": 0.16990279979546608,
        "model_4_multimer_v3_2": 0.19774462448004543,
        "model_5_multimer_v3_2": 0.1917673060161148,
        "model_1_multimer_v3_3": 0.245823706841383,
        "model_2_multimer_v3_3": 0.17190024473913645,
        "model_3_multimer_v3_3": 0.1836223469620239,
        "model_4_multimer_v3_3": 0.20331202061648374,
        "model_5_multimer_v3_3": 0.22691685922602436,
        "model_1_multimer_v3_4": 0.2533908279877087,
        "model_2_multimer_v3_4": 0.15298378973379795,
        "model_3_multimer_v3_4": 0.18735904451892432,
        "model_4_multimer_v3_4": 0.20185099369485654,
        "model_5_multimer_v3_4": 0.19324388339305906,
        "model_1_multimer_v3_5": 0.2415837666507525,
        "model_2_multimer_v3_5": 0.15731953677350424,
        "model_3_multimer_v3_5": 0.17964653964995891,
        "model_4_multimer_v3_5": 0.19858521391379214,
        "model_5_multimer_v3_5": 0.24038759027053264
    },
    "order": [
        "model_1_multimer_v3_4",
        "model_1_multimer_v3_1",
        "model_1_multimer_v3_2",
        "model_1_multimer_v3_3",
        "model_1_multimer_v3_5",
        "model_5_multimer_v3_5",
        "model_5_multimer_v3_3",
        "model_4_multimer_v3_3",
        "model_4_multimer_v3_4",
        "model_4_multimer_v3_5",
        "model_4_multimer_v3_2",
        "model_5_multimer_v3_4",
        "model_4_multimer_v3_1",
        "model_5_multimer_v3_2",
        "model_5_multimer_v3_1",
        "model_3_multimer_v3_4",
        "model_3_multimer_v3_3",
        "model_3_multimer_v3_1",
        "model_3_multimer_v3_5",
        "model_2_multimer_v3_3",
        "model_3_multimer_v3_2",
        "model_2_multimer_v3_2",
        "model_2_multimer_v3_5",
        "model_2_multimer_v3_1",
        "model_2_multimer_v3_4"
    ]
}