multimernew/s_hIZUMO3e_s_hSOF1f/result_model_1_multimer_v3_1.pkl.json,0.6480862880166047,0.24647051095962524,0.32679366637102114
multimernew/s_hIZUMO3e_s_hSOF1f/result_model_1_multimer_v3_2.pkl.json,0.6416092130709081,0.23365657031536102,0.3152470988664705
multimernew/s_hIZUMO3e_s_hSOF1f/result_model_1_multimer_v3_3.pkl.json,0.6560385433683632,0.25501197576522827,0.33521728928585526
multimernew/s_hIZUMO3e_s_hSOF1f/result_model_1_multimer_v3_4.pkl.json,0.649957133771468,0.28551000356674194,0.3583994296076872
multimernew/s_hIZUMO3e_s_hSOF1f/result_model_1_multimer_v3_5.pkl.json,0.6362387387437763,0.2508213520050049,0.3279048293527592
multimernew/s_hIZUMO3e_s_hSOF1f/result_model_2_multimer_v3_1.pkl.json,0.6319965924804332,0.25675225257873535,0.33180112055907496
multimernew/s_hIZUMO3e_s_hSOF1f/result_model_2_multimer_v3_2.pkl.json,0.6558810725069198,0.2641264796257019,0.3424773982019455
multimernew/s_hIZUMO3e_s_hSOF1f/result_model_2_multimer_v3_3.pkl.json,0.6126119595231416,0.18705427646636963,0.27216581307772403
multimernew/s_hIZUMO3e_s_hSOF1f/result_model_2_multimer_v3_4.pkl.json,0.6348476506505136,0.21360071003437042,0.2978500981575991
multimernew/s_hIZUMO3e_s_hSOF1f/result_model_2_multimer_v3_5.pkl.json,0.6109250193362443,0.15208876132965088,0.2438560129309696
multimernew/s_hIZUMO3e_s_hSOF1f/result_model_3_multimer_v3_1.pkl.json,0.6227839948815639,0.188726544380188,0.2755380344804632
multimernew/s_hIZUMO3e_s_hSOF1f/result_model_3_multimer_v3_2.pkl.json,0.6366857924854213,0.3638612627983093,0.41842616873573174
multimernew/s_hIZUMO3e_s_hSOF1f/result_model_3_multimer_v3_3.pkl.json,0.6178572653845799,0.24981904029846191,0.3234266853156855
multimernew/s_hIZUMO3e_s_hSOF1f/result_model_3_multimer_v3_4.pkl.json,0.6254873006809654,0.18387919664382935,0.27220081745125657
multimernew/s_hIZUMO3e_s_hSOF1f/result_model_3_multimer_v3_5.pkl.json,0.6112887354468164,0.17402644455432892,0.2614789027328264
multimernew/s_hIZUMO3e_s_hSOF1f/result_model_4_multimer_v3_1.pkl.json,0.6770689602814383,0.3982832729816437,0.4540404104416026
multimernew/s_hIZUMO3e_s_hSOF1f/result_model_4_multimer_v3_2.pkl.json,0.7418790764487121,0.8543436527252197,0.8318507374699182
multimernew/s_hIZUMO3e_s_hSOF1f/result_model_4_multimer_v3_3.pkl.json,0.6727137131646617,0.4463147222995758,0.491594520472593
multimernew/s_hIZUMO3e_s_hSOF1f/result_model_4_multimer_v3_4.pkl.json,0.6669736220533898,0.2802959680557251,0.3576314988552581
multimernew/s_hIZUMO3e_s_hSOF1f/result_model_4_multimer_v3_5.pkl.json,0.6425691581529117,0.3416963815689087,0.4018709368857093
multimernew/s_hIZUMO3e_s_hSOF1f/result_model_5_multimer_v3_1.pkl.json,0.632519216871232,0.42918631434440613,0.46985289484977133
multimernew/s_hIZUMO3e_s_hSOF1f/result_model_5_multimer_v3_2.pkl.json,0.6417142834402219,0.3269328474998474,0.3898891346879223
multimernew/s_hIZUMO3e_s_hSOF1f/result_model_5_multimer_v3_3.pkl.json,0.6267630735771971,0.29135724902153015,0.35843841393266357
multimernew/s_hIZUMO3e_s_hSOF1f/result_model_5_multimer_v3_4.pkl.json,0.6497938797848877,0.49988114833831787,0.5298636946276318
multimernew/s_hIZUMO3e_s_hSOF1f/result_model_5_multimer_v3_5.pkl.json,0.6383467082754778,0.3370358347892761,0.3972980094865165
