multimernew/s_hIZUMO1e_s_hFIMPe/unrelaxed_model_1_multimer_v3_1.pdb,B,0.012793641432843887,17.56390020280051,0.24480368058968324,50.41255813953488,0.12341179780499534
multimernew/s_hIZUMO1e_s_hFIMPe/unrelaxed_model_1_multimer_v3_1.pdb,C,0.012793641432843887,17.56390020280051,0.24480368058968324,50.41255813953489,0.12341179780499534
multimernew/s_hIZUMO1e_s_hFIMPe/unrelaxed_model_1_multimer_v3_2.pdb,B,0.012865106238509488,18.31830124103454,0.22958940945831813,54.23891304347825,0.12452680015313239
multimernew/s_hIZUMO1e_s_hFIMPe/unrelaxed_model_1_multimer_v3_2.pdb,C,0.012865106238509488,18.31830124103454,0.22958940945831813,54.238913043478256,0.12452680015313242
multimernew/s_hIZUMO1e_s_hFIMPe/unrelaxed_model_1_multimer_v3_3.pdb,B,0.013037904189214713,18.100373330680014,0.2338505637787914,54.38977272727273,0.1271907901607306
multimernew/s_hIZUMO1e_s_hFIMPe/unrelaxed_model_1_multimer_v3_3.pdb,C,0.013037904189214713,18.100373330680014,0.2338505637787914,54.38977272727272,0.1271907901607306
multimernew/s_hIZUMO1e_s_hFIMPe/unrelaxed_model_1_multimer_v3_4.pdb,B,0.013086454079980719,17.931879222919928,0.23721849409278387,53.92972222222223,0.127931274923977
multimernew/s_hIZUMO1e_s_hFIMPe/unrelaxed_model_1_multimer_v3_4.pdb,C,0.013086454079980709,17.931879222919928,0.23721849409278387,53.92972222222222,0.12793127492397696
multimernew/s_hIZUMO1e_s_hFIMPe/unrelaxed_model_1_multimer_v3_5.pdb,B,0.01225738998240449,19.362457669709343,0.21056853278043317,54.511739130434805,0.11478456928005382
multimernew/s_hIZUMO1e_s_hFIMPe/unrelaxed_model_1_multimer_v3_5.pdb,C,0.012257389982404481,19.362457669709343,0.21056853278043317,54.51173913043478,0.11478456928005379
multimernew/s_hIZUMO1e_s_hFIMPe/unrelaxed_model_2_multimer_v3_1.pdb,B,0.010810935999152638,21.97245481895248,0.1715887556785297,51.781666666666666,0.08885151750293732
multimernew/s_hIZUMO1e_s_hFIMPe/unrelaxed_model_2_multimer_v3_1.pdb,C,0.010810935999152638,21.97245481895248,0.1715887556785297,51.78166666666667,0.08885151750293734
multimernew/s_hIZUMO1e_s_hFIMPe/unrelaxed_model_2_multimer_v3_2.pdb,B,0.010512558443158154,22.444086749261253,0.1656350282152058,50.06666666666668,0.08292793745974639
multimernew/s_hIZUMO1e_s_hFIMPe/unrelaxed_model_2_multimer_v3_2.pdb,C,0.010512558443158154,22.444086749261253,0.1656350282152058,50.06666666666667,0.08292793745974636
multimernew/s_hIZUMO1e_s_hFIMPe/unrelaxed_model_2_multimer_v3_3.pdb,B,0.010545922495068482,22.402826565816213,0.16614424322386326,50.31859649122807,0.08360145134122028
multimernew/s_hIZUMO1e_s_hFIMPe/unrelaxed_model_2_multimer_v3_3.pdb,C,0.010545922495068482,22.402826565816213,0.16614424322386326,50.31859649122807,0.08360145134122028
multimernew/s_hIZUMO1e_s_hFIMPe/unrelaxed_model_2_multimer_v3_4.pdb,B,0.010476914584775704,22.4941767630137,0.16501977256924394,49.815370370370374,0.08220521088971172
multimernew/s_hIZUMO1e_s_hFIMPe/unrelaxed_model_2_multimer_v3_4.pdb,C,0.010476914584775704,22.4941767630137,0.16501977256924394,49.81537037037037,0.08220521088971172
multimernew/s_hIZUMO1e_s_hFIMPe/unrelaxed_model_2_multimer_v3_5.pdb,B,0.010505108311465696,22.272457892350086,0.16776767543182028,49.34034482758621,0.08277714956728575
multimernew/s_hIZUMO1e_s_hFIMPe/unrelaxed_model_2_multimer_v3_5.pdb,C,0.010505108311465696,22.272457892350086,0.16776767543182028,49.3403448275862,0.08277714956728575
multimernew/s_hIZUMO1e_s_hFIMPe/unrelaxed_model_3_multimer_v3_1.pdb,B,0.014840203394450979,17.23783733071262,0.25179844785257716,60.60147058823529,0.15259356231701252
multimernew/s_hIZUMO1e_s_hFIMPe/unrelaxed_model_3_multimer_v3_1.pdb,C,0.014840203394450989,17.23783733071262,0.25179844785257716,60.6014705882353,0.15259356231701254
multimernew/s_hIZUMO1e_s_hFIMPe/unrelaxed_model_3_multimer_v3_2.pdb,B,0.01569206543993326,17.0063111471252,0.25692765677681123,63.56536585365854,0.16331700500941218
multimernew/s_hIZUMO1e_s_hFIMPe/unrelaxed_model_3_multimer_v3_2.pdb,C,0.01569206543993326,17.0063111471252,0.25692765677681123,63.565365853658534,0.16331700500941218
multimernew/s_hIZUMO1e_s_hFIMPe/unrelaxed_model_3_multimer_v3_3.pdb,B,0.015633842226047356,16.255254614279675,0.27454930478080636,59.22677419354839,0.16260669679248513
multimernew/s_hIZUMO1e_s_hFIMPe/unrelaxed_model_3_multimer_v3_3.pdb,C,0.015633842226047356,16.255254614279675,0.27454930478080636,59.22677419354839,0.16260669679248513
multimernew/s_hIZUMO1e_s_hFIMPe/unrelaxed_model_3_multimer_v3_4.pdb,B,0.01609406344736067,15.763990495216484,0.2869412495032601,58.59612903225807,0.16813646480570388
multimernew/s_hIZUMO1e_s_hFIMPe/unrelaxed_model_3_multimer_v3_4.pdb,C,0.01609406344736067,15.763990495216484,0.2869412495032601,58.59612903225807,0.16813646480570388
multimernew/s_hIZUMO1e_s_hFIMPe/unrelaxed_model_3_multimer_v3_5.pdb,B,0.010923813929701213,22.936764343556856,0.15972012981428724,56.99702702702702,0.09103572555785194
multimernew/s_hIZUMO1e_s_hFIMPe/unrelaxed_model_3_multimer_v3_5.pdb,C,0.010923813929701213,22.936764343556856,0.15972012981428724,56.99702702702702,0.09103572555785194
multimernew/s_hIZUMO1e_s_hFIMPe/unrelaxed_model_4_multimer_v3_1.pdb,B,0.01219632202746217,20.201470582174807,0.19681187835908992,57.807272727272725,0.11377157928270736
multimernew/s_hIZUMO1e_s_hFIMPe/unrelaxed_model_4_multimer_v3_1.pdb,C,0.01219632202746217,20.201470582174807,0.19681187835908992,57.807272727272725,0.11377157928270736
multimernew/s_hIZUMO1e_s_hFIMPe/unrelaxed_model_4_multimer_v3_2.pdb,B,0.010479766025461343,22.460717604095287,0.16543039559010483,49.72674418604651,0.0822631496210562
multimernew/s_hIZUMO1e_s_hFIMPe/unrelaxed_model_4_multimer_v3_2.pdb,C,0.010479766025461343,22.460717604095287,0.16543039559010483,49.72674418604651,0.0822631496210562
multimernew/s_hIZUMO1e_s_hFIMPe/unrelaxed_model_4_multimer_v3_3.pdb,B,0.012091647975954604,19.957651821313455,0.2006791519435794,55.82045454545455,0.11202001479286942
multimernew/s_hIZUMO1e_s_hFIMPe/unrelaxed_model_4_multimer_v3_3.pdb,C,0.012091647975954604,19.957651821313455,0.2006791519435794,55.82045454545455,0.11202001479286942
multimernew/s_hIZUMO1e_s_hFIMPe/unrelaxed_model_4_multimer_v3_4.pdb,B,0.012546835415577592,19.566981947649243,0.2070964572755478,57.702352941176464,0.11949952870580932
multimernew/s_hIZUMO1e_s_hFIMPe/unrelaxed_model_4_multimer_v3_4.pdb,C,0.012546835415577592,19.566981947649243,0.2070964572755478,57.702352941176464,0.11949952870580932
multimernew/s_hIZUMO1e_s_hFIMPe/unrelaxed_model_4_multimer_v3_5.pdb,B,0.012841743598549832,19.270021895841726,0.21216388875476605,58.52228571428572,0.1241631571596035
multimernew/s_hIZUMO1e_s_hFIMPe/unrelaxed_model_4_multimer_v3_5.pdb,C,0.012841743598549832,19.270021895841726,0.21216388875476605,58.52228571428572,0.1241631571596035
multimernew/s_hIZUMO1e_s_hFIMPe/unrelaxed_model_5_multimer_v3_1.pdb,B,0.010669881490670151,22.117957646470693,0.1697204897411074,50.71803921568628,0.08607890454394967
multimernew/s_hIZUMO1e_s_hFIMPe/unrelaxed_model_5_multimer_v3_1.pdb,C,0.010669881490670143,22.117957646470693,0.1697204897411074,50.718039215686275,0.08607890454394966
multimernew/s_hIZUMO1e_s_hFIMPe/unrelaxed_model_5_multimer_v3_2.pdb,B,0.011656659471265613,20.424063450640148,0.19337034870783648,54.05470588235295,0.1045257732577013
multimernew/s_hIZUMO1e_s_hFIMPe/unrelaxed_model_5_multimer_v3_2.pdb,C,0.011656659471265613,20.424063450640148,0.19337034870783648,54.054705882352934,0.10452577325770127
multimernew/s_hIZUMO1e_s_hFIMPe/unrelaxed_model_5_multimer_v3_3.pdb,B,0.014053930140037712,17.684746443835056,0.2422772569046225,58.61390243902438,0.1420081549940199
multimernew/s_hIZUMO1e_s_hFIMPe/unrelaxed_model_5_multimer_v3_3.pdb,C,0.014053930140037712,17.684746443835056,0.2422772569046225,58.61390243902439,0.14200815499401992
multimernew/s_hIZUMO1e_s_hFIMPe/unrelaxed_model_5_multimer_v3_4.pdb,B,0.014702434311969392,16.808401082600543,0.2614226352954449,57.680212765957464,0.15078913225678564
multimernew/s_hIZUMO1e_s_hFIMPe/unrelaxed_model_5_multimer_v3_4.pdb,C,0.014702434311969381,16.808401082600543,0.2614226352954449,57.68021276595744,0.15078913225678559
multimernew/s_hIZUMO1e_s_hFIMPe/unrelaxed_model_5_multimer_v3_5.pdb,B,0.013155345211155417,18.61210540380987,0.22400908416421272,57.57627906976744,0.12897609544001734
multimernew/s_hIZUMO1e_s_hFIMPe/unrelaxed_model_5_multimer_v3_5.pdb,C,0.013155345211155417,18.61210540380987,0.22400908416421272,57.57627906976744,0.12897609544001734
