{
    "iptm+ptm": {
        "model_1_multimer_v3_1": 0.21864421981682947,
        "model_2_multimer_v3_1": 0.19711756630323374,
        "model_3_multimer_v3_1": 0.26038149046512127,
        "model_4_multimer_v3_1": 0.24925811656697527,
        "model_5_multimer_v3_1": 0.5065086799087181,
        "model_1_multimer_v3_2": 0.2181550569292578,
        "model_2_multimer_v3_2": 0.19732885420098095,
        "model_3_multimer_v3_2": 0.25704678536379577,
        "model_4_multimer_v3_2": 0.2441963298484659,
        "model_5_multimer_v3_2": 0.321801304219738,
        "model_1_multimer_v3_3": 0.21531152008117221,
        "model_2_multimer_v3_3": 0.197946984880096,
        "model_3_multimer_v3_3": 0.2613734489409868,
        "model_4_multimer_v3_3": 0.2447991526713758,
        "model_5_multimer_v3_3": 0.5035753585079072,
        "model_1_multimer_v3_4": 0.2213072160459161,
        "model_2_multimer_v3_4": 0.19960598754222247,
        "model_3_multimer_v3_4": 0.26079858657254656,
        "model_4_multimer_v3_4": 0.24442133793936519,
        "model_5_multimer_v3_4": 0.47997123754899973,
        "model_1_multimer_v3_5": 0.2509974711943692,
        "model_2_multimer_v3_5": 0.19631331239119865,
        "model_3_multimer_v3_5": 0.2580184668448333,
        "model_4_multimer_v3_5": 0.2380725429405408,
        "model_5_multimer_v3_5": 0.4959326405283815
    },
    "order": [
        "model_5_multimer_v3_1",
        "model_5_multimer_v3_3",
        "model_5_multimer_v3_5",
        "model_5_multimer_v3_4",
        "model_5_multimer_v3_2",
        "model_3_multimer_v3_3",
        "model_3_multimer_v3_4",
        "model_3_multimer_v3_1",
        "model_3_multimer_v3_5",
        "model_3_multimer_v3_2",
        "model_1_multimer_v3_5",
        "model_4_multimer_v3_1",
        "model_4_multimer_v3_3",
        "model_4_multimer_v3_4",
        "model_4_multimer_v3_2",
        "model_4_multimer_v3_5",
        "model_1_multimer_v3_4",
        "model_1_multimer_v3_1",
        "model_1_multimer_v3_2",
        "model_1_multimer_v3_3",
        "model_2_multimer_v3_4",
        "model_2_multimer_v3_3",
        "model_2_multimer_v3_2",
        "model_2_multimer_v3_1",
        "model_2_multimer_v3_5"
    ]
}