{
    "features": 106.30655694007874,
    "process_features_model_1_multimer_v3_1": 6.9141387939453125e-06,
    "predict_and_compile_model_1_multimer_v3_1": 1234.6601462364197,
    "process_features_model_2_multimer_v3_1": 9.5367431640625e-06,
    "predict_and_compile_model_2_multimer_v3_1": 1228.9796733856201,
    "process_features_model_3_multimer_v3_1": 1.9550323486328125e-05,
    "predict_and_compile_model_3_multimer_v3_1": 1230.7798326015472,
    "process_features_model_4_multimer_v3_1": 4.76837158203125e-06,
    "predict_and_compile_model_4_multimer_v3_1": 1206.3260412216187,
    "process_features_model_5_multimer_v3_1": 7.62939453125e-06,
    "predict_and_compile_model_5_multimer_v3_1": 1205.3460240364075,
    "process_features_model_1_multimer_v3_2": 8.821487426757812e-06,
    "predict_and_compile_model_1_multimer_v3_2": 486.13620018959045,
    "process_features_model_2_multimer_v3_2": 1.2159347534179688e-05,
    "predict_and_compile_model_2_multimer_v3_2": 1130.8762068748474,
    "process_features_model_3_multimer_v3_2": 1.811981201171875e-05,
    "predict_and_compile_model_3_multimer_v3_2": 1130.7534742355347,
    "process_features_model_4_multimer_v3_2": 4.291534423828125e-06,
    "predict_and_compile_model_4_multimer_v3_2": 1103.68168592453,
    "process_features_model_5_multimer_v3_2": 8.106231689453125e-06,
    "predict_and_compile_model_5_multimer_v3_2": 1103.0665595531464,
    "process_features_model_1_multimer_v3_3": 6.9141387939453125e-06,
    "predict_and_compile_model_1_multimer_v3_3": 1130.091556072235,
    "process_features_model_2_multimer_v3_3": 2.5987625122070312e-05,
    "predict_and_compile_model_2_multimer_v3_3": 1130.0945627689362,
    "process_features_model_3_multimer_v3_3": 8.344650268554688e-06,
    "predict_and_compile_model_3_multimer_v3_3": 432.07762145996094,
    "process_features_model_4_multimer_v3_3": 3.5762786865234375e-06,
    "predict_and_compile_model_4_multimer_v3_3": 1102.4527900218964,
    "process_features_model_5_multimer_v3_3": 8.344650268554688e-06,
    "predict_and_compile_model_5_multimer_v3_3": 1103.6318008899689,
    "process_features_model_1_multimer_v3_4": 6.67572021484375e-06,
    "predict_and_compile_model_1_multimer_v3_4": 970.7257647514343,
    "process_features_model_2_multimer_v3_4": 1.049041748046875e-05,
    "predict_and_compile_model_2_multimer_v3_4": 917.00168633461,
    "process_features_model_3_multimer_v3_4": 1.0967254638671875e-05,
    "predict_and_compile_model_3_multimer_v3_4": 1132.5764372348785,
    "process_features_model_4_multimer_v3_4": 4.5299530029296875e-06,
    "predict_and_compile_model_4_multimer_v3_4": 1104.914186000824,
    "process_features_model_5_multimer_v3_4": 9.775161743164062e-06,
    "predict_and_compile_model_5_multimer_v3_4": 738.035448551178,
    "process_features_model_1_multimer_v3_5": 6.198883056640625e-06,
    "predict_and_compile_model_1_multimer_v3_5": 1132.4376995563507,
    "process_features_model_2_multimer_v3_5": 1.1205673217773438e-05,
    "predict_and_compile_model_2_multimer_v3_5": 1077.690435886383,
    "process_features_model_3_multimer_v3_5": 1.1920928955078125e-05,
    "predict_and_compile_model_3_multimer_v3_5": 862.0610544681549,
    "process_features_model_4_multimer_v3_5": 4.0531158447265625e-06,
    "predict_and_compile_model_4_multimer_v3_5": 1104.751229763031,
    "process_features_model_5_multimer_v3_5": 9.298324584960938e-06,
    "predict_and_compile_model_5_multimer_v3_5": 1103.744712114334
}