multimernew/s_hDCST2f_s_hDCST2f/unrelaxed_model_1_multimer_v3_1.pdb,B,0.01501010193657312,14.014848552938652,0.33736372786947944,45.8825,0.1547909124397139
multimernew/s_hDCST2f_s_hDCST2f/unrelaxed_model_1_multimer_v3_1.pdb,C,0.01501010193657312,14.014848552938652,0.33736372786947944,45.8825,0.1547909124397139
multimernew/s_hDCST2f_s_hDCST2f/unrelaxed_model_1_multimer_v3_2.pdb,B,0.015039854188136354,14.54035908058394,0.3211076495935526,48.32416666666666,0.15517259576900433
multimernew/s_hDCST2f_s_hDCST2f/unrelaxed_model_1_multimer_v3_2.pdb,C,0.015039854188136354,14.54035908058394,0.3211076495935526,48.32416666666666,0.15517259576900433
multimernew/s_hDCST2f_s_hDCST2f/unrelaxed_model_1_multimer_v3_3.pdb,B,0.016812554634161675,12.989319552651196,0.3721312091922583,47.40323529411766,0.17640223269625138
multimernew/s_hDCST2f_s_hDCST2f/unrelaxed_model_1_multimer_v3_3.pdb,C,0.016812554634161665,12.989319552651196,0.3721312091922583,47.40323529411765,0.17640223269625135
multimernew/s_hDCST2f_s_hDCST2f/unrelaxed_model_1_multimer_v3_4.pdb,B,0.014334994680023718,14.958266517327857,0.30888055960697225,47.22657894736842,0.14587372133586013
multimernew/s_hDCST2f_s_hDCST2f/unrelaxed_model_1_multimer_v3_4.pdb,C,0.01433499468002371,14.958266517327857,0.30888055960697225,47.22657894736841,0.14587372133586007
multimernew/s_hDCST2f_s_hDCST2f/unrelaxed_model_1_multimer_v3_5.pdb,B,0.017850873525555155,12.174813322422507,0.4028585563099497,46.57617647058823,0.18763611211378625
multimernew/s_hDCST2f_s_hDCST2f/unrelaxed_model_1_multimer_v3_5.pdb,C,0.017850873525555155,12.174813322422507,0.4028585563099497,46.57617647058823,0.18763611211378625
multimernew/s_hDCST2f_s_hDCST2f/unrelaxed_model_2_multimer_v3_1.pdb,B,0.015082338694365174,12.605348090422186,0.38625727443858343,40.31407079646017,0.15571603107364798
multimernew/s_hDCST2f_s_hDCST2f/unrelaxed_model_2_multimer_v3_1.pdb,C,0.015082338694365174,12.605348090422186,0.38625727443858343,40.31407079646017,0.15571603107364798
multimernew/s_hDCST2f_s_hDCST2f/unrelaxed_model_2_multimer_v3_2.pdb,B,0.017808346878074453,11.59689902174755,0.4264609338685753,43.894112903225796,0.18719124380042357
multimernew/s_hDCST2f_s_hDCST2f/unrelaxed_model_2_multimer_v3_2.pdb,C,0.017808346878074453,11.59689902174755,0.4264609338685753,43.894112903225796,0.18719124380042357
multimernew/s_hDCST2f_s_hDCST2f/unrelaxed_model_2_multimer_v3_3.pdb,B,0.017109096606399334,11.470436389206997,0.43183316758542484,41.61151515151515,0.17969232395907686
multimernew/s_hDCST2f_s_hDCST2f/unrelaxed_model_2_multimer_v3_3.pdb,C,0.017109096606399334,11.470436389206997,0.43183316758542484,41.61151515151515,0.17969232395907686
multimernew/s_hDCST2f_s_hDCST2f/unrelaxed_model_2_multimer_v3_4.pdb,B,0.017069450875254615,12.036792506587297,0.4083559862526266,43.89708661417324,0.17925638097947685
multimernew/s_hDCST2f_s_hDCST2f/unrelaxed_model_2_multimer_v3_4.pdb,C,0.017069450875254615,12.036792506587297,0.4083559862526266,43.89708661417323,0.17925638097947683
multimernew/s_hDCST2f_s_hDCST2f/unrelaxed_model_2_multimer_v3_5.pdb,B,0.01592040668262026,12.2947458655554,0.39815134207252123,41.71088495575221,0.1660724482416528
multimernew/s_hDCST2f_s_hDCST2f/unrelaxed_model_2_multimer_v3_5.pdb,C,0.01592040668262026,12.2947458655554,0.39815134207252123,41.710884955752206,0.1660724482416528
multimernew/s_hDCST2f_s_hDCST2f/unrelaxed_model_3_multimer_v3_1.pdb,B,0.017347133353742588,12.276822004128535,0.39885073788933006,45.702547169811325,0.18228494662101158
multimernew/s_hDCST2f_s_hDCST2f/unrelaxed_model_3_multimer_v3_1.pdb,C,0.017347133353742588,12.276822004128535,0.39885073788933006,45.70254716981132,0.18228494662101158
multimernew/s_hDCST2f_s_hDCST2f/unrelaxed_model_3_multimer_v3_2.pdb,B,0.017843833357312686,11.968971720980061,0.4110890717064184,45.62576923076923,0.1875625511896819
multimernew/s_hDCST2f_s_hDCST2f/unrelaxed_model_3_multimer_v3_2.pdb,C,0.017843833357312686,11.968971720980061,0.4110890717064184,45.62576923076923,0.1875625511896819
multimernew/s_hDCST2f_s_hDCST2f/unrelaxed_model_3_multimer_v3_3.pdb,B,0.018495640486965115,11.644412243773168,0.42446202403852146,45.75981818181818,0.19423305045089279
multimernew/s_hDCST2f_s_hDCST2f/unrelaxed_model_3_multimer_v3_3.pdb,C,0.018495640486965115,11.644412243773168,0.42446202403852146,45.75981818181819,0.1942330504508928
multimernew/s_hDCST2f_s_hDCST2f/unrelaxed_model_3_multimer_v3_4.pdb,B,0.01762658113851038,12.163930077045151,0.4032889099141829,45.941176470588246,0.1852756697899864
multimernew/s_hDCST2f_s_hDCST2f/unrelaxed_model_3_multimer_v3_4.pdb,C,0.017626581138510365,12.163930077045151,0.4032889099141829,45.94117647058823,0.18527566978998639
multimernew/s_hDCST2f_s_hDCST2f/unrelaxed_model_3_multimer_v3_5.pdb,B,0.01691595301953876,12.378623285021483,0.39489742854884397,44.96285714285714,0.17755716665923305
multimernew/s_hDCST2f_s_hDCST2f/unrelaxed_model_3_multimer_v3_5.pdb,C,0.01691595301953876,12.378623285021483,0.39489742854884397,44.96285714285714,0.17755716665923305
multimernew/s_hDCST2f_s_hDCST2f/unrelaxed_model_4_multimer_v3_1.pdb,B,0.018951808948186686,11.336215946030398,0.4376180081198692,45.41419642857142,0.19874070181435902
multimernew/s_hDCST2f_s_hDCST2f/unrelaxed_model_4_multimer_v3_1.pdb,C,0.018951808948186686,11.336215946030398,0.4376180081198692,45.41419642857142,0.19874070181435902
multimernew/s_hDCST2f_s_hDCST2f/unrelaxed_model_4_multimer_v3_2.pdb,B,0.017246457277135217,12.867623513131594,0.3765404246995874,48.12061403508772,0.18119356445576856
multimernew/s_hDCST2f_s_hDCST2f/unrelaxed_model_4_multimer_v3_2.pdb,C,0.017246457277135217,12.867623513131594,0.3765404246995874,48.12061403508772,0.18119356445576856
multimernew/s_hDCST2f_s_hDCST2f/unrelaxed_model_4_multimer_v3_3.pdb,B,0.014991298158322678,13.3880687903662,0.3581143883072509,43.15638095238095,0.154549209663166
multimernew/s_hDCST2f_s_hDCST2f/unrelaxed_model_4_multimer_v3_3.pdb,C,0.014991298158322678,13.3880687903662,0.3581143883072509,43.15638095238095,0.154549209663166
multimernew/s_hDCST2f_s_hDCST2f/unrelaxed_model_4_multimer_v3_4.pdb,B,0.014168481861201227,15.217589057566261,0.30159087674253043,47.61252032520326,0.14359501748799602
multimernew/s_hDCST2f_s_hDCST2f/unrelaxed_model_4_multimer_v3_4.pdb,C,0.014168481861201227,15.217589057566261,0.30159087674253043,47.612520325203256,0.143595017487996
multimernew/s_hDCST2f_s_hDCST2f/unrelaxed_model_4_multimer_v3_5.pdb,B,0.01643568099269581,13.724835151359114,0.3467753877680069,49.634487179487174,0.17212018538332835
multimernew/s_hDCST2f_s_hDCST2f/unrelaxed_model_4_multimer_v3_5.pdb,C,0.01643568099269581,13.724835151359114,0.3467753877680069,49.634487179487174,0.17212018538332835
multimernew/s_hDCST2f_s_hDCST2f/unrelaxed_model_5_multimer_v3_1.pdb,B,0.01813411674264651,11.729099305334977,0.42092543143266553,45.273533333333326,0.19056781550814494
multimernew/s_hDCST2f_s_hDCST2f/unrelaxed_model_5_multimer_v3_1.pdb,C,0.018134116742646526,11.729099305334977,0.42092543143266553,45.27353333333333,0.190567815508145
multimernew/s_hDCST2f_s_hDCST2f/unrelaxed_model_5_multimer_v3_2.pdb,B,0.015768081497891395,12.933122094915976,0.37415957148563544,43.895609756097556,0.1642396253644214
multimernew/s_hDCST2f_s_hDCST2f/unrelaxed_model_5_multimer_v3_2.pdb,C,0.015768081497891395,12.933122094915976,0.37415957148563544,43.89560975609755,0.16423962536442135
multimernew/s_hDCST2f_s_hDCST2f/unrelaxed_model_5_multimer_v3_3.pdb,B,0.01635919193514642,12.575077655103113,0.38739782774591214,44.20181102362206,0.171236855729865
multimernew/s_hDCST2f_s_hDCST2f/unrelaxed_model_5_multimer_v3_3.pdb,C,0.01635919193514642,12.575077655103113,0.38739782774591214,44.20181102362206,0.171236855729865
multimernew/s_hDCST2f_s_hDCST2f/unrelaxed_model_5_multimer_v3_4.pdb,B,0.017370390688231974,12.039698227861157,0.4082393587598674,44.712986111111114,0.1825360077823886
multimernew/s_hDCST2f_s_hDCST2f/unrelaxed_model_5_multimer_v3_4.pdb,C,0.017370390688231974,12.039698227861157,0.4082393587598674,44.712986111111114,0.1825360077823886
multimernew/s_hDCST2f_s_hDCST2f/unrelaxed_model_5_multimer_v3_5.pdb,B,0.020703626862537555,11.039302501608233,0.4507221024441512,47.6915748031496,0.21495646864148094
multimernew/s_hDCST2f_s_hDCST2f/unrelaxed_model_5_multimer_v3_5.pdb,C,0.020703626862537555,11.039302501608233,0.4507221024441512,47.691574803149614,0.214956468641481
