{
    "features": 105.33027362823486,
    "process_features_model_1_multimer_v3_1": 6.9141387939453125e-06,
    "predict_and_compile_model_1_multimer_v3_1": 412.3231580257416,
    "process_features_model_2_multimer_v3_1": 7.3909759521484375e-06,
    "predict_and_compile_model_2_multimer_v3_1": 308.50864005088806,
    "process_features_model_3_multimer_v3_1": 1.5974044799804688e-05,
    "predict_and_compile_model_3_multimer_v3_1": 192.18646621704102,
    "process_features_model_4_multimer_v3_1": 7.62939453125e-06,
    "predict_and_compile_model_4_multimer_v3_1": 409.7264759540558,
    "process_features_model_5_multimer_v3_1": 3.0994415283203125e-06,
    "predict_and_compile_model_5_multimer_v3_1": 408.9502651691437,
    "process_features_model_1_multimer_v3_2": 5.9604644775390625e-06,
    "predict_and_compile_model_1_multimer_v3_2": 311.73356008529663,
    "process_features_model_2_multimer_v3_2": 6.67572021484375e-06,
    "predict_and_compile_model_2_multimer_v3_2": 89.78838968276978,
    "process_features_model_3_multimer_v3_2": 7.62939453125e-06,
    "predict_and_compile_model_3_multimer_v3_2": 74.95098209381104,
    "process_features_model_4_multimer_v3_2": 1.2159347534179688e-05,
    "predict_and_compile_model_4_multimer_v3_2": 306.9019994735718,
    "process_features_model_5_multimer_v3_2": 2.86102294921875e-06,
    "predict_and_compile_model_5_multimer_v3_2": 161.15978455543518,
    "process_features_model_1_multimer_v3_3": 6.4373016357421875e-06,
    "predict_and_compile_model_1_multimer_v3_3": 237.7684874534607,
    "process_features_model_2_multimer_v3_3": 5.4836273193359375e-06,
    "predict_and_compile_model_2_multimer_v3_3": 178.45441842079163,
    "process_features_model_3_multimer_v3_3": 7.3909759521484375e-06,
    "predict_and_compile_model_3_multimer_v3_3": 163.57336735725403,
    "process_features_model_4_multimer_v3_3": 8.821487426757812e-06,
    "predict_and_compile_model_4_multimer_v3_3": 204.95153403282166,
    "process_features_model_5_multimer_v3_3": 2.86102294921875e-06,
    "predict_and_compile_model_5_multimer_v3_3": 234.0970549583435,
    "process_features_model_1_multimer_v3_4": 5.4836273193359375e-06,
    "predict_and_compile_model_1_multimer_v3_4": 312.2150957584381,
    "process_features_model_2_multimer_v3_4": 5.245208740234375e-06,
    "predict_and_compile_model_2_multimer_v3_4": 267.34779024124146,
    "process_features_model_3_multimer_v3_4": 9.298324584960938e-06,
    "predict_and_compile_model_3_multimer_v3_4": 119.43988537788391,
    "process_features_model_4_multimer_v3_4": 1.9073486328125e-05,
    "predict_and_compile_model_4_multimer_v3_4": 307.25046610832214,
    "process_features_model_5_multimer_v3_4": 3.814697265625e-06,
    "predict_and_compile_model_5_multimer_v3_4": 146.5054190158844,
    "process_features_model_1_multimer_v3_5": 7.3909759521484375e-06,
    "predict_and_compile_model_1_multimer_v3_5": 237.43222308158875,
    "process_features_model_2_multimer_v3_5": 5.7220458984375e-06,
    "predict_and_compile_model_2_multimer_v3_5": 163.6554238796234,
    "process_features_model_3_multimer_v3_5": 8.344650268554688e-06,
    "predict_and_compile_model_3_multimer_v3_5": 133.9871735572815,
    "process_features_model_4_multimer_v3_5": 7.867813110351562e-06,
    "predict_and_compile_model_4_multimer_v3_5": 248.68788242340088,
    "process_features_model_5_multimer_v3_5": 3.5762786865234375e-06,
    "predict_and_compile_model_5_multimer_v3_5": 248.6967077255249
}