{
    "iptm+ptm": {
        "model_1_multimer_v3_1": 0.2367672506617391,
        "model_2_multimer_v3_1": 0.35217145419586593,
        "model_3_multimer_v3_1": 0.26428514255020075,
        "model_4_multimer_v3_1": 0.25084521741203486,
        "model_5_multimer_v3_1": 0.35963451194773893,
        "model_1_multimer_v3_2": 0.305823748404735,
        "model_2_multimer_v3_2": 0.3385577465160665,
        "model_3_multimer_v3_2": 0.27929055264318825,
        "model_4_multimer_v3_2": 0.29100779375791896,
        "model_5_multimer_v3_2": 0.24601079662858866,
        "model_1_multimer_v3_3": 0.19814670856829536,
        "model_2_multimer_v3_3": 0.3432183464529802,
        "model_3_multimer_v3_3": 0.27609190622748725,
        "model_4_multimer_v3_3": 0.2346666717414047,
        "model_5_multimer_v3_3": 0.3449761515415232,
        "model_1_multimer_v3_4": 0.19944855369619902,
        "model_2_multimer_v3_4": 0.2953737238285754,
        "model_3_multimer_v3_4": 0.28587733310093316,
        "model_4_multimer_v3_4": 0.23127842515845437,
        "model_5_multimer_v3_4": 0.31095952631821766,
        "model_1_multimer_v3_5": 0.34128665165370753,
        "model_2_multimer_v3_5": 0.23112225438334413,
        "model_3_multimer_v3_5": 0.2723507509247506,
        "model_4_multimer_v3_5": 0.24597247386522508,
        "model_5_multimer_v3_5": 0.2514798026371886
    },
    "order": [
        "model_5_multimer_v3_1",
        "model_2_multimer_v3_1",
        "model_5_multimer_v3_3",
        "model_2_multimer_v3_3",
        "model_1_multimer_v3_5",
        "model_2_multimer_v3_2",
        "model_5_multimer_v3_4",
        "model_1_multimer_v3_2",
        "model_2_multimer_v3_4",
        "model_4_multimer_v3_2",
        "model_3_multimer_v3_4",
        "model_3_multimer_v3_2",
        "model_3_multimer_v3_3",
        "model_3_multimer_v3_5",
        "model_3_multimer_v3_1",
        "model_5_multimer_v3_5",
        "model_4_multimer_v3_1",
        "model_5_multimer_v3_2",
        "model_4_multimer_v3_5",
        "model_1_multimer_v3_1",
        "model_4_multimer_v3_3",
        "model_4_multimer_v3_4",
        "model_2_multimer_v3_5",
        "model_1_multimer_v3_4",
        "model_1_multimer_v3_3"
    ]
}