{
    "features": 235.8564817905426,
    "process_features_model_1_multimer_v3_1": 5.7220458984375e-06,
    "predict_and_compile_model_1_multimer_v3_1": 283.5172746181488,
    "process_features_model_2_multimer_v3_1": 1.5020370483398438e-05,
    "predict_and_compile_model_2_multimer_v3_1": 199.3141541481018,
    "process_features_model_3_multimer_v3_1": 8.344650268554688e-06,
    "predict_and_compile_model_3_multimer_v3_1": 450.68290090560913,
    "process_features_model_4_multimer_v3_1": 6.4373016357421875e-06,
    "predict_and_compile_model_4_multimer_v3_1": 448.2895586490631,
    "process_features_model_5_multimer_v3_1": 3.5762786865234375e-06,
    "predict_and_compile_model_5_multimer_v3_1": 432.2265613079071,
    "process_features_model_1_multimer_v3_2": 6.198883056640625e-06,
    "predict_and_compile_model_1_multimer_v3_2": 134.12697219848633,
    "process_features_model_2_multimer_v3_2": 1.7642974853515625e-05,
    "predict_and_compile_model_2_multimer_v3_2": 250.71357250213623,
    "process_features_model_3_multimer_v3_2": 1.5497207641601562e-05,
    "predict_and_compile_model_3_multimer_v3_2": 350.61744570732117,
    "process_features_model_4_multimer_v3_2": 1.430511474609375e-05,
    "predict_and_compile_model_4_multimer_v3_2": 344.996529340744,
    "process_features_model_5_multimer_v3_2": 1.0728836059570312e-05,
    "predict_and_compile_model_5_multimer_v3_2": 345.3031749725342,
    "process_features_model_1_multimer_v3_3": 1.5497207641601562e-05,
    "predict_and_compile_model_1_multimer_v3_3": 350.329576253891,
    "process_features_model_2_multimer_v3_3": 1.7881393432617188e-05,
    "predict_and_compile_model_2_multimer_v3_3": 134.0246741771698,
    "process_features_model_3_multimer_v3_3": 1.430511474609375e-05,
    "predict_and_compile_model_3_multimer_v3_3": 350.69197368621826,
    "process_features_model_4_multimer_v3_3": 1.7881393432617188e-05,
    "predict_and_compile_model_4_multimer_v3_3": 345.10754656791687,
    "process_features_model_5_multimer_v3_3": 1.0967254638671875e-05,
    "predict_and_compile_model_5_multimer_v3_3": 263.3477072715759,
    "process_features_model_1_multimer_v3_4": 1.4543533325195312e-05,
    "predict_and_compile_model_1_multimer_v3_4": 350.5419981479645,
    "process_features_model_2_multimer_v3_4": 1.5974044799804688e-05,
    "predict_and_compile_model_2_multimer_v3_4": 184.11878395080566,
    "process_features_model_3_multimer_v3_4": 1.5020370483398438e-05,
    "predict_and_compile_model_3_multimer_v3_4": 350.89112281799316,
    "process_features_model_4_multimer_v3_4": 2.5272369384765625e-05,
    "predict_and_compile_model_4_multimer_v3_4": 345.154180765152,
    "process_features_model_5_multimer_v3_4": 1.1444091796875e-05,
    "predict_and_compile_model_5_multimer_v3_4": 344.88147139549255,
    "process_features_model_1_multimer_v3_5": 1.9073486328125e-05,
    "predict_and_compile_model_1_multimer_v3_5": 151.12294268608093,
    "process_features_model_2_multimer_v3_5": 1.6689300537109375e-05,
    "predict_and_compile_model_2_multimer_v3_5": 350.7074418067932,
    "process_features_model_3_multimer_v3_5": 1.3589859008789062e-05,
    "predict_and_compile_model_3_multimer_v3_5": 351.2321093082428,
    "process_features_model_4_multimer_v3_5": 1.5735626220703125e-05,
    "predict_and_compile_model_4_multimer_v3_5": 344.94409823417664,
    "process_features_model_5_multimer_v3_5": 1.1444091796875e-05,
    "predict_and_compile_model_5_multimer_v3_5": 345.1404056549072
}