multimernew/s_hIZUMO2e_s_hTMEM95e/unrelaxed_model_1_multimer_v3_1.pdb,B,0.012280836822391577,21.301100346866846,0.18059118750526404,63.77486486486485,0.11517178578933684
multimernew/s_hIZUMO2e_s_hTMEM95e/unrelaxed_model_1_multimer_v3_1.pdb,C,0.012280836822391577,21.301100346866846,0.18059118750526404,63.77486486486487,0.11517178578933686
multimernew/s_hIZUMO2e_s_hTMEM95e/unrelaxed_model_1_multimer_v3_2.pdb,B,0.01065928515974516,24.16021507016454,0.14625955972285368,58.709761904761905,0.08586863927624043
multimernew/s_hIZUMO2e_s_hTMEM95e/unrelaxed_model_1_multimer_v3_2.pdb,C,0.01065928515974516,24.16021507016454,0.14625955972285368,58.709761904761905,0.08586863927624043
multimernew/s_hIZUMO2e_s_hTMEM95e/unrelaxed_model_1_multimer_v3_3.pdb,B,0.010953889652455062,22.50689094328023,0.1648641139048368,55.568571428571445,0.09161263289529062
multimernew/s_hIZUMO2e_s_hTMEM95e/unrelaxed_model_1_multimer_v3_3.pdb,C,0.010953889652455062,22.50689094328023,0.1648641139048368,55.56857142857142,0.09161263289529059
multimernew/s_hIZUMO2e_s_hTMEM95e/unrelaxed_model_1_multimer_v3_4.pdb,B,0.010350886359107647,24.887095483070347,0.1390110020256149,57.27815789473686,0.07962294123128755
multimernew/s_hIZUMO2e_s_hTMEM95e/unrelaxed_model_1_multimer_v3_4.pdb,C,0.010350886359107647,24.887095483070347,0.1390110020256149,57.278157894736836,0.07962294123128752
multimernew/s_hIZUMO2e_s_hTMEM95e/unrelaxed_model_1_multimer_v3_5.pdb,B,0.01600461367097069,15.388896324518436,0.29689613196960696,56.27444444444444,0.16707664884294093
multimernew/s_hIZUMO2e_s_hTMEM95e/unrelaxed_model_1_multimer_v3_5.pdb,C,0.01600461367097069,15.388896324518436,0.29689613196960696,56.274444444444434,0.1670766488429409
multimernew/s_hIZUMO2e_s_hTMEM95e/unrelaxed_model_2_multimer_v3_1.pdb,B,0.010644818893815437,24.76567632422487,0.14018585654205945,61.04833333333333,0.08558112898798492
multimernew/s_hIZUMO2e_s_hTMEM95e/unrelaxed_model_2_multimer_v3_1.pdb,C,0.010644818893815432,24.76567632422487,0.14018585654205945,61.048333333333325,0.08558112898798491
multimernew/s_hIZUMO2e_s_hTMEM95e/unrelaxed_model_2_multimer_v3_2.pdb,B,0.010972148987427351,24.718147610669536,0.14064958309178638,65.38366666666667,0.09196185457678997
multimernew/s_hIZUMO2e_s_hTMEM95e/unrelaxed_model_2_multimer_v3_2.pdb,C,0.010972148987427351,24.718147610669536,0.14064958309178638,65.38366666666667,0.09196185457678997
multimernew/s_hIZUMO2e_s_hTMEM95e/unrelaxed_model_2_multimer_v3_3.pdb,B,0.010908093937911376,23.924047278451635,0.1487298386597335,61.0054761904762,0.09073334631169738
multimernew/s_hIZUMO2e_s_hTMEM95e/unrelaxed_model_2_multimer_v3_3.pdb,C,0.010908093937911376,23.924047278451635,0.1487298386597335,61.00547619047619,0.09073334631169735
multimernew/s_hIZUMO2e_s_hTMEM95e/unrelaxed_model_2_multimer_v3_4.pdb,B,0.010761922749462511,24.314172925129633,0.14468032054186902,60.75021739130435,0.08789360925162139
multimernew/s_hIZUMO2e_s_hTMEM95e/unrelaxed_model_2_multimer_v3_4.pdb,C,0.010761922749462511,24.314172925129633,0.14468032054186902,60.75021739130434,0.08789360925162137
multimernew/s_hIZUMO2e_s_hTMEM95e/unrelaxed_model_2_multimer_v3_5.pdb,B,0.010010183480964977,25.361013743423566,0.13455671978335654,53.823214285714286,0.0724227516248241
multimernew/s_hIZUMO2e_s_hTMEM95e/unrelaxed_model_2_multimer_v3_5.pdb,C,0.010010183480964977,25.361013743423566,0.13455671978335654,53.823214285714286,0.0724227516248241
multimernew/s_hIZUMO2e_s_hTMEM95e/unrelaxed_model_3_multimer_v3_1.pdb,B,0.011497185583779842,25.784643004046124,0.13074496397707697,77.77486486486487,0.10168671905078787
multimernew/s_hIZUMO2e_s_hTMEM95e/unrelaxed_model_3_multimer_v3_1.pdb,C,0.011497185583779842,25.784643004046124,0.13074496397707697,77.77486486486487,0.10168671905078787
multimernew/s_hIZUMO2e_s_hTMEM95e/unrelaxed_model_3_multimer_v3_2.pdb,B,0.01172010176803399,25.71050445075189,0.13140085786451547,80.39611111111111,0.10564117968970903
multimernew/s_hIZUMO2e_s_hTMEM95e/unrelaxed_model_3_multimer_v3_2.pdb,C,0.01172010176803399,25.71050445075189,0.13140085786451547,80.39611111111111,0.10564117968970903
multimernew/s_hIZUMO2e_s_hTMEM95e/unrelaxed_model_3_multimer_v3_3.pdb,B,0.009979942261476023,28.24403557312098,0.11139261938818483,64.42750000000001,0.0717674798563228
multimernew/s_hIZUMO2e_s_hTMEM95e/unrelaxed_model_3_multimer_v3_3.pdb,C,0.009979942261476023,28.24403557312098,0.11139261938818483,64.42750000000001,0.0717674798563228
multimernew/s_hIZUMO2e_s_hTMEM95e/unrelaxed_model_3_multimer_v3_4.pdb,B,0.011454991808257802,25.84392727701022,0.1302238352093008,77.50266666666667,0.1009269449228137
multimernew/s_hIZUMO2e_s_hTMEM95e/unrelaxed_model_3_multimer_v3_4.pdb,C,0.011454991808257802,25.84392727701022,0.1302238352093008,77.50266666666668,0.10092694492281373
multimernew/s_hIZUMO2e_s_hTMEM95e/unrelaxed_model_3_multimer_v3_5.pdb,B,0.011417531051022953,25.93377161347267,0.12943969914678527,77.44866666666667,0.1002493211265299
multimernew/s_hIZUMO2e_s_hTMEM95e/unrelaxed_model_3_multimer_v3_5.pdb,C,0.011417531051022953,25.93377161347267,0.12943969914678527,77.44866666666667,0.1002493211265299
multimernew/s_hIZUMO2e_s_hTMEM95e/unrelaxed_model_4_multimer_v3_1.pdb,B,0.01272612579866112,20.19961425649873,0.19684093289343482,62.15736842105263,0.12235114386200925
multimernew/s_hIZUMO2e_s_hTMEM95e/unrelaxed_model_4_multimer_v3_1.pdb,C,0.01272612579866112,20.19961425649873,0.19684093289343482,62.15736842105263,0.12235114386200925
multimernew/s_hIZUMO2e_s_hTMEM95e/unrelaxed_model_4_multimer_v3_2.pdb,B,0.01133748601190486,23.67467426031884,0.1514027002948731,65.2508695652174,0.09879157848762465
multimernew/s_hIZUMO2e_s_hTMEM95e/unrelaxed_model_4_multimer_v3_2.pdb,C,0.01133748601190486,23.67467426031884,0.1514027002948731,65.2508695652174,0.09879157848762465
multimernew/s_hIZUMO2e_s_hTMEM95e/unrelaxed_model_4_multimer_v3_3.pdb,B,0.011232516206935982,24.12896706367301,0.14658306414651864,66.07809523809523,0.0968592967296548
multimernew/s_hIZUMO2e_s_hTMEM95e/unrelaxed_model_4_multimer_v3_3.pdb,C,0.011232516206935982,24.12896706367301,0.14658306414651864,66.07809523809523,0.0968592967296548
multimernew/s_hIZUMO2e_s_hTMEM95e/unrelaxed_model_4_multimer_v3_4.pdb,B,0.010376196373956776,24.973315589846866,0.13818520156405295,57.99820512820512,0.08014493665994314
multimernew/s_hIZUMO2e_s_hTMEM95e/unrelaxed_model_4_multimer_v3_4.pdb,C,0.010376196373956776,24.973315589846866,0.13818520156405295,57.998205128205115,0.08014493665994314
multimernew/s_hIZUMO2e_s_hTMEM95e/unrelaxed_model_4_multimer_v3_5.pdb,B,0.010856292478763869,23.60512917250235,0.15216019008794435,58.972592592592584,0.08973280898867786
multimernew/s_hIZUMO2e_s_hTMEM95e/unrelaxed_model_4_multimer_v3_5.pdb,C,0.010856292478763869,23.60512917250235,0.15216019008794435,58.97259259259259,0.08973280898867789
multimernew/s_hIZUMO2e_s_hTMEM95e/unrelaxed_model_5_multimer_v3_1.pdb,B,0.011389556196180034,25.89017206926026,0.12981938064587503,76.83088888888888,0.09974138410027596
multimernew/s_hIZUMO2e_s_hTMEM95e/unrelaxed_model_5_multimer_v3_1.pdb,C,0.011389556196180034,25.89017206926026,0.12981938064587503,76.8308888888889,0.09974138410027597
multimernew/s_hIZUMO2e_s_hTMEM95e/unrelaxed_model_5_multimer_v3_2.pdb,B,0.011428378854037644,25.791534895820483,0.13068422943584132,76.86148936170213,0.10044584510525156
multimernew/s_hIZUMO2e_s_hTMEM95e/unrelaxed_model_5_multimer_v3_2.pdb,C,0.011428378854037644,25.791534895820483,0.13068422943584132,76.86148936170213,0.10044584510525156
multimernew/s_hIZUMO2e_s_hTMEM95e/unrelaxed_model_5_multimer_v3_3.pdb,B,0.011377132645275076,25.790835705432553,0.13069038919283554,76.14583333333333,0.09951528593746123
multimernew/s_hIZUMO2e_s_hTMEM95e/unrelaxed_model_5_multimer_v3_3.pdb,C,0.011377132645275076,25.790835705432553,0.13069038919283554,76.14583333333333,0.09951528593746123
multimernew/s_hIZUMO2e_s_hTMEM95e/unrelaxed_model_5_multimer_v3_4.pdb,B,0.011148347981225524,25.839506805653713,0.13026259042293056,73.15428571428572,0.09529266757682041
multimernew/s_hIZUMO2e_s_hTMEM95e/unrelaxed_model_5_multimer_v3_4.pdb,C,0.011148347981225524,25.839506805653713,0.13026259042293056,73.15428571428572,0.09529266757682041
multimernew/s_hIZUMO2e_s_hTMEM95e/unrelaxed_model_5_multimer_v3_5.pdb,B,0.011402131225928239,25.881105903664853,0.1298985316279164,76.96000000000002,0.09996990994084448
multimernew/s_hIZUMO2e_s_hTMEM95e/unrelaxed_model_5_multimer_v3_5.pdb,C,0.01140213122592823,25.881105903664853,0.1298985316279164,76.95999999999998,0.09996990994084444
