multimernew/s_hIZUMO4f_s_hFIMPe/result_model_1_multimer_v3_1.pkl.json,0.61098787587672,0.17725522816181183,0.26400175770479345
multimernew/s_hIZUMO4f_s_hFIMPe/result_model_1_multimer_v3_2.pkl.json,0.6138927143019296,0.17920172214508057,0.2661399205764504
multimernew/s_hIZUMO4f_s_hFIMPe/result_model_1_multimer_v3_3.pkl.json,0.6088016932516213,0.1627327799797058,0.2519465626340889
multimernew/s_hIZUMO4f_s_hFIMPe/result_model_1_multimer_v3_4.pkl.json,0.5952238348330162,0.11615031957626343,0.21196502262761402
multimernew/s_hIZUMO4f_s_hFIMPe/result_model_1_multimer_v3_5.pkl.json,0.602844077205495,0.15191559493541718,0.24210129138943276
multimernew/s_hIZUMO4f_s_hFIMPe/result_model_2_multimer_v3_1.pkl.json,0.6148415313483707,0.18109384179115295,0.26784337970259653
multimernew/s_hIZUMO4f_s_hFIMPe/result_model_2_multimer_v3_2.pkl.json,0.595424979985663,0.1604485958814621,0.24744387270230228
multimernew/s_hIZUMO4f_s_hFIMPe/result_model_2_multimer_v3_3.pkl.json,0.6140795205785284,0.17964208126068115,0.26652956912425063
multimernew/s_hIZUMO4f_s_hFIMPe/result_model_2_multimer_v3_4.pkl.json,0.6096469586648224,0.15186157822608948,0.24341865431383608
multimernew/s_hIZUMO4f_s_hFIMPe/result_model_2_multimer_v3_5.pkl.json,0.6181209524418587,0.18874043226242065,0.2746165362983083
multimernew/s_hIZUMO4f_s_hFIMPe/result_model_3_multimer_v3_1.pkl.json,0.5870720473660986,0.16805437207221985,0.25185790713099565
multimernew/s_hIZUMO4f_s_hFIMPe/result_model_3_multimer_v3_2.pkl.json,0.5854201079078668,0.15445154905319214,0.24064526082412707
multimernew/s_hIZUMO4f_s_hFIMPe/result_model_3_multimer_v3_3.pkl.json,0.6826944089761657,0.3114839792251587,0.3857260651753601
multimernew/s_hIZUMO4f_s_hFIMPe/result_model_3_multimer_v3_4.pkl.json,0.5988067818165347,0.19849257171154022,0.2785554137325391
multimernew/s_hIZUMO4f_s_hFIMPe/result_model_3_multimer_v3_5.pkl.json,0.5958537362378533,0.1887088119983673,0.27013779684626454
multimernew/s_hIZUMO4f_s_hFIMPe/result_model_4_multimer_v3_1.pkl.json,0.5973353217173291,0.19361959397792816,0.27436273952580836
multimernew/s_hIZUMO4f_s_hFIMPe/result_model_4_multimer_v3_2.pkl.json,0.5972379202771891,0.1780698299407959,0.2619034480080746
multimernew/s_hIZUMO4f_s_hFIMPe/result_model_4_multimer_v3_3.pkl.json,0.6021067251493752,0.20144543051719666,0.2815776894436324
multimernew/s_hIZUMO4f_s_hFIMPe/result_model_4_multimer_v3_4.pkl.json,0.6011045308788657,0.1980038285255432,0.2786239689962077
multimernew/s_hIZUMO4f_s_hFIMPe/result_model_4_multimer_v3_5.pkl.json,0.6102971881815229,0.18701907992362976,0.2716747015752084
multimernew/s_hIZUMO4f_s_hFIMPe/result_model_5_multimer_v3_1.pkl.json,0.6443892074889119,0.2396755814552307,0.320618306661967
multimernew/s_hIZUMO4f_s_hFIMPe/result_model_5_multimer_v3_2.pkl.json,0.5979059837620391,0.1687649041414261,0.2545931200655487
multimernew/s_hIZUMO4f_s_hFIMPe/result_model_5_multimer_v3_3.pkl.json,0.6411222499383414,0.25752365589141846,0.33424337470080306
multimernew/s_hIZUMO4f_s_hFIMPe/result_model_5_multimer_v3_4.pkl.json,0.6147752410996792,0.18763820827007294,0.27306561483599423
multimernew/s_hIZUMO4f_s_hFIMPe/result_model_5_multimer_v3_5.pkl.json,0.6144971469142351,0.19152383506298065,0.2761184974332316
