{
    "features": 71.0120415687561,
    "process_features_model_1_multimer_v3_1": 4.76837158203125e-06,
    "predict_and_compile_model_1_multimer_v3_1": 428.0748028755188,
    "process_features_model_2_multimer_v3_1": 2.8371810913085938e-05,
    "predict_and_compile_model_2_multimer_v3_1": 587.580602645874,
    "process_features_model_3_multimer_v3_1": 1.6450881958007812e-05,
    "predict_and_compile_model_3_multimer_v3_1": 589.3573377132416,
    "process_features_model_4_multimer_v3_1": 1.3589859008789062e-05,
    "predict_and_compile_model_4_multimer_v3_1": 578.3550629615784,
    "process_features_model_5_multimer_v3_1": 2.0503997802734375e-05,
    "predict_and_compile_model_5_multimer_v3_1": 578.2422451972961,
    "process_features_model_1_multimer_v3_2": 2.6941299438476562e-05,
    "predict_and_compile_model_1_multimer_v3_2": 488.93333196640015,
    "process_features_model_2_multimer_v3_2": 1.8835067749023438e-05,
    "predict_and_compile_model_2_multimer_v3_2": 488.6050705909729,
    "process_features_model_3_multimer_v3_2": 1.0251998901367188e-05,
    "predict_and_compile_model_3_multimer_v3_2": 488.5086169242859,
    "process_features_model_4_multimer_v3_2": 8.821487426757812e-06,
    "predict_and_compile_model_4_multimer_v3_2": 475.4855923652649,
    "process_features_model_5_multimer_v3_2": 3.814697265625e-06,
    "predict_and_compile_model_5_multimer_v3_2": 475.7699363231659,
    "process_features_model_1_multimer_v3_3": 5.4836273193359375e-06,
    "predict_and_compile_model_1_multimer_v3_3": 487.97659063339233,
    "process_features_model_2_multimer_v3_3": 1.2636184692382812e-05,
    "predict_and_compile_model_2_multimer_v3_3": 349.39801836013794,
    "process_features_model_3_multimer_v3_3": 1.1444091796875e-05,
    "predict_and_compile_model_3_multimer_v3_3": 395.4914722442627,
    "process_features_model_4_multimer_v3_3": 1.0013580322265625e-05,
    "predict_and_compile_model_4_multimer_v3_3": 475.5435528755188,
    "process_features_model_5_multimer_v3_3": 3.5762786865234375e-06,
    "predict_and_compile_model_5_multimer_v3_3": 475.7859330177307,
    "process_features_model_1_multimer_v3_4": 5.7220458984375e-06,
    "predict_and_compile_model_1_multimer_v3_4": 442.19970536231995,
    "process_features_model_2_multimer_v3_4": 1.3589859008789062e-05,
    "predict_and_compile_model_2_multimer_v3_4": 395.82313871383667,
    "process_features_model_3_multimer_v3_4": 1.1682510375976562e-05,
    "predict_and_compile_model_3_multimer_v3_4": 488.3341462612152,
    "process_features_model_4_multimer_v3_4": 8.58306884765625e-06,
    "predict_and_compile_model_4_multimer_v3_4": 475.4155833721161,
    "process_features_model_5_multimer_v3_4": 3.5762786865234375e-06,
    "predict_and_compile_model_5_multimer_v3_4": 475.72310042381287,
    "process_features_model_1_multimer_v3_5": 5.4836273193359375e-06,
    "predict_and_compile_model_1_multimer_v3_5": 186.9424090385437,
    "process_features_model_2_multimer_v3_5": 1.1682510375976562e-05,
    "predict_and_compile_model_2_multimer_v3_5": 372.6703598499298,
    "process_features_model_3_multimer_v3_5": 2.2411346435546875e-05,
    "predict_and_compile_model_3_multimer_v3_5": 488.87021708488464,
    "process_features_model_4_multimer_v3_5": 1.0013580322265625e-05,
    "predict_and_compile_model_4_multimer_v3_5": 475.8951940536499,
    "process_features_model_5_multimer_v3_5": 4.291534423828125e-06,
    "predict_and_compile_model_5_multimer_v3_5": 475.580415725708
}