{
    "iptm+ptm": {
        "model_1_multimer_v3_1": 0.21540041642799335,
        "model_2_multimer_v3_1": 0.22847593104301672,
        "model_3_multimer_v3_1": 0.20607249651293577,
        "model_4_multimer_v3_1": 0.18773801445600702,
        "model_5_multimer_v3_1": 0.1794898352731481,
        "model_1_multimer_v3_2": 0.19319722956875898,
        "model_2_multimer_v3_2": 0.2367290882621087,
        "model_3_multimer_v3_2": 0.17259331994202057,
        "model_4_multimer_v3_2": 0.18238224682021065,
        "model_5_multimer_v3_2": 0.17597795711660258,
        "model_1_multimer_v3_3": 0.20261601916497446,
        "model_2_multimer_v3_3": 0.2143042577971095,
        "model_3_multimer_v3_3": 0.17806285444130748,
        "model_4_multimer_v3_3": 0.19498161854401996,
        "model_5_multimer_v3_3": 0.17516007548942847,
        "model_1_multimer_v3_4": 0.18216058971411142,
        "model_2_multimer_v3_4": 0.2349214299591876,
        "model_3_multimer_v3_4": 0.18305516269477118,
        "model_4_multimer_v3_4": 0.19627934228235566,
        "model_5_multimer_v3_4": 0.1722692655740547,
        "model_1_multimer_v3_5": 0.5376134920000905,
        "model_2_multimer_v3_5": 0.2188970572637809,
        "model_3_multimer_v3_5": 0.17099624466171798,
        "model_4_multimer_v3_5": 0.19829903078728595,
        "model_5_multimer_v3_5": 0.17180189122427525
    },
    "order": [
        "model_1_multimer_v3_5",
        "model_2_multimer_v3_2",
        "model_2_multimer_v3_4",
        "model_2_multimer_v3_1",
        "model_2_multimer_v3_5",
        "model_1_multimer_v3_1",
        "model_2_multimer_v3_3",
        "model_3_multimer_v3_1",
        "model_1_multimer_v3_3",
        "model_4_multimer_v3_5",
        "model_4_multimer_v3_4",
        "model_4_multimer_v3_3",
        "model_1_multimer_v3_2",
        "model_4_multimer_v3_1",
        "model_3_multimer_v3_4",
        "model_4_multimer_v3_2",
        "model_1_multimer_v3_4",
        "model_5_multimer_v3_1",
        "model_3_multimer_v3_3",
        "model_5_multimer_v3_2",
        "model_5_multimer_v3_3",
        "model_3_multimer_v3_2",
        "model_5_multimer_v3_4",
        "model_5_multimer_v3_5",
        "model_3_multimer_v3_5"
    ]
}