{
    "features": 16.49909281730652,
    "process_features_model_1_multimer_v3_1": 4.76837158203125e-06,
    "predict_and_compile_model_1_multimer_v3_1": 182.92771434783936,
    "process_features_model_2_multimer_v3_1": 8.58306884765625e-06,
    "predict_and_compile_model_2_multimer_v3_1": 183.7562325000763,
    "process_features_model_3_multimer_v3_1": 8.344650268554688e-06,
    "predict_and_compile_model_3_multimer_v3_1": 186.0818636417389,
    "process_features_model_4_multimer_v3_1": 8.106231689453125e-06,
    "predict_and_compile_model_4_multimer_v3_1": 128.74839973449707,
    "process_features_model_5_multimer_v3_1": 5.0067901611328125e-06,
    "predict_and_compile_model_5_multimer_v3_1": 184.9333655834198,
    "process_features_model_1_multimer_v3_2": 6.67572021484375e-06,
    "predict_and_compile_model_1_multimer_v3_2": 84.87761664390564,
    "process_features_model_2_multimer_v3_2": 7.867813110351562e-06,
    "predict_and_compile_model_2_multimer_v3_2": 64.77779865264893,
    "process_features_model_3_multimer_v3_2": 8.106231689453125e-06,
    "predict_and_compile_model_3_multimer_v3_2": 84.88800120353699,
    "process_features_model_4_multimer_v3_2": 9.059906005859375e-06,
    "predict_and_compile_model_4_multimer_v3_2": 84.78915143013,
    "process_features_model_5_multimer_v3_2": 6.198883056640625e-06,
    "predict_and_compile_model_5_multimer_v3_2": 84.625159740448,
    "process_features_model_1_multimer_v3_3": 5.9604644775390625e-06,
    "predict_and_compile_model_1_multimer_v3_3": 84.73335719108582,
    "process_features_model_2_multimer_v3_3": 7.867813110351562e-06,
    "predict_and_compile_model_2_multimer_v3_3": 84.59905648231506,
    "process_features_model_3_multimer_v3_3": 7.867813110351562e-06,
    "predict_and_compile_model_3_multimer_v3_3": 84.76569771766663,
    "process_features_model_4_multimer_v3_3": 7.3909759521484375e-06,
    "predict_and_compile_model_4_multimer_v3_3": 44.46631407737732,
    "process_features_model_5_multimer_v3_3": 5.4836273193359375e-06,
    "predict_and_compile_model_5_multimer_v3_3": 84.75630235671997,
    "process_features_model_1_multimer_v3_4": 5.4836273193359375e-06,
    "predict_and_compile_model_1_multimer_v3_4": 84.8459484577179,
    "process_features_model_2_multimer_v3_4": 2.0265579223632812e-05,
    "predict_and_compile_model_2_multimer_v3_4": 84.87928128242493,
    "process_features_model_3_multimer_v3_4": 7.62939453125e-06,
    "predict_and_compile_model_3_multimer_v3_4": 84.72566604614258,
    "process_features_model_4_multimer_v3_4": 8.58306884765625e-06,
    "predict_and_compile_model_4_multimer_v3_4": 84.6003098487854,
    "process_features_model_5_multimer_v3_4": 5.9604644775390625e-06,
    "predict_and_compile_model_5_multimer_v3_4": 84.80490922927856,
    "process_features_model_1_multimer_v3_5": 1.7642974853515625e-05,
    "predict_and_compile_model_1_multimer_v3_5": 24.440221548080444,
    "process_features_model_2_multimer_v3_5": 8.106231689453125e-06,
    "predict_and_compile_model_2_multimer_v3_5": 68.75928854942322,
    "process_features_model_3_multimer_v3_5": 8.106231689453125e-06,
    "predict_and_compile_model_3_multimer_v3_5": 84.86232018470764,
    "process_features_model_4_multimer_v3_5": 8.106231689453125e-06,
    "predict_and_compile_model_4_multimer_v3_5": 84.72357845306396,
    "process_features_model_5_multimer_v3_5": 5.9604644775390625e-06,
    "predict_and_compile_model_5_multimer_v3_5": 84.80621290206909
}