multimernew/e_hJUNOe_e_hJUNOe/result_model_1_multimer_v3_1.pkl.json,0.5339772867436919,0.15795710682868958,0.23316114281169004
multimernew/e_hJUNOe_e_hJUNOe/result_model_1_multimer_v3_2.pkl.json,0.5318953036314795,0.14892423152923584,0.2255184459496846
multimernew/e_hJUNOe_e_hJUNOe/result_model_1_multimer_v3_3.pkl.json,0.5303657818013143,0.1413593590259552,0.21916064358102705
multimernew/e_hJUNOe_e_hJUNOe/result_model_1_multimer_v3_4.pkl.json,0.5320976117596571,0.15062469244003296,0.2269192763039578
multimernew/e_hJUNOe_e_hJUNOe/result_model_1_multimer_v3_5.pkl.json,0.534143462800008,0.1517462432384491,0.2282256871507609
multimernew/e_hJUNOe_e_hJUNOe/result_model_2_multimer_v3_1.pkl.json,0.532898676974436,0.1509142518043518,0.22731113683836868
multimernew/e_hJUNOe_e_hJUNOe/result_model_2_multimer_v3_2.pkl.json,0.5368920772176788,0.16342104971408844,0.23811525521480653
multimernew/e_hJUNOe_e_hJUNOe/result_model_2_multimer_v3_3.pkl.json,0.5371396127050692,0.16171497106552124,0.23679989939343082
multimernew/e_hJUNOe_e_hJUNOe/result_model_2_multimer_v3_4.pkl.json,0.5256966111529962,0.1363975703716278,0.2142573785279015
multimernew/e_hJUNOe_e_hJUNOe/result_model_2_multimer_v3_5.pkl.json,0.5308067666052554,0.15156355500221252,0.2274121973228211
multimernew/e_hJUNOe_e_hJUNOe/result_model_3_multimer_v3_1.pkl.json,0.5167450697603557,0.11187437176704407,0.1928485113657064
multimernew/e_hJUNOe_e_hJUNOe/result_model_3_multimer_v3_2.pkl.json,0.5585063807354445,0.2071491926908493,0.2774206302997684
multimernew/e_hJUNOe_e_hJUNOe/result_model_3_multimer_v3_3.pkl.json,0.5651536321390735,0.21783998608589172,0.2873027152965281
multimernew/e_hJUNOe_e_hJUNOe/result_model_3_multimer_v3_4.pkl.json,0.5677696653109339,0.2239648401737213,0.29272580520116387
multimernew/e_hJUNOe_e_hJUNOe/result_model_3_multimer_v3_5.pkl.json,0.5125019112434708,0.10235604643821716,0.18438521939926789
multimernew/e_hJUNOe_e_hJUNOe/result_model_4_multimer_v3_1.pkl.json,0.513550319050465,0.10438290238380432,0.18621638571713647
multimernew/e_hJUNOe_e_hJUNOe/result_model_4_multimer_v3_2.pkl.json,0.5171879498636651,0.10972830653190613,0.19122023519825793
multimernew/e_hJUNOe_e_hJUNOe/result_model_4_multimer_v3_3.pkl.json,0.5129965305312589,0.10176437348127365,0.1840108048912707
multimernew/e_hJUNOe_e_hJUNOe/result_model_4_multimer_v3_4.pkl.json,0.5177642701150034,0.11050905287265778,0.19196009632112693
multimernew/e_hJUNOe_e_hJUNOe/result_model_4_multimer_v3_5.pkl.json,0.5152150019523575,0.10672739893198013,0.1884249195360556
multimernew/e_hJUNOe_e_hJUNOe/result_model_5_multimer_v3_1.pkl.json,0.5689169210045177,0.2342657446861267,0.30119597994980496
multimernew/e_hJUNOe_e_hJUNOe/result_model_5_multimer_v3_2.pkl.json,0.5219337577009079,0.1365356743335724,0.2136152910070395
multimernew/e_hJUNOe_e_hJUNOe/result_model_5_multimer_v3_3.pkl.json,0.5700185395034829,0.237382709980011,0.3039098758847054
multimernew/e_hJUNOe_e_hJUNOe/result_model_5_multimer_v3_4.pkl.json,0.5299819331471549,0.15079858899116516,0.22663525782236313
multimernew/e_hJUNOe_e_hJUNOe/result_model_5_multimer_v3_5.pkl.json,0.565775206200968,0.22680959105491638,0.29460271408412675
