multimernew/s_hIZUMO3e_s_hDCST2f/result_model_1_multimer_v3_1.pkl.json,0.4087147264412119,0.10856695473194122,0.16859650907379536
multimernew/s_hIZUMO3e_s_hDCST2f/result_model_1_multimer_v3_2.pkl.json,0.4101204292660175,0.12203699350357056,0.17965368065605997
multimernew/s_hIZUMO3e_s_hDCST2f/result_model_1_multimer_v3_3.pkl.json,0.41614547821364944,0.15980470180511475,0.2110728570868217
multimernew/s_hIZUMO3e_s_hDCST2f/result_model_1_multimer_v3_4.pkl.json,0.4088990525647656,0.14152120053768158,0.19499677094309842
multimernew/s_hIZUMO3e_s_hDCST2f/result_model_1_multimer_v3_5.pkl.json,0.4139970246499292,0.11127534508705139,0.17181968099962697
multimernew/s_hIZUMO3e_s_hDCST2f/result_model_2_multimer_v3_1.pkl.json,0.41196297502692064,0.1305144727230072,0.1868041731837899
multimernew/s_hIZUMO3e_s_hDCST2f/result_model_2_multimer_v3_2.pkl.json,0.41785053679745243,0.15561455488204956,0.20806175126513016
multimernew/s_hIZUMO3e_s_hDCST2f/result_model_2_multimer_v3_3.pkl.json,0.3953926474364242,0.12871485948562622,0.18205041707578584
multimernew/s_hIZUMO3e_s_hDCST2f/result_model_2_multimer_v3_4.pkl.json,0.4031785700154744,0.12263679504394531,0.17874515003825114
multimernew/s_hIZUMO3e_s_hDCST2f/result_model_2_multimer_v3_5.pkl.json,0.40909363624880735,0.14213505387306213,0.1955267703482112
multimernew/s_hIZUMO3e_s_hDCST2f/result_model_3_multimer_v3_1.pkl.json,0.4514177703736957,0.2254244089126587,0.2706230812048661
multimernew/s_hIZUMO3e_s_hDCST2f/result_model_3_multimer_v3_2.pkl.json,0.4486929120951768,0.21603626012802124,0.2625675905214524
multimernew/s_hIZUMO3e_s_hDCST2f/result_model_3_multimer_v3_3.pkl.json,0.45063287268132435,0.22812502086162567,0.27262659122556543
multimernew/s_hIZUMO3e_s_hDCST2f/result_model_3_multimer_v3_4.pkl.json,0.4503673321971463,0.2141057401895523,0.2613580585910711
multimernew/s_hIZUMO3e_s_hDCST2f/result_model_3_multimer_v3_5.pkl.json,0.4446746629814066,0.23086005449295044,0.2736229761906417
multimernew/s_hIZUMO3e_s_hDCST2f/result_model_4_multimer_v3_1.pkl.json,0.4368801499802155,0.23619656264781952,0.2763332801142987
multimernew/s_hIZUMO3e_s_hDCST2f/result_model_4_multimer_v3_2.pkl.json,0.42908280857972736,0.21603047847747803,0.2586409444979279
multimernew/s_hIZUMO3e_s_hDCST2f/result_model_4_multimer_v3_3.pkl.json,0.4349788408415636,0.20688404142856598,0.25250300131116554
multimernew/s_hIZUMO3e_s_hDCST2f/result_model_4_multimer_v3_4.pkl.json,0.44350904245277945,0.22938638925552368,0.2722109198949748
multimernew/s_hIZUMO3e_s_hDCST2f/result_model_4_multimer_v3_5.pkl.json,0.44566147820184426,0.2573806643486023,0.2950368271192507
multimernew/s_hIZUMO3e_s_hDCST2f/result_model_5_multimer_v3_1.pkl.json,0.41580107919540965,0.18031159043312073,0.22740948818557855
multimernew/s_hIZUMO3e_s_hDCST2f/result_model_5_multimer_v3_2.pkl.json,0.4119037105550635,0.14289556443691254,0.19669719366054272
multimernew/s_hIZUMO3e_s_hDCST2f/result_model_5_multimer_v3_3.pkl.json,0.4052825008633998,0.186479389667511,0.23024001190668875
multimernew/s_hIZUMO3e_s_hDCST2f/result_model_5_multimer_v3_4.pkl.json,0.41720233571801824,0.1832544058561325,0.23004399182850965
multimernew/s_hIZUMO3e_s_hDCST2f/result_model_5_multimer_v3_5.pkl.json,0.4363594189465753,0.22918576002120972,0.27062049180628284
