multimernew/e_hCD81f_s_hDCST2f/unrelaxed_model_1_multimer_v3_1.pdb,B,0.00732534068972502,0.0,1,0,0.0
multimernew/e_hCD81f_s_hDCST2f/unrelaxed_model_1_multimer_v3_1.pdb,C,0.00732534068972502,0.0,1,0,0.0
multimernew/e_hCD81f_s_hDCST2f/unrelaxed_model_1_multimer_v3_2.pdb,B,0.01026972080395404,27.9115102447297,0.11375886071052248,68.5109090909091,0.07793722964423995
multimernew/e_hCD81f_s_hDCST2f/unrelaxed_model_1_multimer_v3_2.pdb,C,0.01026972080395404,27.9115102447297,0.11375886071052248,68.5109090909091,0.07793722964423995
multimernew/e_hCD81f_s_hDCST2f/unrelaxed_model_1_multimer_v3_3.pdb,B,0.00732534068972502,0.0,1,0,0.0
multimernew/e_hCD81f_s_hDCST2f/unrelaxed_model_1_multimer_v3_3.pdb,C,0.00732534068972502,0.0,1,0,0.0
multimernew/e_hCD81f_s_hDCST2f/unrelaxed_model_1_multimer_v3_4.pdb,B,0.010684644906166836,27.07806757620816,0.12001607106475363,71.96652173913041,0.08637139187326612
multimernew/e_hCD81f_s_hDCST2f/unrelaxed_model_1_multimer_v3_4.pdb,C,0.010684644906166836,27.07806757620816,0.12001607106475363,71.96652173913044,0.08637139187326616
multimernew/e_hCD81f_s_hDCST2f/unrelaxed_model_1_multimer_v3_5.pdb,B,0.009808285788409109,27.17908402669062,0.11923177415088947,57.028,0.06799549616276925
multimernew/e_hCD81f_s_hDCST2f/unrelaxed_model_1_multimer_v3_5.pdb,C,0.009808285788409109,27.17908402669062,0.11923177415088947,57.028,0.06799549616276925
multimernew/e_hCD81f_s_hDCST2f/unrelaxed_model_2_multimer_v3_1.pdb,B,0.01131858965452444,21.206477376256544,0.18191255053817207,54.11692307692307,0.09844547504201138
multimernew/e_hCD81f_s_hDCST2f/unrelaxed_model_2_multimer_v3_1.pdb,C,0.01131858965452444,21.206477376256544,0.18191255053817207,54.11692307692309,0.09844547504201141
multimernew/e_hCD81f_s_hDCST2f/unrelaxed_model_2_multimer_v3_2.pdb,B,0.17409401215363207,5.404834384368788,0.7739205208763525,75.36875,0.583294222577996
multimernew/e_hCD81f_s_hDCST2f/unrelaxed_model_2_multimer_v3_2.pdb,C,0.17409401215363207,5.404834384368788,0.7739205208763525,75.36875,0.583294222577996
multimernew/e_hCD81f_s_hDCST2f/unrelaxed_model_2_multimer_v3_3.pdb,B,0.01255906704918276,18.662089780088266,0.22307805127113592,53.65642857142858,0.11969571523883187
multimernew/e_hCD81f_s_hDCST2f/unrelaxed_model_2_multimer_v3_3.pdb,C,0.01255906704918276,18.662089780088266,0.22307805127113592,53.65642857142858,0.11969571523883187
multimernew/e_hCD81f_s_hDCST2f/unrelaxed_model_2_multimer_v3_4.pdb,B,0.016082932375504493,15.729441338890142,0.28783992199509495,58.3675,0.16800496647048704
multimernew/e_hCD81f_s_hDCST2f/unrelaxed_model_2_multimer_v3_4.pdb,C,0.016082932375504493,15.729441338890142,0.28783992199509495,58.36750000000001,0.16800496647048707
multimernew/e_hCD81f_s_hDCST2f/unrelaxed_model_2_multimer_v3_5.pdb,B,0.010756300925161923,22.52148374226607,0.16468570894754536,53.30357142857143,0.08778336450150409
multimernew/e_hCD81f_s_hDCST2f/unrelaxed_model_2_multimer_v3_5.pdb,C,0.010756300925161923,22.52148374226607,0.16468570894754536,53.30357142857143,0.08778336450150409
multimernew/e_hCD81f_s_hDCST2f/unrelaxed_model_3_multimer_v3_1.pdb,B,0.011702443401675216,22.93520205356956,0.15973841410129389,65.94000000000001,0.1053315102583932
multimernew/e_hCD81f_s_hDCST2f/unrelaxed_model_3_multimer_v3_1.pdb,C,0.011702443401675216,22.93520205356956,0.15973841410129389,65.94,0.10533151025839319
multimernew/e_hCD81f_s_hDCST2f/unrelaxed_model_3_multimer_v3_2.pdb,B,0.011615924725942198,23.031119038765425,0.15862127801880668,65.4423076923077,0.1038054248265383
multimernew/e_hCD81f_s_hDCST2f/unrelaxed_model_3_multimer_v3_2.pdb,C,0.011615924725942198,23.031119038765425,0.15862127801880668,65.4423076923077,0.1038054248265383
multimernew/e_hCD81f_s_hDCST2f/unrelaxed_model_3_multimer_v3_3.pdb,B,0.011496067712114652,23.336660446190542,0.15513503462097605,65.53428571428572,0.1016666368314665
multimernew/e_hCD81f_s_hDCST2f/unrelaxed_model_3_multimer_v3_3.pdb,C,0.01149606771211466,23.336660446190542,0.15513503462097605,65.53428571428573,0.10166663683146654
multimernew/e_hCD81f_s_hDCST2f/unrelaxed_model_3_multimer_v3_4.pdb,B,0.011890898981505717,22.425449216065957,0.1658647733661265,65.47833333333331,0.10860548918725017
multimernew/e_hCD81f_s_hDCST2f/unrelaxed_model_3_multimer_v3_4.pdb,C,0.011890898981505717,22.425449216065957,0.1658647733661265,65.47833333333334,0.10860548918725021
multimernew/e_hCD81f_s_hDCST2f/unrelaxed_model_3_multimer_v3_5.pdb,B,0.011895236778948357,22.550157428273437,0.1643359447302728,66.13285714285713,0.10868005556283597
multimernew/e_hCD81f_s_hDCST2f/unrelaxed_model_3_multimer_v3_5.pdb,C,0.011895236778948357,22.550157428273437,0.1643359447302728,66.13285714285713,0.10868005556283597
multimernew/e_hCD81f_s_hDCST2f/unrelaxed_model_4_multimer_v3_1.pdb,B,0.010488380916185378,26.214593630714617,0.12703172650221714,64.89565217391304,0.08243806738139535
multimernew/e_hCD81f_s_hDCST2f/unrelaxed_model_4_multimer_v3_1.pdb,C,0.010488380916185378,26.214593630714617,0.12703172650221714,64.89565217391304,0.08243806738139535
multimernew/e_hCD81f_s_hDCST2f/unrelaxed_model_4_multimer_v3_2.pdb,B,0.0274975976013044,12.321648490303156,0.39710428139953763,66.92857142857144,0.2657762226224049
multimernew/e_hCD81f_s_hDCST2f/unrelaxed_model_4_multimer_v3_2.pdb,C,0.0274975976013044,12.321648490303156,0.39710428139953763,66.92857142857143,0.26577622262240486
multimernew/e_hCD81f_s_hDCST2f/unrelaxed_model_4_multimer_v3_3.pdb,B,0.010479085606241736,27.146022796630856,0.11948765314461779,68.83500000000001,0.08224932604209766
multimernew/e_hCD81f_s_hDCST2f/unrelaxed_model_4_multimer_v3_3.pdb,C,0.010479085606241736,27.146022796630856,0.11948765314461779,68.83500000000001,0.08224932604209766
multimernew/e_hCD81f_s_hDCST2f/unrelaxed_model_4_multimer_v3_4.pdb,B,0.009476880550989036,26.455013275146484,0.12502067101335854,48.349999999999994,0.06044749443495885
multimernew/e_hCD81f_s_hDCST2f/unrelaxed_model_4_multimer_v3_4.pdb,C,0.009476880550989036,26.455013275146484,0.12502067101335854,48.349999999999994,0.06044749443495885
multimernew/e_hCD81f_s_hDCST2f/unrelaxed_model_4_multimer_v3_5.pdb,B,0.010221662907608193,26.330010037612958,0.12606057462583084,61.02666666666667,0.07693056667499037
multimernew/e_hCD81f_s_hDCST2f/unrelaxed_model_4_multimer_v3_5.pdb,C,0.010221662907608193,26.330010037612958,0.12606057462583084,61.02666666666667,0.07693056667499037
multimernew/e_hCD81f_s_hDCST2f/unrelaxed_model_5_multimer_v3_1.pdb,B,0.009977508251701257,26.394845052364214,0.12551967572385234,57.134166666666665,0.07171462072752532
multimernew/e_hCD81f_s_hDCST2f/unrelaxed_model_5_multimer_v3_1.pdb,C,0.009977508251701257,26.394845052364214,0.12551967572385234,57.13416666666666,0.07171462072752532
multimernew/e_hCD81f_s_hDCST2f/unrelaxed_model_5_multimer_v3_2.pdb,B,0.010447548933263563,25.26124874887591,0.1354773640738166,60.23684210526316,0.08160728588551742
multimernew/e_hCD81f_s_hDCST2f/unrelaxed_model_5_multimer_v3_2.pdb,C,0.010447548933263563,25.26124874887591,0.1354773640738166,60.23684210526317,0.08160728588551745
multimernew/e_hCD81f_s_hDCST2f/unrelaxed_model_5_multimer_v3_3.pdb,B,0.011288097333217024,23.781428913664143,0.1502502354922379,65.14823529411764,0.097885376948449
multimernew/e_hCD81f_s_hDCST2f/unrelaxed_model_5_multimer_v3_3.pdb,C,0.011288097333217024,23.781428913664143,0.1502502354922379,65.14823529411765,0.09788537694844901
multimernew/e_hCD81f_s_hDCST2f/unrelaxed_model_5_multimer_v3_4.pdb,B,0.00925568648986373,28.624973330274724,0.10876787662617304,50.75086956521739,0.05520064319540566
multimernew/e_hCD81f_s_hDCST2f/unrelaxed_model_5_multimer_v3_4.pdb,C,0.00925568648986373,28.624973330274724,0.10876787662617304,50.75086956521739,0.05520064319540566
multimernew/e_hCD81f_s_hDCST2f/unrelaxed_model_5_multimer_v3_5.pdb,B,0.010857876808726278,25.404603503604392,0.13415725939503687,66.90916666666666,0.08976350428405754
multimernew/e_hCD81f_s_hDCST2f/unrelaxed_model_5_multimer_v3_5.pdb,C,0.010857876808726278,25.404603503604392,0.13415725939503687,66.90916666666666,0.08976350428405754
