{
    "features": 176.49652409553528,
    "process_features_model_1_multimer_v3_1": 5.245208740234375e-06,
    "predict_and_compile_model_1_multimer_v3_1": 133.1736090183258,
    "process_features_model_2_multimer_v3_1": 1.5735626220703125e-05,
    "predict_and_compile_model_2_multimer_v3_1": 150.45623183250427,
    "process_features_model_3_multimer_v3_1": 1.4781951904296875e-05,
    "predict_and_compile_model_3_multimer_v3_1": 150.864830493927,
    "process_features_model_4_multimer_v3_1": 1.4781951904296875e-05,
    "predict_and_compile_model_4_multimer_v3_1": 156.14377808570862,
    "process_features_model_5_multimer_v3_1": 2.3365020751953125e-05,
    "predict_and_compile_model_5_multimer_v3_1": 153.54315519332886,
    "process_features_model_1_multimer_v3_2": 1.4781951904296875e-05,
    "predict_and_compile_model_1_multimer_v3_2": 50.766270875930786,
    "process_features_model_2_multimer_v3_2": 1.621246337890625e-05,
    "predict_and_compile_model_2_multimer_v3_2": 50.84341907501221,
    "process_features_model_3_multimer_v3_2": 8.821487426757812e-06,
    "predict_and_compile_model_3_multimer_v3_2": 50.94761300086975,
    "process_features_model_4_multimer_v3_2": 1.3589859008789062e-05,
    "predict_and_compile_model_4_multimer_v3_2": 50.919923543930054,
    "process_features_model_5_multimer_v3_2": 1.3589859008789062e-05,
    "predict_and_compile_model_5_multimer_v3_2": 50.89163875579834,
    "process_features_model_1_multimer_v3_3": 1.430511474609375e-05,
    "predict_and_compile_model_1_multimer_v3_3": 46.057249784469604,
    "process_features_model_2_multimer_v3_3": 1.811981201171875e-05,
    "predict_and_compile_model_2_multimer_v3_3": 50.89478802680969,
    "process_features_model_3_multimer_v3_3": 1.3828277587890625e-05,
    "predict_and_compile_model_3_multimer_v3_3": 50.938666582107544,
    "process_features_model_4_multimer_v3_3": 1.4781951904296875e-05,
    "predict_and_compile_model_4_multimer_v3_3": 50.9265673160553,
    "process_features_model_5_multimer_v3_3": 1.430511474609375e-05,
    "predict_and_compile_model_5_multimer_v3_3": 50.97616505622864,
    "process_features_model_1_multimer_v3_4": 1.4066696166992188e-05,
    "predict_and_compile_model_1_multimer_v3_4": 50.88490843772888,
    "process_features_model_2_multimer_v3_4": 1.4543533325195312e-05,
    "predict_and_compile_model_2_multimer_v3_4": 50.93688106536865,
    "process_features_model_3_multimer_v3_4": 1.4066696166992188e-05,
    "predict_and_compile_model_3_multimer_v3_4": 50.87339401245117,
    "process_features_model_4_multimer_v3_4": 1.52587890625e-05,
    "predict_and_compile_model_4_multimer_v3_4": 50.94151973724365,
    "process_features_model_5_multimer_v3_4": 1.4066696166992188e-05,
    "predict_and_compile_model_5_multimer_v3_4": 50.948143005371094,
    "process_features_model_1_multimer_v3_5": 1.3113021850585938e-05,
    "predict_and_compile_model_1_multimer_v3_5": 34.00325417518616,
    "process_features_model_2_multimer_v3_5": 1.33514404296875e-05,
    "predict_and_compile_model_2_multimer_v3_5": 50.911738872528076,
    "process_features_model_3_multimer_v3_5": 1.4066696166992188e-05,
    "predict_and_compile_model_3_multimer_v3_5": 50.95968461036682,
    "process_features_model_4_multimer_v3_5": 1.4781951904296875e-05,
    "predict_and_compile_model_4_multimer_v3_5": 50.93888020515442,
    "process_features_model_5_multimer_v3_5": 1.3828277587890625e-05,
    "predict_and_compile_model_5_multimer_v3_5": 51.00505328178406
}