multimernew/e_hCD9f_s_hFIMPe/result_model_1_multimer_v3_1.pkl.json,0.6581611037679946,0.1088748425245285,0.21873209477322175
multimernew/e_hCD9f_s_hFIMPe/result_model_1_multimer_v3_2.pkl.json,0.6528763407380265,0.10730096697807312,0.21641604173006382
multimernew/e_hCD9f_s_hFIMPe/result_model_1_multimer_v3_3.pkl.json,0.6599210236554398,0.1091567650437355,0.21930961676607635
multimernew/e_hCD9f_s_hFIMPe/result_model_1_multimer_v3_4.pkl.json,0.6517573667084693,0.1048794761300087,0.21425505424570082
multimernew/e_hCD9f_s_hFIMPe/result_model_1_multimer_v3_5.pkl.json,0.6528302758780413,0.1141495555639267,0.22188569962674964
multimernew/e_hCD9f_s_hFIMPe/result_model_2_multimer_v3_1.pkl.json,0.6261277944154859,0.10753034055233002,0.21124983132496122
multimernew/e_hCD9f_s_hFIMPe/result_model_2_multimer_v3_2.pkl.json,0.6447926311798993,0.10600918531417847,0.21376587448732265
multimernew/e_hCD9f_s_hFIMPe/result_model_2_multimer_v3_3.pkl.json,0.6471612418348555,0.10135602951049805,0.21051707197536954
multimernew/e_hCD9f_s_hFIMPe/result_model_2_multimer_v3_4.pkl.json,0.6478314004583223,0.10747405141592026,0.21554552122440068
multimernew/e_hCD9f_s_hFIMPe/result_model_2_multimer_v3_5.pkl.json,0.6391988239640609,0.1127331405878067,0.21802627726305757
multimernew/e_hCD9f_s_hFIMPe/result_model_3_multimer_v3_1.pkl.json,0.5501346418920133,0.12042158842086792,0.206364199115097
multimernew/e_hCD9f_s_hFIMPe/result_model_3_multimer_v3_2.pkl.json,0.5499336647972067,0.11972945928573608,0.20577030038803024
multimernew/e_hCD9f_s_hFIMPe/result_model_3_multimer_v3_3.pkl.json,0.5579748699514241,0.12205041944980621,0.2092353095501298
multimernew/e_hCD9f_s_hFIMPe/result_model_3_multimer_v3_4.pkl.json,0.5477017773115195,0.11747010052204132,0.20351643587993695
multimernew/e_hCD9f_s_hFIMPe/result_model_3_multimer_v3_5.pkl.json,0.5537956673785336,0.12099981307983398,0.2075589839395739
multimernew/e_hCD9f_s_hFIMPe/result_model_4_multimer_v3_1.pkl.json,0.574386488336374,0.13902431726455688,0.2260967514789203
multimernew/e_hCD9f_s_hFIMPe/result_model_4_multimer_v3_2.pkl.json,0.5719211754901139,0.13479933142662048,0.22222370023931917
multimernew/e_hCD9f_s_hFIMPe/result_model_4_multimer_v3_3.pkl.json,0.5798737778396601,0.13144171237945557,0.22112812547149646
multimernew/e_hCD9f_s_hFIMPe/result_model_4_multimer_v3_4.pkl.json,0.5703728746276456,0.12908421456813812,0.21734194658003964
multimernew/e_hCD9f_s_hFIMPe/result_model_4_multimer_v3_5.pkl.json,0.5698945209867095,0.13082337379455566,0.21863760323298642
multimernew/e_hCD9f_s_hFIMPe/result_model_5_multimer_v3_1.pkl.json,0.5501160144005997,0.10266675055027008,0.19215660332033602
multimernew/e_hCD9f_s_hFIMPe/result_model_5_multimer_v3_2.pkl.json,0.5598505510760643,0.10621660947799683,0.19694339779761033
multimernew/e_hCD9f_s_hFIMPe/result_model_5_multimer_v3_3.pkl.json,0.5631142324526245,0.10410531610250473,0.1959070993725287
multimernew/e_hCD9f_s_hFIMPe/result_model_5_multimer_v3_4.pkl.json,0.5807077824574632,0.10974743962287903,0.2039395081897959
multimernew/e_hCD9f_s_hFIMPe/result_model_5_multimer_v3_5.pkl.json,0.5638896774551462,0.10154525190591812,0.19401413701576375
