multimernew/e_hJUNOe_s_hIZUMO1e/unrelaxed_model_1_multimer_v3_1.pdb,B,0.6259030278618938,2.3283654039877586,0.9485750393659582,88.96846153846153,0.8439326190617489
multimernew/e_hJUNOe_s_hIZUMO1e/unrelaxed_model_1_multimer_v3_1.pdb,C,0.6259030278618943,2.3283654039877586,0.9485750393659582,88.96846153846155,0.8439326190617491
multimernew/e_hJUNOe_s_hIZUMO1e/unrelaxed_model_1_multimer_v3_2.pdb,B,0.6566006282749922,2.197249307063784,0.9539444717547391,89.77285714285712,0.8563832078505649
multimernew/e_hJUNOe_s_hIZUMO1e/unrelaxed_model_1_multimer_v3_2.pdb,C,0.6566006282749929,2.197249307063784,0.9539444717547391,89.77285714285715,0.8563832078505652
multimernew/e_hJUNOe_s_hIZUMO1e/unrelaxed_model_1_multimer_v3_3.pdb,B,0.6386227357280121,2.284281739269929,0.9504082391995611,89.3423076923077,0.8491166533987156
multimernew/e_hJUNOe_s_hIZUMO1e/unrelaxed_model_1_multimer_v3_3.pdb,C,0.6386227357280121,2.284281739269929,0.9504082391995611,89.3423076923077,0.8491166533987156
multimernew/e_hJUNOe_s_hIZUMO1e/unrelaxed_model_1_multimer_v3_4.pdb,B,0.6118283682981809,2.3747922401613453,0.9466143742928077,88.54192307692307,0.8381505711214343
multimernew/e_hJUNOe_s_hIZUMO1e/unrelaxed_model_1_multimer_v3_4.pdb,C,0.6118283682981809,2.3747922401613453,0.9466143742928077,88.54192307692307,0.8381505711214343
multimernew/e_hJUNOe_s_hIZUMO1e/unrelaxed_model_1_multimer_v3_5.pdb,B,0.6304697591339429,2.3085222512530046,0.9494036678282182,89.08730769230769,0.8457981668001796
multimernew/e_hJUNOe_s_hIZUMO1e/unrelaxed_model_1_multimer_v3_5.pdb,C,0.6304697591339429,2.3085222512530046,0.9494036678282182,89.08730769230769,0.8457981668001796
multimernew/e_hJUNOe_s_hIZUMO1e/unrelaxed_model_2_multimer_v3_1.pdb,B,0.6912209172689611,2.064907994841437,0.9591052389632343,90.73107142857145,0.870206459438903
multimernew/e_hJUNOe_s_hIZUMO1e/unrelaxed_model_2_multimer_v3_1.pdb,C,0.6912209172689606,2.064907994841437,0.9591052389632343,90.73107142857143,0.8702064594389027
multimernew/e_hJUNOe_s_hIZUMO1e/unrelaxed_model_2_multimer_v3_2.pdb,B,0.6726783999150909,2.168361596311481,0.95509349055073,90.33965517241377,0.8628281659376998
multimernew/e_hJUNOe_s_hIZUMO1e/unrelaxed_model_2_multimer_v3_2.pdb,C,0.6726783999150914,2.168361596311481,0.95509349055073,90.3396551724138,0.8628281659377001
multimernew/e_hJUNOe_s_hIZUMO1e/unrelaxed_model_2_multimer_v3_3.pdb,B,0.7070195598448289,2.0039565431783717,0.9613920172503279,91.16499999999999,0.8764530325262614
multimernew/e_hJUNOe_s_hIZUMO1e/unrelaxed_model_2_multimer_v3_3.pdb,C,0.7070195598448289,2.0039565431783717,0.9613920172503279,91.16499999999999,0.8764530325262614
multimernew/e_hJUNOe_s_hIZUMO1e/unrelaxed_model_2_multimer_v3_4.pdb,B,0.6507101296912293,2.2572803747394157,0.9515172041189041,89.75241379310346,0.8540096583533676
multimernew/e_hJUNOe_s_hIZUMO1e/unrelaxed_model_2_multimer_v3_4.pdb,C,0.6507101296912297,2.2572803747394157,0.9515172041189041,89.75241379310347,0.8540096583533677
multimernew/e_hJUNOe_s_hIZUMO1e/unrelaxed_model_2_multimer_v3_5.pdb,B,0.6688466223056115,2.1377421984437115,0.9562977502673625,90.06571428571428,0.8612963994765162
multimernew/e_hJUNOe_s_hIZUMO1e/unrelaxed_model_2_multimer_v3_5.pdb,C,0.6688466223056115,2.1377421984437115,0.9562977502673625,90.06571428571428,0.8612963994765162
multimernew/e_hJUNOe_s_hIZUMO1e/unrelaxed_model_3_multimer_v3_1.pdb,B,0.6988572198451265,2.015119819066387,0.9609775104578939,90.86892857142858,0.8732299675654762
multimernew/e_hJUNOe_s_hIZUMO1e/unrelaxed_model_3_multimer_v3_1.pdb,C,0.6988572198451259,2.015119819066387,0.9609775104578939,90.86892857142855,0.873229967565476
multimernew/e_hJUNOe_s_hIZUMO1e/unrelaxed_model_3_multimer_v3_2.pdb,B,0.6880018873676619,2.061603215316817,0.9592307017282025,90.58607142857143,0.8689294086322964
multimernew/e_hJUNOe_s_hIZUMO1e/unrelaxed_model_3_multimer_v3_2.pdb,C,0.6880018873676619,2.061603215316817,0.9592307017282025,90.58607142857143,0.8689294086322964
multimernew/e_hJUNOe_s_hIZUMO1e/unrelaxed_model_3_multimer_v3_3.pdb,B,0.6889732233516607,2.232244421301005,0.9525359421673071,91.2632142857143,0.8693149180485971
multimernew/e_hJUNOe_s_hIZUMO1e/unrelaxed_model_3_multimer_v3_3.pdb,C,0.6889732233516601,2.232244421301005,0.9525359421673071,91.26321428571428,0.8693149180485968
multimernew/e_hJUNOe_s_hIZUMO1e/unrelaxed_model_3_multimer_v3_4.pdb,B,0.6931326471999781,2.0338743870460507,0.9602767592388171,90.69928571428572,0.8709641615098982
multimernew/e_hJUNOe_s_hIZUMO1e/unrelaxed_model_3_multimer_v3_4.pdb,C,0.6931326471999779,2.0338743870460507,0.9602767592388171,90.69928571428571,0.8709641615098981
multimernew/e_hJUNOe_s_hIZUMO1e/unrelaxed_model_3_multimer_v3_5.pdb,B,0.6808638509557473,2.0692141494947935,0.9589415078148629,90.31750000000001,0.8660919963206889
multimernew/e_hJUNOe_s_hIZUMO1e/unrelaxed_model_3_multimer_v3_5.pdb,C,0.6808638509557471,2.0692141494947935,0.9589415078148629,90.3175,0.8660919963206888
multimernew/e_hJUNOe_s_hIZUMO1e/unrelaxed_model_4_multimer_v3_1.pdb,B,0.6537626835898394,2.2237659890351873,0.9528788526901123,89.75333333333334,0.8552405329177989
multimernew/e_hJUNOe_s_hIZUMO1e/unrelaxed_model_4_multimer_v3_1.pdb,C,0.6537626835898394,2.2237659890351873,0.9528788526901123,89.75333333333334,0.8552405329177989
multimernew/e_hJUNOe_s_hIZUMO1e/unrelaxed_model_4_multimer_v3_2.pdb,B,0.662754381751883,2.1842086666387854,0.9544647079210679,89.98296296296294,0.858855624623167
multimernew/e_hJUNOe_s_hIZUMO1e/unrelaxed_model_4_multimer_v3_2.pdb,C,0.662754381751883,2.1842086666387854,0.9544647079210679,89.98296296296294,0.858855624623167
multimernew/e_hJUNOe_s_hIZUMO1e/unrelaxed_model_4_multimer_v3_3.pdb,B,0.6749766345460932,2.0984531285384036,0.9578222444715272,90.17807692307694,0.8637456804058758
multimernew/e_hJUNOe_s_hIZUMO1e/unrelaxed_model_4_multimer_v3_3.pdb,C,0.6749766345460928,2.0984531285384036,0.9578222444715272,90.17807692307693,0.8637456804058757
multimernew/e_hJUNOe_s_hIZUMO1e/unrelaxed_model_4_multimer_v3_4.pdb,B,0.6786301401712245,2.134188871267426,0.9564365883954721,90.46103448275863,0.8652024320341483
multimernew/e_hJUNOe_s_hIZUMO1e/unrelaxed_model_4_multimer_v3_4.pdb,C,0.6786301401712238,2.134188871267426,0.9564365883954721,90.46103448275862,0.865202432034148
multimernew/e_hJUNOe_s_hIZUMO1e/unrelaxed_model_4_multimer_v3_5.pdb,B,0.6345856709585038,2.285146700732342,0.9503725396521334,89.17296296296296,0.8474753527941674
multimernew/e_hJUNOe_s_hIZUMO1e/unrelaxed_model_4_multimer_v3_5.pdb,C,0.634585670958504,2.285146700732342,0.9503725396521334,89.17296296296297,0.8474753527941675
multimernew/e_hJUNOe_s_hIZUMO1e/unrelaxed_model_5_multimer_v3_1.pdb,B,0.6634436317569348,2.1103193770659074,0.9573642807978421,89.73931034482757,0.859132103075702
multimernew/e_hJUNOe_s_hIZUMO1e/unrelaxed_model_5_multimer_v3_1.pdb,C,0.6634436317569351,2.1103193770659074,0.9573642807978421,89.73931034482759,0.8591321030757021
multimernew/e_hJUNOe_s_hIZUMO1e/unrelaxed_model_5_multimer_v3_2.pdb,B,0.6876197849219475,1.9783966786001717,0.9623337432314799,90.27821428571428,0.868777718858251
multimernew/e_hJUNOe_s_hIZUMO1e/unrelaxed_model_5_multimer_v3_2.pdb,C,0.6876197849219475,1.9783966786001717,0.9623337432314799,90.27821428571428,0.868777718858251
multimernew/e_hJUNOe_s_hIZUMO1e/unrelaxed_model_5_multimer_v3_3.pdb,B,0.6723657929785053,2.06660956675087,0.959040574875453,89.95482758620692,0.8627032956109814
multimernew/e_hJUNOe_s_hIZUMO1e/unrelaxed_model_5_multimer_v3_3.pdb,C,0.672365792978505,2.06660956675087,0.959040574875453,89.9548275862069,0.8627032956109812
multimernew/e_hJUNOe_s_hIZUMO1e/unrelaxed_model_5_multimer_v3_4.pdb,B,0.6655291871212521,2.1145664680651115,0.9571998487798763,89.84206896551723,0.8599681482786431
multimernew/e_hJUNOe_s_hIZUMO1e/unrelaxed_model_5_multimer_v3_4.pdb,C,0.6655291871212525,2.1145664680651115,0.9571998487798763,89.84206896551724,0.8599681482786433
multimernew/e_hJUNOe_s_hIZUMO1e/unrelaxed_model_5_multimer_v3_5.pdb,B,0.668182348206617,2.099657481314003,0.957775861731435,89.89896551724138,0.8610305916704043
multimernew/e_hJUNOe_s_hIZUMO1e/unrelaxed_model_5_multimer_v3_5.pdb,C,0.6681823482066167,2.099657481314003,0.957775861731435,89.89896551724136,0.8610305916704042
