{
    "features": 57.06835651397705,
    "process_features_model_1_multimer_v3_1": 1.0251998901367188e-05,
    "predict_and_compile_model_1_multimer_v3_1": 245.66506576538086,
    "process_features_model_2_multimer_v3_1": 8.106231689453125e-06,
    "predict_and_compile_model_2_multimer_v3_1": 141.37881541252136,
    "process_features_model_3_multimer_v3_1": 5.245208740234375e-06,
    "predict_and_compile_model_3_multimer_v3_1": 249.49109840393066,
    "process_features_model_4_multimer_v3_1": 6.4373016357421875e-06,
    "predict_and_compile_model_4_multimer_v3_1": 199.25974535942078,
    "process_features_model_5_multimer_v3_1": 3.814697265625e-06,
    "predict_and_compile_model_5_multimer_v3_1": 247.01522183418274,
    "process_features_model_1_multimer_v3_2": 5.245208740234375e-06,
    "predict_and_compile_model_1_multimer_v3_2": 85.96630501747131,
    "process_features_model_2_multimer_v3_2": 9.298324584960938e-06,
    "predict_and_compile_model_2_multimer_v3_2": 57.50169277191162,
    "process_features_model_3_multimer_v3_2": 5.4836273193359375e-06,
    "predict_and_compile_model_3_multimer_v3_2": 150.45593786239624,
    "process_features_model_4_multimer_v3_2": 6.198883056640625e-06,
    "predict_and_compile_model_4_multimer_v3_2": 117.86274313926697,
    "process_features_model_5_multimer_v3_2": 3.5762786865234375e-06,
    "predict_and_compile_model_5_multimer_v3_2": 28.101194143295288,
    "process_features_model_1_multimer_v3_3": 1.049041748046875e-05,
    "predict_and_compile_model_1_multimer_v3_3": 150.2099277973175,
    "process_features_model_2_multimer_v3_3": 8.821487426757812e-06,
    "predict_and_compile_model_2_multimer_v3_3": 50.34787583351135,
    "process_features_model_3_multimer_v3_3": 5.245208740234375e-06,
    "predict_and_compile_model_3_multimer_v3_3": 93.08028435707092,
    "process_features_model_4_multimer_v3_3": 6.4373016357421875e-06,
    "predict_and_compile_model_4_multimer_v3_3": 111.06997418403625,
    "process_features_model_5_multimer_v3_3": 4.291534423828125e-06,
    "predict_and_compile_model_5_multimer_v3_3": 145.49352955818176,
    "process_features_model_1_multimer_v3_4": 5.4836273193359375e-06,
    "predict_and_compile_model_1_multimer_v3_4": 150.04249477386475,
    "process_features_model_2_multimer_v3_4": 9.298324584960938e-06,
    "predict_and_compile_model_2_multimer_v3_4": 57.50065541267395,
    "process_features_model_3_multimer_v3_4": 5.4836273193359375e-06,
    "predict_and_compile_model_3_multimer_v3_4": 150.3162636756897,
    "process_features_model_4_multimer_v3_4": 6.4373016357421875e-06,
    "predict_and_compile_model_4_multimer_v3_4": 124.91762804985046,
    "process_features_model_5_multimer_v3_4": 3.337860107421875e-06,
    "predict_and_compile_model_5_multimer_v3_4": 145.6524941921234,
    "process_features_model_1_multimer_v3_5": 5.245208740234375e-06,
    "predict_and_compile_model_1_multimer_v3_5": 150.22427320480347,
    "process_features_model_2_multimer_v3_5": 9.298324584960938e-06,
    "predict_and_compile_model_2_multimer_v3_5": 50.392218828201294,
    "process_features_model_3_multimer_v3_5": 5.245208740234375e-06,
    "predict_and_compile_model_3_multimer_v3_5": 85.95538902282715,
    "process_features_model_4_multimer_v3_5": 6.4373016357421875e-06,
    "predict_and_compile_model_4_multimer_v3_5": 104.18219566345215,
    "process_features_model_5_multimer_v3_5": 4.291534423828125e-06,
    "predict_and_compile_model_5_multimer_v3_5": 145.6832835674286
}