{
    "iptm+ptm": {
        "model_1_multimer_v3_1": 0.5988973542824434,
        "model_2_multimer_v3_1": 0.4261471703768238,
        "model_3_multimer_v3_1": 0.6412523660132825,
        "model_4_multimer_v3_1": 0.6258686554704764,
        "model_5_multimer_v3_1": 0.6667802021754895,
        "model_1_multimer_v3_2": 0.5835520833733315,
        "model_2_multimer_v3_2": 0.497493018814395,
        "model_3_multimer_v3_2": 0.6931366278141023,
        "model_4_multimer_v3_2": 0.6289341935635722,
        "model_5_multimer_v3_2": 0.7240093533174803,
        "model_1_multimer_v3_3": 0.589751595837509,
        "model_2_multimer_v3_3": 0.42118924802914987,
        "model_3_multimer_v3_3": 0.7076233731187537,
        "model_4_multimer_v3_3": 0.6164956495506496,
        "model_5_multimer_v3_3": 0.7328422751474672,
        "model_1_multimer_v3_4": 0.5967686482368825,
        "model_2_multimer_v3_4": 0.35983780874300253,
        "model_3_multimer_v3_4": 0.7497525250171184,
        "model_4_multimer_v3_4": 0.6737812916410357,
        "model_5_multimer_v3_4": 0.7394829938582385,
        "model_1_multimer_v3_5": 0.5510279231115777,
        "model_2_multimer_v3_5": 0.5066591783093053,
        "model_3_multimer_v3_5": 0.6390257187527709,
        "model_4_multimer_v3_5": 0.6202290709696903,
        "model_5_multimer_v3_5": 0.7660013877643984
    },
    "order": [
        "model_5_multimer_v3_5",
        "model_3_multimer_v3_4",
        "model_5_multimer_v3_4",
        "model_5_multimer_v3_3",
        "model_5_multimer_v3_2",
        "model_3_multimer_v3_3",
        "model_3_multimer_v3_2",
        "model_4_multimer_v3_4",
        "model_5_multimer_v3_1",
        "model_3_multimer_v3_1",
        "model_3_multimer_v3_5",
        "model_4_multimer_v3_2",
        "model_4_multimer_v3_1",
        "model_4_multimer_v3_5",
        "model_4_multimer_v3_3",
        "model_1_multimer_v3_1",
        "model_1_multimer_v3_4",
        "model_1_multimer_v3_3",
        "model_1_multimer_v3_2",
        "model_1_multimer_v3_5",
        "model_2_multimer_v3_5",
        "model_2_multimer_v3_2",
        "model_2_multimer_v3_1",
        "model_2_multimer_v3_3",
        "model_2_multimer_v3_4"
    ]
}