multimernew/s_hIZUMO2e_s_hIZUMO3e/unrelaxed_model_1_multimer_v3_1.pdb,B,0.7127821115518876,2.226803361766791,0.952756127672853,92.22962962962963,0.8787234478262735
multimernew/s_hIZUMO2e_s_hIZUMO3e/unrelaxed_model_1_multimer_v3_1.pdb,C,0.7127821115518876,2.226803361766791,0.952756127672853,92.22962962962963,0.8787234478262735
multimernew/s_hIZUMO2e_s_hIZUMO3e/unrelaxed_model_1_multimer_v3_2.pdb,B,0.723647906026273,2.0998775208559604,0.9577673850498644,92.19296296296297,0.8829941305703604
multimernew/s_hIZUMO2e_s_hIZUMO3e/unrelaxed_model_1_multimer_v3_2.pdb,C,0.723647906026273,2.0998775208559604,0.9577673850498644,92.19296296296297,0.8829941305703604
multimernew/s_hIZUMO2e_s_hIZUMO3e/unrelaxed_model_1_multimer_v3_3.pdb,B,0.8022801452413628,1.652402827641567,0.9734213614299165,93.8582142857143,0.9136359073138085
multimernew/s_hIZUMO2e_s_hIZUMO3e/unrelaxed_model_1_multimer_v3_3.pdb,C,0.8022801452413628,1.652402827641567,0.9734213614299165,93.8582142857143,0.9136359073138085
multimernew/s_hIZUMO2e_s_hIZUMO3e/unrelaxed_model_1_multimer_v3_4.pdb,B,0.01210481349876595,22.14068837710952,0.1694311959106908,66.24600000000001,0.11224139004299624
multimernew/s_hIZUMO2e_s_hIZUMO3e/unrelaxed_model_1_multimer_v3_4.pdb,C,0.01210481349876595,22.14068837710952,0.1694311959106908,66.246,0.11224139004299623
multimernew/s_hIZUMO2e_s_hIZUMO3e/unrelaxed_model_1_multimer_v3_5.pdb,B,0.011546710167713721,22.405058669343113,0.16611663952913705,61.74809523809525,0.10257386078277493
multimernew/s_hIZUMO2e_s_hIZUMO3e/unrelaxed_model_1_multimer_v3_5.pdb,C,0.011546710167713721,22.405058669343113,0.16611663952913705,61.74809523809524,0.10257386078277492
multimernew/s_hIZUMO2e_s_hIZUMO3e/unrelaxed_model_2_multimer_v3_1.pdb,B,0.7730813485428969,1.7552417754318468,0.9701120723958957,93.00923076923075,0.9022937761348655
multimernew/s_hIZUMO2e_s_hIZUMO3e/unrelaxed_model_2_multimer_v3_1.pdb,C,0.7730813485428969,1.7552417754318468,0.9701120723958957,93.00923076923075,0.9022937761348655
multimernew/s_hIZUMO2e_s_hIZUMO3e/unrelaxed_model_2_multimer_v3_2.pdb,B,0.7726316297893402,1.8017286982207408,0.9685584023914144,93.14037037037036,0.9021188832407055
multimernew/s_hIZUMO2e_s_hIZUMO3e/unrelaxed_model_2_multimer_v3_2.pdb,C,0.7726316297893402,1.8017286982207408,0.9685584023914144,93.14037037037036,0.9021188832407055
multimernew/s_hIZUMO2e_s_hIZUMO3e/unrelaxed_model_2_multimer_v3_3.pdb,B,0.824742609772286,1.5334376262838212,0.9770259103190596,94.40444444444444,0.9223558827149841
multimernew/s_hIZUMO2e_s_hIZUMO3e/unrelaxed_model_2_multimer_v3_3.pdb,C,0.824742609772286,1.5334376262838212,0.9770259103190596,94.40444444444444,0.9223558827149841
multimernew/s_hIZUMO2e_s_hIZUMO3e/unrelaxed_model_2_multimer_v3_4.pdb,B,0.6543170683329855,2.3833985316143504,0.9462475688498901,90.40592592592593,0.8554638761703066
multimernew/s_hIZUMO2e_s_hIZUMO3e/unrelaxed_model_2_multimer_v3_4.pdb,C,0.6543170683329855,2.3833985316143504,0.9462475688498901,90.40592592592593,0.8554638761703066
multimernew/s_hIZUMO2e_s_hIZUMO3e/unrelaxed_model_2_multimer_v3_5.pdb,B,0.7413724529546337,1.9722570129671055,0.9625584243075825,92.4551851851852,0.8899351737091762
multimernew/s_hIZUMO2e_s_hIZUMO3e/unrelaxed_model_2_multimer_v3_5.pdb,C,0.7413724529546332,1.9722570129671055,0.9625584243075825,92.45518518518519,0.889935173709176
multimernew/s_hIZUMO2e_s_hIZUMO3e/unrelaxed_model_3_multimer_v3_1.pdb,B,0.7378325011529189,2.0250320538216844,0.9606078281936087,92.49884615384615,0.8885511571426088
multimernew/s_hIZUMO2e_s_hIZUMO3e/unrelaxed_model_3_multimer_v3_1.pdb,C,0.7378325011529192,2.0250320538216844,0.9606078281936087,92.49884615384616,0.8885511571426089
multimernew/s_hIZUMO2e_s_hIZUMO3e/unrelaxed_model_3_multimer_v3_2.pdb,B,0.8052763069348715,1.6045105097342551,0.9749016068225539,93.83500000000001,0.9147989227619435
multimernew/s_hIZUMO2e_s_hIZUMO3e/unrelaxed_model_3_multimer_v3_2.pdb,C,0.8052763069348706,1.6045105097342551,0.9749016068225539,93.83499999999998,0.9147989227619432
multimernew/s_hIZUMO2e_s_hIZUMO3e/unrelaxed_model_3_multimer_v3_3.pdb,B,0.014032816932899879,19.844418984550565,0.20251074242744263,69.97847826086955,0.14171393586551345
multimernew/s_hIZUMO2e_s_hIZUMO3e/unrelaxed_model_3_multimer_v3_3.pdb,C,0.01403281693289989,19.844418984550565,0.20251074242744263,69.97847826086957,0.1417139358655135
multimernew/s_hIZUMO2e_s_hIZUMO3e/unrelaxed_model_3_multimer_v3_4.pdb,B,0.5506522346626651,2.9678037245710067,0.9190512612529111,88.3892857142857,0.812342845169582
multimernew/s_hIZUMO2e_s_hIZUMO3e/unrelaxed_model_3_multimer_v3_4.pdb,C,0.5506522346626652,2.9678037245710067,0.9190512612529111,88.38928571428572,0.8123428451695821
multimernew/s_hIZUMO2e_s_hIZUMO3e/unrelaxed_model_3_multimer_v3_5.pdb,B,0.8001969736195973,1.5938386334143368,0.9752261203203836,93.6016,0.9128272522378041
multimernew/s_hIZUMO2e_s_hIZUMO3e/unrelaxed_model_3_multimer_v3_5.pdb,C,0.8001969736195973,1.5938386334143368,0.9752261203203836,93.6016,0.9128272522378041
multimernew/s_hIZUMO2e_s_hIZUMO3e/unrelaxed_model_4_multimer_v3_1.pdb,B,0.8598562502261679,1.4004526944603077,0.9807645805832748,95.43703703703703,0.9360126560174008
multimernew/s_hIZUMO2e_s_hIZUMO3e/unrelaxed_model_4_multimer_v3_1.pdb,C,0.8598562502261679,1.4004526944603077,0.9807645805832748,95.43703703703703,0.9360126560174008
multimernew/s_hIZUMO2e_s_hIZUMO3e/unrelaxed_model_4_multimer_v3_2.pdb,B,0.8425262691067574,1.464476770376831,0.9790033905379673,94.9196,0.9292661022850764
multimernew/s_hIZUMO2e_s_hIZUMO3e/unrelaxed_model_4_multimer_v3_2.pdb,C,0.8425262691067574,1.464476770376831,0.9790033905379673,94.9196,0.9292661022850764
multimernew/s_hIZUMO2e_s_hIZUMO3e/unrelaxed_model_4_multimer_v3_3.pdb,B,0.7027952701148535,2.1466275364642713,0.9559497423764757,91.50962962962964,0.8747860686941117
multimernew/s_hIZUMO2e_s_hIZUMO3e/unrelaxed_model_4_multimer_v3_3.pdb,C,0.7027952701148535,2.1466275364642713,0.9559497423764757,91.50962962962964,0.8747860686941117
multimernew/s_hIZUMO2e_s_hIZUMO3e/unrelaxed_model_4_multimer_v3_4.pdb,B,0.7325253441492479,2.05471932161471,0.9594915018293746,92.39,0.8864741985401592
multimernew/s_hIZUMO2e_s_hIZUMO3e/unrelaxed_model_4_multimer_v3_4.pdb,C,0.7325253441492479,2.05471932161471,0.9594915018293746,92.39,0.8864741985401592
multimernew/s_hIZUMO2e_s_hIZUMO3e/unrelaxed_model_4_multimer_v3_5.pdb,B,0.803305580718158,1.6139980452837996,0.9746114716443538,93.78444444444446,0.9140339541734815
multimernew/s_hIZUMO2e_s_hIZUMO3e/unrelaxed_model_4_multimer_v3_5.pdb,C,0.8033055807181572,1.6139980452837996,0.9746114716443538,93.78444444444443,0.9140339541734812
multimernew/s_hIZUMO2e_s_hIZUMO3e/unrelaxed_model_5_multimer_v3_1.pdb,B,0.7584553458043274,1.6865378459586826,0.9723425910221579,92.21038461538461,0.896600842960728
multimernew/s_hIZUMO2e_s_hIZUMO3e/unrelaxed_model_5_multimer_v3_1.pdb,C,0.7584553458043274,1.6865378459586826,0.9723425910221579,92.21038461538461,0.896600842960728
multimernew/s_hIZUMO2e_s_hIZUMO3e/unrelaxed_model_5_multimer_v3_2.pdb,B,0.6740330247624294,2.1915489332989955,0.9541721905089032,90.48357142857141,0.8633690755506879
multimernew/s_hIZUMO2e_s_hIZUMO3e/unrelaxed_model_5_multimer_v3_2.pdb,C,0.6740330247624294,2.1915489332989955,0.9541721905089032,90.48357142857141,0.8633690755506879
multimernew/s_hIZUMO2e_s_hIZUMO3e/unrelaxed_model_5_multimer_v3_3.pdb,B,0.7114192255989553,2.008956331467837,0.9612066091920034,91.36296296296297,0.8781868383536423
multimernew/s_hIZUMO2e_s_hIZUMO3e/unrelaxed_model_5_multimer_v3_3.pdb,C,0.7114192255989553,2.008956331467837,0.9612066091920034,91.36296296296297,0.8781868383536423
multimernew/s_hIZUMO2e_s_hIZUMO3e/unrelaxed_model_5_multimer_v3_4.pdb,B,0.011276342058608687,23.778865831603284,0.1502777598327648,64.9922641509434,0.09766891863063082
multimernew/s_hIZUMO2e_s_hIZUMO3e/unrelaxed_model_5_multimer_v3_4.pdb,C,0.01127634205860868,23.778865831603284,0.1502777598327648,64.99226415094338,0.0976689186306308
multimernew/s_hIZUMO2e_s_hIZUMO3e/unrelaxed_model_5_multimer_v3_5.pdb,B,0.012797577432187644,21.252479389093033,0.18126848343368926,68.11631578947369,0.12347341260248157
multimernew/s_hIZUMO2e_s_hIZUMO3e/unrelaxed_model_5_multimer_v3_5.pdb,C,0.012797577432187644,21.252479389093033,0.18126848343368926,68.11631578947369,0.12347341260248157
