{
    "features": 136.29340076446533,
    "process_features_model_1_multimer_v3_1": 4.5299530029296875e-06,
    "predict_and_compile_model_1_multimer_v3_1": 1158.6088192462921,
    "process_features_model_2_multimer_v3_1": 5.0067901611328125e-06,
    "predict_and_compile_model_2_multimer_v3_1": 1149.750109910965,
    "process_features_model_3_multimer_v3_1": 1.1205673217773438e-05,
    "predict_and_compile_model_3_multimer_v3_1": 1152.3420317173004,
    "process_features_model_4_multimer_v3_1": 8.821487426757812e-06,
    "predict_and_compile_model_4_multimer_v3_1": 1134.2853717803955,
    "process_features_model_5_multimer_v3_1": 6.198883056640625e-06,
    "predict_and_compile_model_5_multimer_v3_1": 1129.982417345047,
    "process_features_model_1_multimer_v3_2": 5.9604644775390625e-06,
    "predict_and_compile_model_1_multimer_v3_2": 1054.057808637619,
    "process_features_model_2_multimer_v3_2": 8.344650268554688e-06,
    "predict_and_compile_model_2_multimer_v3_2": 1053.2199063301086,
    "process_features_model_3_multimer_v3_2": 1.0967254638671875e-05,
    "predict_and_compile_model_3_multimer_v3_2": 1052.2001960277557,
    "process_features_model_4_multimer_v3_2": 7.867813110351562e-06,
    "predict_and_compile_model_4_multimer_v3_2": 1027.3145594596863,
    "process_features_model_5_multimer_v3_2": 8.106231689453125e-06,
    "predict_and_compile_model_5_multimer_v3_2": 1027.334750175476,
    "process_features_model_1_multimer_v3_3": 5.7220458984375e-06,
    "predict_and_compile_model_1_multimer_v3_3": 1052.3008778095245,
    "process_features_model_2_multimer_v3_3": 8.344650268554688e-06,
    "predict_and_compile_model_2_multimer_v3_3": 1052.436537027359,
    "process_features_model_3_multimer_v3_3": 1.9311904907226562e-05,
    "predict_and_compile_model_3_multimer_v3_3": 1051.989594221115,
    "process_features_model_4_multimer_v3_3": 8.344650268554688e-06,
    "predict_and_compile_model_4_multimer_v3_3": 1028.2445652484894,
    "process_features_model_5_multimer_v3_3": 7.152557373046875e-06,
    "predict_and_compile_model_5_multimer_v3_3": 1028.010538816452,
    "process_features_model_1_multimer_v3_4": 6.4373016357421875e-06,
    "predict_and_compile_model_1_multimer_v3_4": 1052.5654022693634,
    "process_features_model_2_multimer_v3_4": 8.821487426757812e-06,
    "predict_and_compile_model_2_multimer_v3_4": 1052.2156825065613,
    "process_features_model_3_multimer_v3_4": 1.1205673217773438e-05,
    "predict_and_compile_model_3_multimer_v3_4": 1053.0413045883179,
    "process_features_model_4_multimer_v3_4": 9.059906005859375e-06,
    "predict_and_compile_model_4_multimer_v3_4": 1029.1425938606262,
    "process_features_model_5_multimer_v3_4": 9.298324584960938e-06,
    "predict_and_compile_model_5_multimer_v3_4": 1028.7701394557953,
    "process_features_model_1_multimer_v3_5": 6.198883056640625e-06,
    "predict_and_compile_model_1_multimer_v3_5": 1053.004902124405,
    "process_features_model_2_multimer_v3_5": 1.239776611328125e-05,
    "predict_and_compile_model_2_multimer_v3_5": 1052.1421494483948,
    "process_features_model_3_multimer_v3_5": 1.2636184692382812e-05,
    "predict_and_compile_model_3_multimer_v3_5": 1051.7707793712616,
    "process_features_model_4_multimer_v3_5": 1.3589859008789062e-05,
    "predict_and_compile_model_4_multimer_v3_5": 1027.05233836174,
    "process_features_model_5_multimer_v3_5": 1.3113021850585938e-05,
    "predict_and_compile_model_5_multimer_v3_5": 1027.8108322620392
}