multimernew/e_hCD81f_s_hSOF1f/unrelaxed_model_1_multimer_v3_1.pdb,B,0.017109145867392452,15.301242414889247,0.2992864835694957,60.04042105263158,0.17969286488874026
multimernew/e_hCD81f_s_hSOF1f/unrelaxed_model_1_multimer_v3_1.pdb,C,0.017109145867392452,15.301242414889247,0.2992864835694957,60.04042105263158,0.17969286488874026
multimernew/e_hCD81f_s_hSOF1f/unrelaxed_model_1_multimer_v3_2.pdb,B,0.02094905928747913,13.163218128205278,0.3659380320331607,59.327619047619045,0.21710232159498774
multimernew/e_hCD81f_s_hSOF1f/unrelaxed_model_1_multimer_v3_2.pdb,C,0.02094905928747913,13.163218128205278,0.3659380320331607,59.32761904761904,0.21710232159498774
multimernew/e_hCD81f_s_hSOF1f/unrelaxed_model_1_multimer_v3_3.pdb,B,0.018028539530439747,14.507832507424174,0.3220848380854271,58.829636363636375,0.18948133902806374
multimernew/e_hCD81f_s_hSOF1f/unrelaxed_model_1_multimer_v3_3.pdb,C,0.018028539530439747,14.507832507424174,0.3220848380854271,58.82963636363636,0.18948133902806372
multimernew/e_hCD81f_s_hSOF1f/unrelaxed_model_1_multimer_v3_4.pdb,B,0.017690513903370734,14.411224601952348,0.325009414802614,57.21436363636363,0.18595206843758505
multimernew/e_hCD81f_s_hSOF1f/unrelaxed_model_1_multimer_v3_4.pdb,C,0.017690513903370734,14.411224601952348,0.325009414802614,57.21436363636364,0.18595206843758508
multimernew/e_hCD81f_s_hSOF1f/unrelaxed_model_1_multimer_v3_5.pdb,B,0.019712693860920887,13.934923142452389,0.33992552838352225,60.59769230769232,0.20598702576514413
multimernew/e_hCD81f_s_hSOF1f/unrelaxed_model_1_multimer_v3_5.pdb,C,0.019712693860920887,13.934923142452389,0.33992552838352225,60.59769230769232,0.20598702576514413
multimernew/e_hCD81f_s_hSOF1f/unrelaxed_model_2_multimer_v3_1.pdb,B,0.01744874265031638,14.418648169583882,0.3247834996847206,56.461891891891874,0.1833789084746899
multimernew/e_hCD81f_s_hSOF1f/unrelaxed_model_2_multimer_v3_1.pdb,C,0.01744874265031639,14.418648169583882,0.3247834996847206,56.461891891891895,0.18337890847469
multimernew/e_hCD81f_s_hSOF1f/unrelaxed_model_2_multimer_v3_2.pdb,B,0.015669258185498344,15.23335009031129,0.3011549699893319,54.13795454545454,0.16303914076420178
multimernew/e_hCD81f_s_hSOF1f/unrelaxed_model_2_multimer_v3_2.pdb,C,0.015669258185498344,15.23335009031129,0.3011549699893319,54.13795454545455,0.16303914076420178
multimernew/e_hCD81f_s_hSOF1f/unrelaxed_model_2_multimer_v3_3.pdb,B,0.016155323729090364,15.489387269593049,0.2941858999289875,57.39847826086955,0.16885822981728335
multimernew/e_hCD81f_s_hSOF1f/unrelaxed_model_2_multimer_v3_3.pdb,C,0.016155323729090374,15.489387269593049,0.2941858999289875,57.398478260869574,0.16885822981728343
multimernew/e_hCD81f_s_hSOF1f/unrelaxed_model_2_multimer_v3_4.pdb,B,0.01756927714328343,14.821728111856252,0.3128092664847357,59.035,0.1846669504692637
multimernew/e_hCD81f_s_hSOF1f/unrelaxed_model_2_multimer_v3_4.pdb,C,0.01756927714328343,14.821728111856252,0.3128092664847357,59.035000000000004,0.18466695046926376
multimernew/e_hCD81f_s_hSOF1f/unrelaxed_model_2_multimer_v3_5.pdb,B,0.016245683098944974,15.194372158112568,0.30223446904516277,56.22022222222222,0.16991689012934394
multimernew/e_hCD81f_s_hSOF1f/unrelaxed_model_2_multimer_v3_5.pdb,C,0.016245683098944974,15.194372158112568,0.30223446904516277,56.22022222222221,0.1699168901293439
multimernew/e_hCD81f_s_hSOF1f/unrelaxed_model_3_multimer_v3_1.pdb,B,0.020223809757260576,13.218337547471943,0.36400109601864966,57.877916666666664,0.21067625101942736
multimernew/e_hCD81f_s_hSOF1f/unrelaxed_model_3_multimer_v3_1.pdb,C,0.020223809757260576,13.218337547471943,0.36400109601864966,57.87791666666666,0.21067625101942736
multimernew/e_hCD81f_s_hSOF1f/unrelaxed_model_3_multimer_v3_2.pdb,B,0.01556238276333442,15.498044477225035,0.29395391246609553,55.01901408450704,0.1617305445016806
multimernew/e_hCD81f_s_hSOF1f/unrelaxed_model_3_multimer_v3_2.pdb,C,0.01556238276333442,15.498044477225035,0.29395391246609553,55.01901408450704,0.1617305445016806
multimernew/e_hCD81f_s_hSOF1f/unrelaxed_model_3_multimer_v3_3.pdb,B,0.018609597949779434,14.322297173057297,0.3277311019047893,59.61323943661973,0.19537112648677424
multimernew/e_hCD81f_s_hSOF1f/unrelaxed_model_3_multimer_v3_3.pdb,C,0.018609597949779434,14.322297173057297,0.3277311019047893,59.61323943661971,0.19537112648677418
multimernew/e_hCD81f_s_hSOF1f/unrelaxed_model_3_multimer_v3_4.pdb,B,0.018874342918289492,13.835270127825032,0.34315358891704434,57.69549019607844,0.19798414525112462
multimernew/e_hCD81f_s_hSOF1f/unrelaxed_model_3_multimer_v3_4.pdb,C,0.018874342918289478,13.835270127825032,0.34315358891704434,57.695490196078424,0.19798414525112457
multimernew/e_hCD81f_s_hSOF1f/unrelaxed_model_3_multimer_v3_5.pdb,B,0.01989094366146463,13.992379135116327,0.33808149195743636,61.41657142857142,0.20763806099481885
multimernew/e_hCD81f_s_hSOF1f/unrelaxed_model_3_multimer_v3_5.pdb,C,0.01989094366146463,13.992379135116327,0.33808149195743636,61.41657142857142,0.20763806099481885
multimernew/e_hCD81f_s_hSOF1f/unrelaxed_model_4_multimer_v3_1.pdb,B,0.018693385651152264,13.704147789708578,0.3474590896172623,56.46787037037038,0.19620274831514473
multimernew/e_hCD81f_s_hSOF1f/unrelaxed_model_4_multimer_v3_1.pdb,C,0.01869338565115225,13.704147789708578,0.3474590896172623,56.46787037037037,0.19620274831514467
multimernew/e_hCD81f_s_hSOF1f/unrelaxed_model_4_multimer_v3_2.pdb,B,0.021522790779592085,12.302706314755032,0.3978411821918984,55.803416666666664,0.2220089725701375
multimernew/e_hCD81f_s_hSOF1f/unrelaxed_model_4_multimer_v3_2.pdb,C,0.021522790779592085,12.302706314755032,0.3978411821918984,55.803416666666664,0.2220089725701375
multimernew/e_hCD81f_s_hSOF1f/unrelaxed_model_4_multimer_v3_3.pdb,B,0.020057308533569032,13.588888359452747,0.3512988911289706,59.54011363636364,0.2091637589814745
multimernew/e_hCD81f_s_hSOF1f/unrelaxed_model_4_multimer_v3_3.pdb,C,0.020057308533569032,13.588888359452747,0.3512988911289706,59.540113636363635,0.20916375898147446
multimernew/e_hCD81f_s_hSOF1f/unrelaxed_model_4_multimer_v3_4.pdb,B,0.02047360192574042,13.096788506414452,0.3682890337534048,57.81297029702971,0.21291882969107367
multimernew/e_hCD81f_s_hSOF1f/unrelaxed_model_4_multimer_v3_4.pdb,C,0.02047360192574042,13.096788506414452,0.3682890337534048,57.8129702970297,0.21291882969107362
multimernew/e_hCD81f_s_hSOF1f/unrelaxed_model_4_multimer_v3_5.pdb,B,0.02149434014975508,13.039365480439484,0.3703360084935344,59.88323232323232,0.22176917234276858
multimernew/e_hCD81f_s_hSOF1f/unrelaxed_model_4_multimer_v3_5.pdb,C,0.02149434014975508,13.039365480439484,0.3703360084935344,59.88323232323232,0.22176917234276858
multimernew/e_hCD81f_s_hSOF1f/unrelaxed_model_5_multimer_v3_1.pdb,B,0.018832310274889765,13.656190537764141,0.34905044665089213,56.60274509803922,0.19757213458137188
multimernew/e_hCD81f_s_hSOF1f/unrelaxed_model_5_multimer_v3_1.pdb,C,0.01883231027488975,13.656190537764141,0.34905044665089213,56.602745098039215,0.19757213458137182
multimernew/e_hCD81f_s_hSOF1f/unrelaxed_model_5_multimer_v3_2.pdb,B,0.01859661967947343,13.78921366423808,0.3446583310632693,56.64796296296298,0.19524192372948712
multimernew/e_hCD81f_s_hSOF1f/unrelaxed_model_5_multimer_v3_2.pdb,C,0.018596619679473417,13.78921366423808,0.3446583310632693,56.64796296296296,0.19524192372948704
multimernew/e_hCD81f_s_hSOF1f/unrelaxed_model_5_multimer_v3_3.pdb,B,0.019244099927179847,13.296577322132922,0.3612730226123499,55.792545454545454,0.2015634153560056
multimernew/e_hCD81f_s_hSOF1f/unrelaxed_model_5_multimer_v3_3.pdb,C,0.019244099927179847,13.296577322132922,0.3612730226123499,55.792545454545454,0.2015634153560056
multimernew/e_hCD81f_s_hSOF1f/unrelaxed_model_5_multimer_v3_4.pdb,B,0.017675034953989116,14.239946496323133,0.33027708545886414,56.25233333333334,0.18578856703593846
multimernew/e_hCD81f_s_hSOF1f/unrelaxed_model_5_multimer_v3_4.pdb,C,0.017675034953989116,14.239946496323133,0.33027708545886414,56.25233333333333,0.18578856703593846
multimernew/e_hCD81f_s_hSOF1f/unrelaxed_model_5_multimer_v3_5.pdb,B,0.018163781503727064,14.053031455072322,0.33614835950215877,56.782,0.1908717614925158
multimernew/e_hCD81f_s_hSOF1f/unrelaxed_model_5_multimer_v3_5.pdb,C,0.018163781503727064,14.053031455072322,0.33614835950215877,56.782000000000004,0.1908717614925158
