multimernew/s_hTMEM95e_s_hFIMPe/unrelaxed_model_1_multimer_v3_1.pdb,B,0.32066483484062047,3.6835244100788787,0.8805269969037564,79.11933333333333,0.6966670897702727
multimernew/s_hTMEM95e_s_hFIMPe/unrelaxed_model_1_multimer_v3_1.pdb,C,0.32066483484062047,3.6835244100788787,0.8805269969037564,79.11933333333333,0.6966670897702727
multimernew/s_hTMEM95e_s_hFIMPe/unrelaxed_model_1_multimer_v3_2.pdb,B,0.27341644096300854,4.4668578212200325,0.8336611094642556,79.87833333333336,0.6659145998882232
multimernew/s_hTMEM95e_s_hFIMPe/unrelaxed_model_1_multimer_v3_2.pdb,C,0.2734164409630084,4.4668578212200325,0.8336611094642556,79.87833333333334,0.6659145998882231
multimernew/s_hTMEM95e_s_hFIMPe/unrelaxed_model_1_multimer_v3_3.pdb,B,0.5471255918856862,2.8312333439834005,0.9257897812687109,87.581,0.8108159483329497
multimernew/s_hTMEM95e_s_hFIMPe/unrelaxed_model_1_multimer_v3_3.pdb,C,0.5471255918856862,2.8312333439834005,0.9257897812687109,87.581,0.8108159483329497
multimernew/s_hTMEM95e_s_hFIMPe/unrelaxed_model_1_multimer_v3_4.pdb,B,0.5207402917804845,3.0442501952018732,0.9151855519061778,87.32999999999998,0.799231542479665
multimernew/s_hTMEM95e_s_hFIMPe/unrelaxed_model_1_multimer_v3_4.pdb,C,0.5207402917804848,3.0442501952018732,0.9151855519061778,87.33,0.7992315424796651
multimernew/s_hTMEM95e_s_hFIMPe/unrelaxed_model_1_multimer_v3_5.pdb,B,0.2652328646475055,4.480900626027063,0.8327887559689438,79.27166666666668,0.6601655266691813
multimernew/s_hTMEM95e_s_hFIMPe/unrelaxed_model_1_multimer_v3_5.pdb,C,0.26523286464750534,4.480900626027063,0.8327887559689438,79.27166666666666,0.6601655266691812
multimernew/s_hTMEM95e_s_hFIMPe/unrelaxed_model_2_multimer_v3_1.pdb,B,0.5139616408299152,3.2420864692039535,0.9048862754331575,87.98966666666664,0.7962064174660501
multimernew/s_hTMEM95e_s_hFIMPe/unrelaxed_model_2_multimer_v3_1.pdb,C,0.5139616408299158,3.2420864692039535,0.9048862754331575,87.98966666666665,0.7962064174660504
multimernew/s_hTMEM95e_s_hFIMPe/unrelaxed_model_2_multimer_v3_2.pdb,B,0.5022443789808289,3.3226941808261454,0.9005739631879062,87.82466666666666,0.7909260812565679
multimernew/s_hTMEM95e_s_hFIMPe/unrelaxed_model_2_multimer_v3_2.pdb,C,0.5022443789808289,3.3226941808261454,0.9005739631879062,87.82466666666667,0.7909260812565679
multimernew/s_hTMEM95e_s_hFIMPe/unrelaxed_model_2_multimer_v3_3.pdb,B,0.49956705502586035,3.217176953465416,0.9062056528589592,87.1446875,0.7897100842912748
multimernew/s_hTMEM95e_s_hFIMPe/unrelaxed_model_2_multimer_v3_3.pdb,C,0.4995670550258601,3.217176953465416,0.9062056528589592,87.14468749999999,0.7897100842912746
multimernew/s_hTMEM95e_s_hFIMPe/unrelaxed_model_2_multimer_v3_4.pdb,B,0.5599788212877875,2.936366469312301,0.9206217124252516,88.67466666666668,0.8163582347540506
multimernew/s_hTMEM95e_s_hFIMPe/unrelaxed_model_2_multimer_v3_4.pdb,C,0.5599788212877875,2.936366469312301,0.9206217124252516,88.67466666666668,0.8163582347540506
multimernew/s_hTMEM95e_s_hFIMPe/unrelaxed_model_2_multimer_v3_5.pdb,B,0.5364321650532918,3.132158131478557,0.9106604359901181,88.52433333333335,0.806156079890679
multimernew/s_hTMEM95e_s_hFIMPe/unrelaxed_model_2_multimer_v3_5.pdb,C,0.5364321650532918,3.132158131478557,0.9106604359901181,88.52433333333335,0.806156079890679
multimernew/s_hTMEM95e_s_hFIMPe/unrelaxed_model_3_multimer_v3_1.pdb,B,0.5200980482067019,3.224503897161307,0.9058182258621079,88.2015625,0.7989458286201583
multimernew/s_hTMEM95e_s_hFIMPe/unrelaxed_model_3_multimer_v3_1.pdb,C,0.5200980482067022,3.224503897161307,0.9058182258621079,88.20156250000001,0.7989458286201584
multimernew/s_hTMEM95e_s_hFIMPe/unrelaxed_model_3_multimer_v3_2.pdb,B,0.49053663730103164,3.2474018247392307,0.9046039205913872,86.8425925925926,0.7855814973357983
multimernew/s_hTMEM95e_s_hFIMPe/unrelaxed_model_3_multimer_v3_2.pdb,C,0.49053663730103164,3.2474018247392307,0.9046039205913872,86.8425925925926,0.7855814973357983
multimernew/s_hTMEM95e_s_hFIMPe/unrelaxed_model_3_multimer_v3_3.pdb,B,0.4814979509523726,3.569074116764678,0.8870100828635803,88.09433333333337,0.7814056190981189
multimernew/s_hTMEM95e_s_hFIMPe/unrelaxed_model_3_multimer_v3_3.pdb,C,0.4814979509523723,3.569074116764678,0.8870100828635803,88.09433333333335,0.7814056190981188
multimernew/s_hTMEM95e_s_hFIMPe/unrelaxed_model_3_multimer_v3_4.pdb,B,0.6290011159075368,2.1149376126286223,0.9571854663829964,88.30041666666666,0.8451987550889624
multimernew/s_hTMEM95e_s_hFIMPe/unrelaxed_model_3_multimer_v3_4.pdb,C,0.6290011159075368,2.1149376126286223,0.9571854663829964,88.30041666666666,0.8451987550889624
multimernew/s_hTMEM95e_s_hFIMPe/unrelaxed_model_3_multimer_v3_5.pdb,B,0.5078682267352974,3.2620873935250407,0.903822330191365,87.79034482758621,0.7934687403037242
multimernew/s_hTMEM95e_s_hFIMPe/unrelaxed_model_3_multimer_v3_5.pdb,C,0.5078682267352974,3.2620873935250407,0.903822330191365,87.79034482758621,0.7934687403037242
multimernew/s_hTMEM95e_s_hFIMPe/unrelaxed_model_4_multimer_v3_1.pdb,B,0.48395805191317054,3.202922008100228,0.9069578317510604,86.28258064516129,0.7825466225982148
multimernew/s_hTMEM95e_s_hFIMPe/unrelaxed_model_4_multimer_v3_1.pdb,C,0.4839580519131713,3.202922008100228,0.9069578317510604,86.28258064516132,0.7825466225982152
multimernew/s_hTMEM95e_s_hFIMPe/unrelaxed_model_4_multimer_v3_2.pdb,B,0.4953933388483663,3.221756292275565,0.9059635754828038,86.95793103448277,0.7878071811658708
multimernew/s_hTMEM95e_s_hFIMPe/unrelaxed_model_4_multimer_v3_2.pdb,C,0.4953933388483663,3.221756292275565,0.9059635754828038,86.95793103448277,0.7878071811658708
multimernew/s_hTMEM95e_s_hFIMPe/unrelaxed_model_4_multimer_v3_3.pdb,B,0.47708481216703136,3.2554779052899887,0.9041743673303517,86.1946875,0.7793502703754988
multimernew/s_hTMEM95e_s_hFIMPe/unrelaxed_model_4_multimer_v3_3.pdb,C,0.4770848121670309,3.2554779052899887,0.9041743673303517,86.19468749999999,0.7793502703754985
multimernew/s_hTMEM95e_s_hFIMPe/unrelaxed_model_4_multimer_v3_4.pdb,B,0.48976716325429853,3.220037264507865,0.9060544735692543,86.66451612903225,0.7852277253842446
multimernew/s_hTMEM95e_s_hFIMPe/unrelaxed_model_4_multimer_v3_4.pdb,C,0.4897671632542983,3.220037264507865,0.9060544735692543,86.66451612903224,0.7852277253842445
multimernew/s_hTMEM95e_s_hFIMPe/unrelaxed_model_4_multimer_v3_5.pdb,B,0.49824122784924657,3.1796594717948143,0.9081807934053243,86.88870967741934,0.7891065729280358
multimernew/s_hTMEM95e_s_hFIMPe/unrelaxed_model_4_multimer_v3_5.pdb,C,0.49824122784924657,3.1796594717948143,0.9081807934053243,86.88870967741934,0.7891065729280358
multimernew/s_hTMEM95e_s_hFIMPe/unrelaxed_model_5_multimer_v3_1.pdb,B,0.610379378017133,2.6417432399062384,0.9347645807730349,89.60035714285716,0.8375524028175708
multimernew/s_hTMEM95e_s_hFIMPe/unrelaxed_model_5_multimer_v3_1.pdb,C,0.6103793780171322,2.6417432399062384,0.9347645807730349,89.60035714285713,0.8375524028175705
multimernew/s_hTMEM95e_s_hFIMPe/unrelaxed_model_5_multimer_v3_2.pdb,B,0.060177213843070544,8.59128608924838,0.5753402384752396,69.62341463414634,0.4005715197907025
multimernew/s_hTMEM95e_s_hFIMPe/unrelaxed_model_5_multimer_v3_2.pdb,C,0.060177213843070544,8.59128608924838,0.5753402384752396,69.62341463414634,0.4005715197907025
multimernew/s_hTMEM95e_s_hFIMPe/unrelaxed_model_5_multimer_v3_3.pdb,B,0.5699965907232794,2.82231456970077,0.9262221495189725,88.60035714285713,0.8206361324100578
multimernew/s_hTMEM95e_s_hFIMPe/unrelaxed_model_5_multimer_v3_3.pdb,C,0.5699965907232799,2.82231456970077,0.9262221495189725,88.60035714285716,0.8206361324100581
multimernew/s_hTMEM95e_s_hFIMPe/unrelaxed_model_5_multimer_v3_4.pdb,B,0.3268051016156398,3.963882129707142,0.8642119015691945,81.045,0.7004005356267536
multimernew/s_hTMEM95e_s_hFIMPe/unrelaxed_model_5_multimer_v3_4.pdb,C,0.3268051016156396,3.963882129707142,0.8642119015691945,81.04499999999999,0.7004005356267535
multimernew/s_hTMEM95e_s_hFIMPe/unrelaxed_model_5_multimer_v3_5.pdb,B,0.5939741423860003,2.745672510986842,0.9298976432841155,89.33666666666666,0.8307395579219192
multimernew/s_hTMEM95e_s_hFIMPe/unrelaxed_model_5_multimer_v3_5.pdb,C,0.5939741423860003,2.745672510986842,0.9298976432841155,89.33666666666666,0.8307395579219192
