{
    "iptm+ptm": {
        "model_1_multimer_v3_1": 0.21978742778640475,
        "model_2_multimer_v3_1": 0.213302304752013,
        "model_3_multimer_v3_1": 0.22259387399036878,
        "model_4_multimer_v3_1": 0.2383258395724394,
        "model_5_multimer_v3_1": 0.19872944411250054,
        "model_1_multimer_v3_2": 0.2208181145672951,
        "model_2_multimer_v3_2": 0.21699108172992548,
        "model_3_multimer_v3_2": 0.22311498633608795,
        "model_4_multimer_v3_2": 0.23752885580379185,
        "model_5_multimer_v3_2": 0.20639216558825635,
        "model_1_multimer_v3_3": 0.22562856753376698,
        "model_2_multimer_v3_3": 0.2108354718699469,
        "model_3_multimer_v3_3": 0.22198086237925346,
        "model_4_multimer_v3_3": 0.23693389668917572,
        "model_5_multimer_v3_3": 0.20191053144026505,
        "model_1_multimer_v3_4": 0.21906383402527113,
        "model_2_multimer_v3_4": 0.21080402465580866,
        "model_3_multimer_v3_4": 0.22119191605202115,
        "model_4_multimer_v3_4": 0.23785073372512244,
        "model_5_multimer_v3_4": 0.2022679222273126,
        "model_1_multimer_v3_5": 0.22402641059116699,
        "model_2_multimer_v3_5": 0.2122335874138057,
        "model_3_multimer_v3_5": 0.22077153805905397,
        "model_4_multimer_v3_5": 0.2348455710195289,
        "model_5_multimer_v3_5": 0.2066998319251283
    },
    "order": [
        "model_4_multimer_v3_1",
        "model_4_multimer_v3_4",
        "model_4_multimer_v3_2",
        "model_4_multimer_v3_3",
        "model_4_multimer_v3_5",
        "model_1_multimer_v3_3",
        "model_1_multimer_v3_5",
        "model_3_multimer_v3_2",
        "model_3_multimer_v3_1",
        "model_3_multimer_v3_3",
        "model_3_multimer_v3_4",
        "model_1_multimer_v3_2",
        "model_3_multimer_v3_5",
        "model_1_multimer_v3_1",
        "model_1_multimer_v3_4",
        "model_2_multimer_v3_2",
        "model_2_multimer_v3_1",
        "model_2_multimer_v3_5",
        "model_2_multimer_v3_3",
        "model_2_multimer_v3_4",
        "model_5_multimer_v3_5",
        "model_5_multimer_v3_2",
        "model_5_multimer_v3_4",
        "model_5_multimer_v3_3",
        "model_5_multimer_v3_1"
    ]
}