{
    "features": 205.17119693756104,
    "process_features_model_1_multimer_v3_1": 5.245208740234375e-06,
    "predict_and_compile_model_1_multimer_v3_1": 108.07289409637451,
    "process_features_model_2_multimer_v3_1": 1.0967254638671875e-05,
    "predict_and_compile_model_2_multimer_v3_1": 119.48988938331604,
    "process_features_model_3_multimer_v3_1": 1.621246337890625e-05,
    "predict_and_compile_model_3_multimer_v3_1": 114.55998134613037,
    "process_features_model_4_multimer_v3_1": 1.33514404296875e-05,
    "predict_and_compile_model_4_multimer_v3_1": 119.19423866271973,
    "process_features_model_5_multimer_v3_1": 1.049041748046875e-05,
    "predict_and_compile_model_5_multimer_v3_1": 111.55368113517761,
    "process_features_model_1_multimer_v3_2": 1.6689300537109375e-05,
    "predict_and_compile_model_1_multimer_v3_2": 34.88503456115723,
    "process_features_model_2_multimer_v3_2": 7.152557373046875e-06,
    "predict_and_compile_model_2_multimer_v3_2": 24.474496364593506,
    "process_features_model_3_multimer_v3_2": 5.245208740234375e-06,
    "predict_and_compile_model_3_multimer_v3_2": 21.004571437835693,
    "process_features_model_4_multimer_v3_2": 7.62939453125e-06,
    "predict_and_compile_model_4_multimer_v3_2": 20.534435749053955,
    "process_features_model_5_multimer_v3_2": 3.337860107421875e-06,
    "predict_and_compile_model_5_multimer_v3_2": 17.13483715057373,
    "process_features_model_1_multimer_v3_3": 9.059906005859375e-06,
    "predict_and_compile_model_1_multimer_v3_3": 20.973623275756836,
    "process_features_model_2_multimer_v3_3": 6.198883056640625e-06,
    "predict_and_compile_model_2_multimer_v3_3": 24.443682193756104,
    "process_features_model_3_multimer_v3_3": 7.152557373046875e-06,
    "predict_and_compile_model_3_multimer_v3_3": 21.035516262054443,
    "process_features_model_4_multimer_v3_3": 8.344650268554688e-06,
    "predict_and_compile_model_4_multimer_v3_3": 17.168113231658936,
    "process_features_model_5_multimer_v3_3": 3.5762786865234375e-06,
    "predict_and_compile_model_5_multimer_v3_3": 23.964794874191284,
    "process_features_model_1_multimer_v3_4": 7.867813110351562e-06,
    "predict_and_compile_model_1_multimer_v3_4": 24.480555057525635,
    "process_features_model_2_multimer_v3_4": 5.9604644775390625e-06,
    "predict_and_compile_model_2_multimer_v3_4": 27.963332176208496,
    "process_features_model_3_multimer_v3_4": 6.9141387939453125e-06,
    "predict_and_compile_model_3_multimer_v3_4": 21.00810742378235,
    "process_features_model_4_multimer_v3_4": 7.62939453125e-06,
    "predict_and_compile_model_4_multimer_v3_4": 20.574049472808838,
    "process_features_model_5_multimer_v3_4": 3.337860107421875e-06,
    "predict_and_compile_model_5_multimer_v3_4": 20.541213035583496,
    "process_features_model_1_multimer_v3_5": 7.62939453125e-06,
    "predict_and_compile_model_1_multimer_v3_5": 24.524441480636597,
    "process_features_model_2_multimer_v3_5": 6.4373016357421875e-06,
    "predict_and_compile_model_2_multimer_v3_5": 31.407225608825684,
    "process_features_model_3_multimer_v3_5": 5.4836273193359375e-06,
    "predict_and_compile_model_3_multimer_v3_5": 20.994595050811768,
    "process_features_model_4_multimer_v3_5": 6.9141387939453125e-06,
    "predict_and_compile_model_4_multimer_v3_5": 17.141743898391724,
    "process_features_model_5_multimer_v3_5": 3.5762786865234375e-06,
    "predict_and_compile_model_5_multimer_v3_5": 20.5430269241333
}