multimernew/e_hCD9f_s_hSOF1f/result_model_1_multimer_v3_1.pkl.json,0.6221871075267387,0.13108959794044495,0.2293090998577037
multimernew/e_hCD9f_s_hSOF1f/result_model_1_multimer_v3_2.pkl.json,0.626211051075618,0.1437128186225891,0.24021246511319488
multimernew/e_hCD9f_s_hSOF1f/result_model_1_multimer_v3_3.pkl.json,0.6308893676523023,0.12964071333408356,0.22989044419772733
multimernew/e_hCD9f_s_hSOF1f/result_model_1_multimer_v3_4.pkl.json,0.6276707939979433,0.128788024187088,0.2285645781492591
multimernew/e_hCD9f_s_hSOF1f/result_model_1_multimer_v3_5.pkl.json,0.6195525349130802,0.13419541716575623,0.23126684071522102
multimernew/e_hCD9f_s_hSOF1f/result_model_2_multimer_v3_1.pkl.json,0.6097159087467986,0.12687553465366364,0.22344360947229064
multimernew/e_hCD9f_s_hSOF1f/result_model_2_multimer_v3_2.pkl.json,0.6085021678644568,0.12305542826652527,0.22014477618611156
multimernew/e_hCD9f_s_hSOF1f/result_model_2_multimer_v3_3.pkl.json,0.6070345799333686,0.12254223972558975,0.21944070776714553
multimernew/e_hCD9f_s_hSOF1f/result_model_2_multimer_v3_4.pkl.json,0.6041901222709061,0.12452641129493713,0.22045915349013095
multimernew/e_hCD9f_s_hSOF1f/result_model_2_multimer_v3_5.pkl.json,0.6118155160722433,0.12480438500642776,0.22220661121959087
multimernew/e_hCD9f_s_hSOF1f/result_model_3_multimer_v3_1.pkl.json,0.5478956266788453,0.1492588222026825,0.22898618309791507
multimernew/e_hCD9f_s_hSOF1f/result_model_3_multimer_v3_2.pkl.json,0.5610226227312214,0.17065605521202087,0.248729368715861
multimernew/e_hCD9f_s_hSOF1f/result_model_3_multimer_v3_3.pkl.json,0.5504862556404866,0.1654643714427948,0.24246874828233317
multimernew/e_hCD9f_s_hSOF1f/result_model_3_multimer_v3_4.pkl.json,0.5617397448157329,0.1706451177597046,0.24886404317091027
multimernew/e_hCD9f_s_hSOF1f/result_model_3_multimer_v3_5.pkl.json,0.5547629193784155,0.15426672995090485,0.23436596783640698
multimernew/e_hCD9f_s_hSOF1f/result_model_4_multimer_v3_1.pkl.json,0.5791948158751817,0.20456679165363312,0.27949239649794283
multimernew/e_hCD9f_s_hSOF1f/result_model_4_multimer_v3_2.pkl.json,0.5743180813779425,0.19110971689224243,0.26775138978938245
multimernew/e_hCD9f_s_hSOF1f/result_model_4_multimer_v3_3.pkl.json,0.5794254792934802,0.21873173117637634,0.29087048079979716
multimernew/e_hCD9f_s_hSOF1f/result_model_4_multimer_v3_4.pkl.json,0.5751990978992612,0.1948547512292862,0.27092362056328123
multimernew/e_hCD9f_s_hSOF1f/result_model_4_multimer_v3_5.pkl.json,0.5716522928044789,0.19768056273460388,0.27247490874857894
multimernew/e_hCD9f_s_hSOF1f/result_model_5_multimer_v3_1.pkl.json,0.528030687932454,0.13310736417770386,0.2120920289286539
multimernew/e_hCD9f_s_hSOF1f/result_model_5_multimer_v3_2.pkl.json,0.5388880664912507,0.13664880394935608,0.21709665645773502
multimernew/e_hCD9f_s_hSOF1f/result_model_5_multimer_v3_3.pkl.json,0.5322689054907668,0.12926027178764343,0.2098619985282681
multimernew/e_hCD9f_s_hSOF1f/result_model_5_multimer_v3_4.pkl.json,0.5240622546093628,0.13175415992736816,0.21021577886376713
multimernew/e_hCD9f_s_hSOF1f/result_model_5_multimer_v3_5.pkl.json,0.5330389030924042,0.13471728563308716,0.21438160912495058
