{
    "iptm+ptm": {
        "model_1_multimer_v3_1": 0.25728740461353095,
        "model_2_multimer_v3_1": 0.24924014635986974,
        "model_3_multimer_v3_1": 0.22541700046332916,
        "model_4_multimer_v3_1": 0.23770880590940938,
        "model_5_multimer_v3_1": 0.23855783560830623,
        "model_1_multimer_v3_2": 0.26227735184944173,
        "model_2_multimer_v3_2": 0.27178396697268015,
        "model_3_multimer_v3_2": 0.35609632278465975,
        "model_4_multimer_v3_2": 0.22225854419149316,
        "model_5_multimer_v3_2": 0.21421935057226488,
        "model_1_multimer_v3_3": 0.22648513570722523,
        "model_2_multimer_v3_3": 0.2562185670464029,
        "model_3_multimer_v3_3": 0.2616215839444017,
        "model_4_multimer_v3_3": 0.21158277884001664,
        "model_5_multimer_v3_3": 0.23597173729074633,
        "model_1_multimer_v3_4": 0.21720217663306146,
        "model_2_multimer_v3_4": 0.25268227551261646,
        "model_3_multimer_v3_4": 0.21893290890861722,
        "model_4_multimer_v3_4": 0.22865841634339418,
        "model_5_multimer_v3_4": 0.25623257566161406,
        "model_1_multimer_v3_5": 0.2519445308966956,
        "model_2_multimer_v3_5": 0.2572331164092327,
        "model_3_multimer_v3_5": 0.2227795617983631,
        "model_4_multimer_v3_5": 0.23058472509616657,
        "model_5_multimer_v3_5": 0.21679057346352948
    },
    "order": [
        "model_3_multimer_v3_2",
        "model_2_multimer_v3_2",
        "model_1_multimer_v3_2",
        "model_3_multimer_v3_3",
        "model_1_multimer_v3_1",
        "model_2_multimer_v3_5",
        "model_5_multimer_v3_4",
        "model_2_multimer_v3_3",
        "model_2_multimer_v3_4",
        "model_1_multimer_v3_5",
        "model_2_multimer_v3_1",
        "model_5_multimer_v3_1",
        "model_4_multimer_v3_1",
        "model_5_multimer_v3_3",
        "model_4_multimer_v3_5",
        "model_4_multimer_v3_4",
        "model_1_multimer_v3_3",
        "model_3_multimer_v3_1",
        "model_3_multimer_v3_5",
        "model_4_multimer_v3_2",
        "model_3_multimer_v3_4",
        "model_1_multimer_v3_4",
        "model_5_multimer_v3_5",
        "model_5_multimer_v3_2",
        "model_4_multimer_v3_3"
    ]
}