{
    "features": 64.46769118309021,
    "process_features_model_1_multimer_v3_1": 4.5299530029296875e-06,
    "predict_and_compile_model_1_multimer_v3_1": 791.363915681839,
    "process_features_model_2_multimer_v3_1": 1.5497207641601562e-05,
    "predict_and_compile_model_2_multimer_v3_1": 783.3626890182495,
    "process_features_model_3_multimer_v3_1": 6.4373016357421875e-06,
    "predict_and_compile_model_3_multimer_v3_1": 786.1525590419769,
    "process_features_model_4_multimer_v3_1": 5.7220458984375e-06,
    "predict_and_compile_model_4_multimer_v3_1": 774.1994345188141,
    "process_features_model_5_multimer_v3_1": 5.245208740234375e-06,
    "predict_and_compile_model_5_multimer_v3_1": 774.5352935791016,
    "process_features_model_1_multimer_v3_2": 1.239776611328125e-05,
    "predict_and_compile_model_1_multimer_v3_2": 693.9113998413086,
    "process_features_model_2_multimer_v3_2": 8.58306884765625e-06,
    "predict_and_compile_model_2_multimer_v3_2": 693.9910652637482,
    "process_features_model_3_multimer_v3_2": 6.9141387939453125e-06,
    "predict_and_compile_model_3_multimer_v3_2": 692.8585026264191,
    "process_features_model_4_multimer_v3_2": 8.821487426757812e-06,
    "predict_and_compile_model_4_multimer_v3_2": 678.9925348758698,
    "process_features_model_5_multimer_v3_2": 8.106231689453125e-06,
    "predict_and_compile_model_5_multimer_v3_2": 678.7200360298157,
    "process_features_model_1_multimer_v3_3": 7.62939453125e-06,
    "predict_and_compile_model_1_multimer_v3_3": 693.9110984802246,
    "process_features_model_2_multimer_v3_3": 8.58306884765625e-06,
    "predict_and_compile_model_2_multimer_v3_3": 694.7607941627502,
    "process_features_model_3_multimer_v3_3": 8.58306884765625e-06,
    "predict_and_compile_model_3_multimer_v3_3": 692.559387922287,
    "process_features_model_4_multimer_v3_3": 5.245208740234375e-06,
    "predict_and_compile_model_4_multimer_v3_3": 679.1307892799377,
    "process_features_model_5_multimer_v3_3": 6.67572021484375e-06,
    "predict_and_compile_model_5_multimer_v3_3": 678.0418465137482,
    "process_features_model_1_multimer_v3_4": 6.9141387939453125e-06,
    "predict_and_compile_model_1_multimer_v3_4": 693.0619611740112,
    "process_features_model_2_multimer_v3_4": 8.821487426757812e-06,
    "predict_and_compile_model_2_multimer_v3_4": 692.438773393631,
    "process_features_model_3_multimer_v3_4": 6.9141387939453125e-06,
    "predict_and_compile_model_3_multimer_v3_4": 693.182516336441,
    "process_features_model_4_multimer_v3_4": 5.7220458984375e-06,
    "predict_and_compile_model_4_multimer_v3_4": 678.688470363617,
    "process_features_model_5_multimer_v3_4": 6.198883056640625e-06,
    "predict_and_compile_model_5_multimer_v3_4": 680.9585990905762,
    "process_features_model_1_multimer_v3_5": 6.4373016357421875e-06,
    "predict_and_compile_model_1_multimer_v3_5": 694.2959060668945,
    "process_features_model_2_multimer_v3_5": 9.059906005859375e-06,
    "predict_and_compile_model_2_multimer_v3_5": 694.9988787174225,
    "process_features_model_3_multimer_v3_5": 6.198883056640625e-06,
    "predict_and_compile_model_3_multimer_v3_5": 694.8367710113525,
    "process_features_model_4_multimer_v3_5": 5.9604644775390625e-06,
    "predict_and_compile_model_4_multimer_v3_5": 681.0299751758575,
    "process_features_model_5_multimer_v3_5": 7.62939453125e-06,
    "predict_and_compile_model_5_multimer_v3_5": 680.3653130531311
}