{
    "iptm+ptm": {
        "model_1_multimer_v3_1": 0.32390982239466753,
        "model_2_multimer_v3_1": 0.2867906734121054,
        "model_3_multimer_v3_1": 0.3599612612502525,
        "model_4_multimer_v3_1": 0.3408084236090849,
        "model_5_multimer_v3_1": 0.32633662621467,
        "model_1_multimer_v3_2": 0.3281214953239736,
        "model_2_multimer_v3_2": 0.2993465872852448,
        "model_3_multimer_v3_2": 0.3496032923998612,
        "model_4_multimer_v3_2": 0.30623705690536085,
        "model_5_multimer_v3_2": 0.33245674826233207,
        "model_1_multimer_v3_3": 0.34110052831448723,
        "model_2_multimer_v3_3": 0.2777848658050525,
        "model_3_multimer_v3_3": 0.3278714511537097,
        "model_4_multimer_v3_3": 0.3277443577503403,
        "model_5_multimer_v3_3": 0.3545484564182062,
        "model_1_multimer_v3_4": 0.3487757736142588,
        "model_2_multimer_v3_4": 0.28976472390878794,
        "model_3_multimer_v3_4": 0.29833103005722916,
        "model_4_multimer_v3_4": 0.3252123646374191,
        "model_5_multimer_v3_4": 0.33416718080968166,
        "model_1_multimer_v3_5": 0.31744722633721834,
        "model_2_multimer_v3_5": 0.2878201070633297,
        "model_3_multimer_v3_5": 0.33926791183212873,
        "model_4_multimer_v3_5": 0.330518489914179,
        "model_5_multimer_v3_5": 0.33070851446084426
    },
    "order": [
        "model_3_multimer_v3_1",
        "model_5_multimer_v3_3",
        "model_3_multimer_v3_2",
        "model_1_multimer_v3_4",
        "model_1_multimer_v3_3",
        "model_4_multimer_v3_1",
        "model_3_multimer_v3_5",
        "model_5_multimer_v3_4",
        "model_5_multimer_v3_2",
        "model_5_multimer_v3_5",
        "model_4_multimer_v3_5",
        "model_1_multimer_v3_2",
        "model_3_multimer_v3_3",
        "model_4_multimer_v3_3",
        "model_5_multimer_v3_1",
        "model_4_multimer_v3_4",
        "model_1_multimer_v3_1",
        "model_1_multimer_v3_5",
        "model_4_multimer_v3_2",
        "model_2_multimer_v3_2",
        "model_3_multimer_v3_4",
        "model_2_multimer_v3_4",
        "model_2_multimer_v3_5",
        "model_2_multimer_v3_1",
        "model_2_multimer_v3_3"
    ]
}