multimernew/e_hMAIAe_s_hIZUMO1e/unrelaxed_model_1_multimer_v3_1.pdb,B,0.00732534068972502,0.0,1,0,0.0
multimernew/e_hMAIAe_s_hIZUMO1e/unrelaxed_model_1_multimer_v3_1.pdb,C,0.00732534068972502,0.0,1,0,0.0
multimernew/e_hMAIAe_s_hIZUMO1e/unrelaxed_model_1_multimer_v3_2.pdb,B,0.00732534068972502,0.0,1,0,0.0
multimernew/e_hMAIAe_s_hIZUMO1e/unrelaxed_model_1_multimer_v3_2.pdb,C,0.00732534068972502,0.0,1,0,0.0
multimernew/e_hMAIAe_s_hIZUMO1e/unrelaxed_model_1_multimer_v3_3.pdb,B,0.00732534068972502,0.0,1,0,0.0
multimernew/e_hMAIAe_s_hIZUMO1e/unrelaxed_model_1_multimer_v3_3.pdb,C,0.00732534068972502,0.0,1,0,0.0
multimernew/e_hMAIAe_s_hIZUMO1e/unrelaxed_model_1_multimer_v3_4.pdb,B,0.00732534068972502,0.0,1,0,0.0
multimernew/e_hMAIAe_s_hIZUMO1e/unrelaxed_model_1_multimer_v3_4.pdb,C,0.00732534068972502,0.0,1,0,0.0
multimernew/e_hMAIAe_s_hIZUMO1e/unrelaxed_model_1_multimer_v3_5.pdb,B,0.00732534068972502,0.0,1,0,0.0
multimernew/e_hMAIAe_s_hIZUMO1e/unrelaxed_model_1_multimer_v3_5.pdb,C,0.00732534068972502,0.0,1,0,0.0
multimernew/e_hMAIAe_s_hIZUMO1e/unrelaxed_model_2_multimer_v3_1.pdb,B,0.011145792482836231,27.55525903322584,0.11637483537886502,81.84317307692307,0.09524485793710878
multimernew/e_hMAIAe_s_hIZUMO1e/unrelaxed_model_2_multimer_v3_1.pdb,C,0.011145792482836231,27.55525903322584,0.11637483537886502,81.84317307692308,0.09524485793710881
multimernew/e_hMAIAe_s_hIZUMO1e/unrelaxed_model_2_multimer_v3_2.pdb,B,0.010992382503190509,27.54871266888466,0.1164237100208586,79.32055555555556,0.09234793358693405
multimernew/e_hMAIAe_s_hIZUMO1e/unrelaxed_model_2_multimer_v3_2.pdb,C,0.010992382503190509,27.54871266888466,0.1164237100208586,79.32055555555556,0.09234793358693405
multimernew/e_hMAIAe_s_hIZUMO1e/unrelaxed_model_2_multimer_v3_3.pdb,B,0.010924391501158237,27.626320814636262,0.11584618198427124,78.59285714285713,0.0910468243123526
multimernew/e_hMAIAe_s_hIZUMO1e/unrelaxed_model_2_multimer_v3_3.pdb,C,0.010924391501158237,27.626320814636262,0.11584618198427124,78.59285714285714,0.0910468243123526
multimernew/e_hMAIAe_s_hIZUMO1e/unrelaxed_model_2_multimer_v3_4.pdb,B,0.011067988958944657,27.49472860933811,0.11682787532735318,80.2739024390244,0.09378229466186454
multimernew/e_hMAIAe_s_hIZUMO1e/unrelaxed_model_2_multimer_v3_4.pdb,C,0.011067988958944657,27.49472860933811,0.11682787532735318,80.2739024390244,0.09378229466186454
multimernew/e_hMAIAe_s_hIZUMO1e/unrelaxed_model_2_multimer_v3_5.pdb,B,0.011460881310919225,26.583337464612026,0.12396584119519861,81.5008510638298,0.10103321560252258
multimernew/e_hMAIAe_s_hIZUMO1e/unrelaxed_model_2_multimer_v3_5.pdb,C,0.011460881310919225,26.583337464612026,0.12396584119519861,81.50085106382978,0.10103321560252257
multimernew/e_hMAIAe_s_hIZUMO1e/unrelaxed_model_3_multimer_v3_1.pdb,B,0.01101069443324037,26.12026220365317,0.1278334119829075,72.51354166666667,0.0926965344621473
multimernew/e_hMAIAe_s_hIZUMO1e/unrelaxed_model_3_multimer_v3_1.pdb,C,0.01101069443324037,26.12026220365317,0.1278334119829075,72.51354166666665,0.09269653446214729
multimernew/e_hMAIAe_s_hIZUMO1e/unrelaxed_model_3_multimer_v3_2.pdb,B,0.010565077501237223,28.18920993725289,0.11177785897472527,75.13727272727273,0.08398683474654563
multimernew/e_hMAIAe_s_hIZUMO1e/unrelaxed_model_3_multimer_v3_2.pdb,C,0.010565077501237223,28.18920993725289,0.11177785897472527,75.13727272727272,0.08398683474654561
multimernew/e_hMAIAe_s_hIZUMO1e/unrelaxed_model_3_multimer_v3_3.pdb,B,0.011383420497306146,25.373643469733935,0.13444080597666797,74.10678571428572,0.09962975999768796
multimernew/e_hMAIAe_s_hIZUMO1e/unrelaxed_model_3_multimer_v3_3.pdb,C,0.011383420497306146,25.373643469733935,0.13444080597666797,74.1067857142857,0.09962975999768794
multimernew/e_hMAIAe_s_hIZUMO1e/unrelaxed_model_3_multimer_v3_4.pdb,B,0.011122333047800916,25.933238384244717,0.1294443331432327,73.2402,0.09480528848276991
multimernew/e_hMAIAe_s_hIZUMO1e/unrelaxed_model_3_multimer_v3_4.pdb,C,0.011122333047800916,25.933238384244717,0.1294443331432327,73.2402,0.09480528848276991
multimernew/e_hMAIAe_s_hIZUMO1e/unrelaxed_model_3_multimer_v3_5.pdb,B,0.011076831227293133,25.9776460259965,0.12905922010895837,72.79541666666667,0.0939491970250667
multimernew/e_hMAIAe_s_hIZUMO1e/unrelaxed_model_3_multimer_v3_5.pdb,C,0.011076831227293133,25.9776460259965,0.12905922010895837,72.79541666666667,0.0939491970250667
multimernew/e_hMAIAe_s_hIZUMO1e/unrelaxed_model_4_multimer_v3_1.pdb,B,0.010957011987835436,26.965805705740056,0.12089637251305876,75.82725806451612,0.0916724043761158
multimernew/e_hMAIAe_s_hIZUMO1e/unrelaxed_model_4_multimer_v3_1.pdb,C,0.010957011987835436,26.965805705740056,0.12089637251305876,75.82725806451613,0.09167240437611582
multimernew/e_hMAIAe_s_hIZUMO1e/unrelaxed_model_4_multimer_v3_2.pdb,B,0.010732366354700497,26.91008277209826,0.12133675909568008,71.95934782608695,0.08731314051856164
multimernew/e_hMAIAe_s_hIZUMO1e/unrelaxed_model_4_multimer_v3_2.pdb,C,0.010732366354700497,26.91008277209826,0.12133675909568008,71.95934782608695,0.08731314051856164
multimernew/e_hMAIAe_s_hIZUMO1e/unrelaxed_model_4_multimer_v3_3.pdb,B,0.01117455391468808,26.146723946845285,0.1276077972265546,75.0597619047619,0.09578210877016324
multimernew/e_hMAIAe_s_hIZUMO1e/unrelaxed_model_4_multimer_v3_3.pdb,C,0.01117455391468808,26.146723946845285,0.1276077972265546,75.0597619047619,0.09578210877016324
multimernew/e_hMAIAe_s_hIZUMO1e/unrelaxed_model_4_multimer_v3_4.pdb,B,0.010745797067307364,27.008660958294616,0.12055923570194768,72.64244444444444,0.08757717581743417
multimernew/e_hMAIAe_s_hIZUMO1e/unrelaxed_model_4_multimer_v3_4.pdb,C,0.010745797067307364,27.008660958294616,0.12055923570194768,72.64244444444444,0.08757717581743417
multimernew/e_hMAIAe_s_hIZUMO1e/unrelaxed_model_4_multimer_v3_5.pdb,B,0.0110712317034124,25.74319323533897,0.13111108815452652,71.57558139534883,0.09384352362037068
multimernew/e_hMAIAe_s_hIZUMO1e/unrelaxed_model_4_multimer_v3_5.pdb,C,0.0110712317034124,25.74319323533897,0.13111108815452652,71.57558139534883,0.09384352362037068
multimernew/e_hMAIAe_s_hIZUMO1e/unrelaxed_model_5_multimer_v3_1.pdb,B,0.011592445795754285,23.736574938284694,0.15073294123277636,68.59066666666668,0.10338872927783621
multimernew/e_hMAIAe_s_hIZUMO1e/unrelaxed_model_5_multimer_v3_1.pdb,C,0.011592445795754285,23.736574938284694,0.15073294123277636,68.59066666666668,0.10338872927783621
multimernew/e_hMAIAe_s_hIZUMO1e/unrelaxed_model_5_multimer_v3_2.pdb,B,0.011214578227857817,24.441444284924405,0.1433929822064649,67.31620689655172,0.09652671657723952
multimernew/e_hMAIAe_s_hIZUMO1e/unrelaxed_model_5_multimer_v3_2.pdb,C,0.011214578227857817,24.441444284924405,0.1433929822064649,67.31620689655173,0.09652671657723953
multimernew/e_hMAIAe_s_hIZUMO1e/unrelaxed_model_5_multimer_v3_3.pdb,B,0.011915086156727546,23.127094024773914,0.15751442786505185,69.21322580645162,0.10902081663597869
multimernew/e_hMAIAe_s_hIZUMO1e/unrelaxed_model_5_multimer_v3_3.pdb,C,0.011915086156727546,23.127094024773914,0.15751442786505185,69.21322580645162,0.10902081663597869
multimernew/e_hMAIAe_s_hIZUMO1e/unrelaxed_model_5_multimer_v3_4.pdb,B,0.011353390357208993,23.730912222693043,0.15079403731105653,65.70703703703704,0.09908229394561938
multimernew/e_hMAIAe_s_hIZUMO1e/unrelaxed_model_5_multimer_v3_4.pdb,C,0.011353390357208993,23.730912222693043,0.15079403731105653,65.70703703703704,0.09908229394561938
multimernew/e_hMAIAe_s_hIZUMO1e/unrelaxed_model_5_multimer_v3_5.pdb,B,0.011902045254166299,22.99069439427037,0.15909075719122967,68.38676470588236,0.10879702178917285
multimernew/e_hMAIAe_s_hIZUMO1e/unrelaxed_model_5_multimer_v3_5.pdb,C,0.011902045254166299,22.99069439427037,0.15909075719122967,68.38676470588234,0.10879702178917283
