multimernew/s_hDCST2f_s_hFIMPe/unrelaxed_model_1_multimer_v3_1.pdb,B,0.01324326589835711,17.042205789862482,0.25612341251537424,50.87375,0.1302995845745402
multimernew/s_hDCST2f_s_hFIMPe/unrelaxed_model_1_multimer_v3_1.pdb,C,0.01324326589835711,17.042205789862482,0.25612341251537424,50.87375,0.1302995845745402
multimernew/s_hDCST2f_s_hFIMPe/unrelaxed_model_1_multimer_v3_2.pdb,B,0.009805179359452205,21.735531386430655,0.17469283442059047,38.88333333333333,0.06792639711720626
multimernew/s_hDCST2f_s_hFIMPe/unrelaxed_model_1_multimer_v3_2.pdb,C,0.009805179359452205,21.735531386430655,0.17469283442059047,38.88333333333333,0.06792639711720626
multimernew/s_hDCST2f_s_hFIMPe/unrelaxed_model_1_multimer_v3_3.pdb,B,0.01620715662364498,14.229606445198948,0.3305985126938806,51.26047619047619,0.16946637188551505
multimernew/s_hDCST2f_s_hFIMPe/unrelaxed_model_1_multimer_v3_3.pdb,C,0.01620715662364498,14.229606445198948,0.3305985126938806,51.26047619047619,0.16946637188551505
multimernew/s_hDCST2f_s_hFIMPe/unrelaxed_model_1_multimer_v3_4.pdb,B,0.011002943682101193,21.055581087819924,0.18404767005815184,50.28538461538463,0.09254907876439575
multimernew/s_hDCST2f_s_hFIMPe/unrelaxed_model_1_multimer_v3_4.pdb,C,0.011002943682101186,21.055581087819924,0.18404767005815184,50.28538461538461,0.0925490787643957
multimernew/s_hDCST2f_s_hFIMPe/unrelaxed_model_1_multimer_v3_5.pdb,B,0.012938362101918803,17.06666761971001,0.25557724259774195,49.167777777777786,0.1256616506910298
multimernew/s_hDCST2f_s_hFIMPe/unrelaxed_model_1_multimer_v3_5.pdb,C,0.012938362101918796,17.06666761971001,0.25557724259774195,49.16777777777778,0.12566165069102977
multimernew/s_hDCST2f_s_hFIMPe/unrelaxed_model_2_multimer_v3_1.pdb,B,0.011134525610001979,18.058546743614677,0.23468057400497636,40.495,0.09503389844331517
multimernew/s_hDCST2f_s_hFIMPe/unrelaxed_model_2_multimer_v3_1.pdb,C,0.011134525610001979,18.058546743614677,0.23468057400497636,40.495,0.09503389844331517
multimernew/s_hDCST2f_s_hFIMPe/unrelaxed_model_2_multimer_v3_2.pdb,B,0.01453747993693845,13.76452419578942,0.34546833903845314,43.01444444444445,0.1486012867688404
multimernew/s_hDCST2f_s_hFIMPe/unrelaxed_model_2_multimer_v3_2.pdb,C,0.01453747993693845,13.76452419578942,0.34546833903845314,43.01444444444445,0.1486012867688404
multimernew/s_hDCST2f_s_hFIMPe/unrelaxed_model_2_multimer_v3_3.pdb,B,0.014094987836293928,14.275861356229873,0.3291636880161559,43.31545454545455,0.14257874766277984
multimernew/s_hDCST2f_s_hFIMPe/unrelaxed_model_2_multimer_v3_3.pdb,C,0.014094987836293928,14.275861356229873,0.3291636880161559,43.31545454545455,0.14257874766277984
multimernew/s_hDCST2f_s_hFIMPe/unrelaxed_model_2_multimer_v3_4.pdb,B,0.013138505223056745,14.94188659099484,0.30934853605525,41.61045454545455,0.12872133198229888
multimernew/s_hDCST2f_s_hFIMPe/unrelaxed_model_2_multimer_v3_4.pdb,C,0.013138505223056745,14.94188659099484,0.30934853605525,41.610454545454544,0.12872133198229885
multimernew/s_hDCST2f_s_hFIMPe/unrelaxed_model_2_multimer_v3_5.pdb,B,0.015393217795479985,13.688766257361392,0.34796851603923556,45.87684210526316,0.1596369666793474
multimernew/s_hDCST2f_s_hFIMPe/unrelaxed_model_2_multimer_v3_5.pdb,C,0.015393217795479985,13.688766257361392,0.34796851603923556,45.87684210526316,0.1596369666793474
multimernew/s_hDCST2f_s_hFIMPe/unrelaxed_model_3_multimer_v3_1.pdb,B,0.009750123912016195,22.632591739011165,0.16333618500664934,40.833999999999996,0.06669669778561518
multimernew/s_hDCST2f_s_hFIMPe/unrelaxed_model_3_multimer_v3_1.pdb,C,0.009750123912016195,22.632591739011165,0.16333618500664934,40.833999999999996,0.06669669778561518
multimernew/s_hDCST2f_s_hFIMPe/unrelaxed_model_3_multimer_v3_2.pdb,B,0.012320921796517744,17.338671829856562,0.24960715526483176,46.40555555555556,0.11583158710706332
multimernew/s_hDCST2f_s_hFIMPe/unrelaxed_model_3_multimer_v3_2.pdb,C,0.012320921796517744,17.338671829856562,0.24960715526483176,46.40555555555555,0.1158315871070633
multimernew/s_hDCST2f_s_hFIMPe/unrelaxed_model_3_multimer_v3_3.pdb,B,0.010037677017926825,22.2839053003757,0.1676242381646363,43.55941176470588,0.07301613211958519
multimernew/s_hDCST2f_s_hFIMPe/unrelaxed_model_3_multimer_v3_3.pdb,C,0.01003767701792683,22.2839053003757,0.1676242381646363,43.559411764705885,0.0730161321195852
multimernew/s_hDCST2f_s_hFIMPe/unrelaxed_model_3_multimer_v3_4.pdb,B,0.009525391605214277,23.564409725639088,0.1526061919771097,40.34909090909091,0.06157521113374579
multimernew/s_hDCST2f_s_hFIMPe/unrelaxed_model_3_multimer_v3_4.pdb,C,0.009525391605214277,23.564409725639088,0.1526061919771097,40.349090909090904,0.06157521113374578
multimernew/s_hDCST2f_s_hFIMPe/unrelaxed_model_3_multimer_v3_5.pdb,B,0.009892266764357923,21.94727656967063,0.1719149584870841,40.63181818181818,0.06985217335982022
multimernew/s_hDCST2f_s_hFIMPe/unrelaxed_model_3_multimer_v3_5.pdb,C,0.009892266764357923,21.94727656967063,0.1719149584870841,40.63181818181818,0.06985217335982022
multimernew/s_hDCST2f_s_hFIMPe/unrelaxed_model_4_multimer_v3_1.pdb,B,0.009197285839637772,22.155846544604888,0.169238661032909,31.780967741935484,0.053785684269752346
multimernew/s_hDCST2f_s_hFIMPe/unrelaxed_model_4_multimer_v3_1.pdb,C,0.009197285839637772,22.155846544604888,0.169238661032909,31.780967741935484,0.053785684269752346
multimernew/s_hDCST2f_s_hFIMPe/unrelaxed_model_4_multimer_v3_2.pdb,B,0.009703437870518831,19.288664785175833,0.2118408039463501,30.988536585365853,0.06564636503364786
multimernew/s_hDCST2f_s_hFIMPe/unrelaxed_model_4_multimer_v3_2.pdb,C,0.009703437870518831,19.288664785175833,0.2118408039463501,30.988536585365853,0.06564636503364786
multimernew/s_hDCST2f_s_hFIMPe/unrelaxed_model_4_multimer_v3_3.pdb,B,0.010354679455807477,19.57579416974086,0.20694862397588518,38.51259259259259,0.07970128042780905
multimernew/s_hDCST2f_s_hFIMPe/unrelaxed_model_4_multimer_v3_3.pdb,C,0.010354679455807477,19.57579416974086,0.20694862397588518,38.51259259259259,0.07970128042780905
multimernew/s_hDCST2f_s_hFIMPe/unrelaxed_model_4_multimer_v3_4.pdb,B,0.010075823398103518,19.612222835901992,0.20633903025369038,35.7837037037037,0.07383574721107611
multimernew/s_hDCST2f_s_hFIMPe/unrelaxed_model_4_multimer_v3_4.pdb,C,0.010075823398103518,19.612222835901992,0.20633903025369038,35.78370370370371,0.07383574721107612
multimernew/s_hDCST2f_s_hFIMPe/unrelaxed_model_4_multimer_v3_5.pdb,B,0.009447141843898225,20.57545352827271,0.19107697729443204,31.27125,0.05975215926218508
multimernew/s_hDCST2f_s_hFIMPe/unrelaxed_model_4_multimer_v3_5.pdb,C,0.009447141843898225,20.57545352827271,0.19107697729443204,31.27125,0.05975215926218508
multimernew/s_hDCST2f_s_hFIMPe/unrelaxed_model_5_multimer_v3_1.pdb,B,0.008759378507654443,25.610120468855182,0.13229643437587962,32.314032258064515,0.04275031248049089
multimernew/s_hDCST2f_s_hFIMPe/unrelaxed_model_5_multimer_v3_1.pdb,C,0.008759378507654443,25.610120468855182,0.13229643437587962,32.314032258064515,0.04275031248049089
multimernew/s_hDCST2f_s_hFIMPe/unrelaxed_model_5_multimer_v3_2.pdb,B,0.009546338212424682,22.12642757620577,0.16961261236069683,36.5890625,0.062059664744538084
multimernew/s_hDCST2f_s_hFIMPe/unrelaxed_model_5_multimer_v3_2.pdb,C,0.009546338212424682,22.12642757620577,0.16961261236069683,36.589062500000004,0.0620596647445381
multimernew/s_hDCST2f_s_hFIMPe/unrelaxed_model_5_multimer_v3_3.pdb,B,0.009174287743802712,24.284941564503182,0.14497830242439952,36.71236842105264,0.05322496851663344
multimernew/s_hDCST2f_s_hFIMPe/unrelaxed_model_5_multimer_v3_3.pdb,C,0.009174287743802712,24.284941564503182,0.14497830242439952,36.71236842105263,0.05322496851663343
multimernew/s_hDCST2f_s_hFIMPe/unrelaxed_model_5_multimer_v3_4.pdb,B,0.01080542196901648,19.178908993964455,0.21375260755739922,41.51717391304348,0.08874404182327074
multimernew/s_hDCST2f_s_hFIMPe/unrelaxed_model_5_multimer_v3_4.pdb,C,0.01080542196901648,19.178908993964455,0.21375260755739922,41.51717391304347,0.08874404182327074
multimernew/s_hDCST2f_s_hFIMPe/unrelaxed_model_5_multimer_v3_5.pdb,B,0.009189357449848912,23.82693192513804,0.14976277165904192,35.785,0.053592607838188144
multimernew/s_hDCST2f_s_hFIMPe/unrelaxed_model_5_multimer_v3_5.pdb,C,0.009189357449848912,23.82693192513804,0.14976277165904192,35.785,0.053592607838188144
