multimernew/e_hJUNOe_e_hCD9f/result_model_1_multimer_v3_1.pkl.json,0.5090806812546382,0.1354125291109085,0.2101461595396545
multimernew/e_hJUNOe_e_hCD9f/result_model_1_multimer_v3_2.pkl.json,0.504254626320781,0.13116532564163208,0.20578318577746188
multimernew/e_hJUNOe_e_hCD9f/result_model_1_multimer_v3_3.pkl.json,0.501405827843388,0.12716275453567505,0.20201136919721766
multimernew/e_hJUNOe_e_hCD9f/result_model_1_multimer_v3_4.pkl.json,0.501330389980041,0.13044248521327972,0.20462006616663198
multimernew/e_hJUNOe_e_hCD9f/result_model_1_multimer_v3_5.pkl.json,0.5084665583654683,0.14054059982299805,0.21412579153149208
multimernew/e_hJUNOe_e_hCD9f/result_model_2_multimer_v3_1.pkl.json,0.5041644978093193,0.12806618213653564,0.2032858452710924
multimernew/e_hJUNOe_e_hCD9f/result_model_2_multimer_v3_2.pkl.json,0.5049705204668777,0.11930055916309357,0.1964345514238504
multimernew/e_hJUNOe_e_hCD9f/result_model_2_multimer_v3_3.pkl.json,0.5811242500032995,0.4178553819656372,0.4505091555731697
multimernew/e_hJUNOe_e_hCD9f/result_model_2_multimer_v3_4.pkl.json,0.5054696307085518,0.12485171109437943,0.2009752950172139
multimernew/e_hJUNOe_e_hCD9f/result_model_2_multimer_v3_5.pkl.json,0.5066575448536267,0.1279994249343872,0.20373104891823512
multimernew/e_hJUNOe_e_hCD9f/result_model_3_multimer_v3_1.pkl.json,0.5081682194317896,0.13272491097450256,0.20781357266595998
multimernew/e_hJUNOe_e_hCD9f/result_model_3_multimer_v3_2.pkl.json,0.5060133299238508,0.13097801804542542,0.20598508042111052
multimernew/e_hJUNOe_e_hCD9f/result_model_3_multimer_v3_3.pkl.json,0.5066743008847076,0.1327023208141327,0.20749671682824766
multimernew/e_hJUNOe_e_hCD9f/result_model_3_multimer_v3_4.pkl.json,0.5097996108971427,0.13618026673793793,0.21090413556977888
multimernew/e_hJUNOe_e_hCD9f/result_model_3_multimer_v3_5.pkl.json,0.5090813371449695,0.1351936161518097,0.20997116035044167
multimernew/e_hJUNOe_e_hCD9f/result_model_4_multimer_v3_1.pkl.json,0.5135227670143019,0.21274220943450928,0.27289832095046784
multimernew/e_hJUNOe_e_hCD9f/result_model_4_multimer_v3_2.pkl.json,0.49639357134860035,0.10385674238204956,0.18236410817535972
multimernew/e_hJUNOe_e_hCD9f/result_model_4_multimer_v3_3.pkl.json,0.6666884425225265,0.6236830949783325,0.6322841644871714
multimernew/e_hJUNOe_e_hCD9f/result_model_4_multimer_v3_4.pkl.json,0.5244370151464292,0.21420346200466156,0.2762501726330151
multimernew/e_hJUNOe_e_hCD9f/result_model_4_multimer_v3_5.pkl.json,0.5351254801151705,0.2793292999267578,0.3304885359644404
multimernew/e_hJUNOe_e_hCD9f/result_model_5_multimer_v3_1.pkl.json,0.5039809240989246,0.13618981838226318,0.20974803952559545
multimernew/e_hJUNOe_e_hCD9f/result_model_5_multimer_v3_2.pkl.json,0.5107089714329065,0.14269357919692993,0.21629665764412526
multimernew/e_hJUNOe_e_hCD9f/result_model_5_multimer_v3_3.pkl.json,0.5104632542582224,0.1394561529159546,0.21365757318440814
multimernew/e_hJUNOe_e_hCD9f/result_model_5_multimer_v3_4.pkl.json,0.5086746006369671,0.14366388320922852,0.21666602669477625
multimernew/e_hJUNOe_e_hCD9f/result_model_5_multimer_v3_5.pkl.json,0.5090458374524605,0.14137859642505646,0.21491204463053726
