multimernew/s_hIZUMO1e_s_hTMEM95e/unrelaxed_model_1_multimer_v3_1.pdb,B,0.011485946136938601,24.164819339659207,0.146211978004528,69.40928571428572,0.10148468956167143
multimernew/s_hIZUMO1e_s_hTMEM95e/unrelaxed_model_1_multimer_v3_1.pdb,C,0.011485946136938601,24.164819339659207,0.146211978004528,69.4092857142857,0.1014846895616714
multimernew/s_hIZUMO1e_s_hTMEM95e/unrelaxed_model_1_multimer_v3_2.pdb,B,0.18477044671843118,6.617508312858992,0.6954518050764654,85.39818181818181,0.5939031969570273
multimernew/s_hIZUMO1e_s_hTMEM95e/unrelaxed_model_1_multimer_v3_2.pdb,C,0.18477044671843132,6.617508312858992,0.6954518050764654,85.39818181818183,0.5939031969570274
multimernew/s_hIZUMO1e_s_hTMEM95e/unrelaxed_model_1_multimer_v3_3.pdb,B,0.01137618784751136,21.259149698669972,0.18117535652986136,54.91810810810811,0.09949807816431956
multimernew/s_hIZUMO1e_s_hTMEM95e/unrelaxed_model_1_multimer_v3_3.pdb,C,0.01137618784751136,21.259149698669972,0.18117535652986136,54.9181081081081,0.09949807816431955
multimernew/s_hIZUMO1e_s_hTMEM95e/unrelaxed_model_1_multimer_v3_4.pdb,B,0.01115685791654925,24.43990492627369,0.1434084556030676,66.559375,0.09545177174655428
multimernew/s_hIZUMO1e_s_hTMEM95e/unrelaxed_model_1_multimer_v3_4.pdb,C,0.01115685791654925,24.43990492627369,0.1434084556030676,66.559375,0.09545177174655428
multimernew/s_hIZUMO1e_s_hTMEM95e/unrelaxed_model_1_multimer_v3_5.pdb,B,0.010176354946125784,25.481524921414604,0.13345644916387087,56.929122807017535,0.07597558583838497
multimernew/s_hIZUMO1e_s_hTMEM95e/unrelaxed_model_1_multimer_v3_5.pdb,C,0.010176354946125784,25.481524921414604,0.13345644916387087,56.929122807017535,0.07597558583838497
multimernew/s_hIZUMO1e_s_hTMEM95e/unrelaxed_model_2_multimer_v3_1.pdb,B,0.009811648977523131,28.619053740334454,0.10880798021148216,62.559999999999995,0.06807027242030324
multimernew/s_hIZUMO1e_s_hTMEM95e/unrelaxed_model_2_multimer_v3_1.pdb,C,0.009811648977523131,28.619053740334454,0.10880798021148216,62.559999999999995,0.06807027242030324
multimernew/s_hIZUMO1e_s_hTMEM95e/unrelaxed_model_2_multimer_v3_2.pdb,B,0.01018320539903699,28.018423303559803,0.11299025908810004,67.36894736842105,0.07612034817650469
multimernew/s_hIZUMO1e_s_hTMEM95e/unrelaxed_model_2_multimer_v3_2.pdb,C,0.01018320539903699,28.018423303559803,0.11299025908810004,67.36894736842105,0.07612034817650469
multimernew/s_hIZUMO1e_s_hTMEM95e/unrelaxed_model_2_multimer_v3_3.pdb,B,0.011075181936307285,25.86109098792924,0.1300735129694154,72.20384615384616,0.09391807919133983
multimernew/s_hIZUMO1e_s_hTMEM95e/unrelaxed_model_2_multimer_v3_3.pdb,C,0.011075181936307285,25.86109098792924,0.1300735129694154,72.20384615384616,0.09391807919133983
multimernew/s_hIZUMO1e_s_hTMEM95e/unrelaxed_model_2_multimer_v3_4.pdb,B,0.011044945260000123,25.50822014204202,0.13321445367585055,70.07235294117648,0.09334650214840204
multimernew/s_hIZUMO1e_s_hTMEM95e/unrelaxed_model_2_multimer_v3_4.pdb,C,0.011044945260000123,25.50822014204202,0.13321445367585055,70.07235294117646,0.09334650214840202
multimernew/s_hIZUMO1e_s_hTMEM95e/unrelaxed_model_2_multimer_v3_5.pdb,B,0.013354027749038778,19.127976532950864,0.21464778543047025,61.47340909090908,0.1319513112422497
multimernew/s_hIZUMO1e_s_hTMEM95e/unrelaxed_model_2_multimer_v3_5.pdb,C,0.013354027749038778,19.127976532950864,0.21464778543047025,61.47340909090908,0.1319513112422497
multimernew/s_hIZUMO1e_s_hTMEM95e/unrelaxed_model_3_multimer_v3_1.pdb,B,0.011198041002240016,24.646400624814042,0.1413537320745088,68.07,0.09621948542311813
multimernew/s_hIZUMO1e_s_hTMEM95e/unrelaxed_model_3_multimer_v3_1.pdb,C,0.011198041002240016,24.646400624814042,0.1413537320745088,68.07000000000001,0.09621948542311815
multimernew/s_hIZUMO1e_s_hTMEM95e/unrelaxed_model_3_multimer_v3_2.pdb,B,0.011113069652421816,24.414531039446757,0.14366385111732197,65.87,0.09463137873097999
multimernew/s_hIZUMO1e_s_hTMEM95e/unrelaxed_model_3_multimer_v3_2.pdb,C,0.011113069652421823,24.414531039446757,0.14366385111732197,65.87000000000002,0.09463137873098
multimernew/s_hIZUMO1e_s_hTMEM95e/unrelaxed_model_3_multimer_v3_3.pdb,B,0.010851371922921734,25.312427777334477,0.13500396236943507,66.39615384615385,0.08963743855321375
multimernew/s_hIZUMO1e_s_hTMEM95e/unrelaxed_model_3_multimer_v3_3.pdb,C,0.010851371922921734,25.312427777334477,0.13500396236943507,66.39615384615385,0.08963743855321375
multimernew/s_hIZUMO1e_s_hTMEM95e/unrelaxed_model_3_multimer_v3_4.pdb,B,0.011253290753322764,24.25826679917995,0.14525098109549534,66.94866666666665,0.09724359516368616
multimernew/s_hIZUMO1e_s_hTMEM95e/unrelaxed_model_3_multimer_v3_4.pdb,C,0.011253290753322764,24.25826679917995,0.14525098109549534,66.94866666666667,0.09724359516368619
multimernew/s_hIZUMO1e_s_hTMEM95e/unrelaxed_model_3_multimer_v3_5.pdb,B,0.01074533323051978,25.825081696019755,0.13038917282648826,67.159,0.08756806457854126
multimernew/s_hIZUMO1e_s_hTMEM95e/unrelaxed_model_3_multimer_v3_5.pdb,C,0.01074533323051978,25.825081696019755,0.13038917282648826,67.159,0.08756806457854126
multimernew/s_hIZUMO1e_s_hTMEM95e/unrelaxed_model_4_multimer_v3_1.pdb,B,0.010772112820024849,26.67188279823601,0.12324539657572207,71.47791666666666,0.08809324185989746
multimernew/s_hIZUMO1e_s_hTMEM95e/unrelaxed_model_4_multimer_v3_1.pdb,C,0.010772112820024849,26.67188279823601,0.12324539657572207,71.47791666666667,0.08809324185989748
multimernew/s_hIZUMO1e_s_hTMEM95e/unrelaxed_model_4_multimer_v3_2.pdb,B,0.0112721938575132,24.868354272313372,0.13919142837680437,70.11384615384614,0.09759246395145356
multimernew/s_hIZUMO1e_s_hTMEM95e/unrelaxed_model_4_multimer_v3_2.pdb,C,0.0112721938575132,24.868354272313372,0.13919142837680437,70.11384615384615,0.09759246395145357
multimernew/s_hIZUMO1e_s_hTMEM95e/unrelaxed_model_4_multimer_v3_3.pdb,B,0.010791081488279263,25.80762337963348,0.1305426066292316,67.76652173913043,0.08846418390022574
multimernew/s_hIZUMO1e_s_hTMEM95e/unrelaxed_model_4_multimer_v3_3.pdb,C,0.010791081488279263,25.80762337963348,0.1305426066292316,67.76652173913044,0.08846418390022576
multimernew/s_hIZUMO1e_s_hTMEM95e/unrelaxed_model_4_multimer_v3_4.pdb,B,0.010967327440303064,25.410203002928466,0.13410606739732478,68.50526315789475,0.09186971438124102
multimernew/s_hIZUMO1e_s_hTMEM95e/unrelaxed_model_4_multimer_v3_4.pdb,C,0.010967327440303064,25.410203002928466,0.13410606739732478,68.50526315789475,0.09186971438124102
multimernew/s_hIZUMO1e_s_hTMEM95e/unrelaxed_model_4_multimer_v3_5.pdb,B,0.010313960257011763,26.663738781849894,0.12331140965152762,63.9505,0.07885826302920017
multimernew/s_hIZUMO1e_s_hTMEM95e/unrelaxed_model_4_multimer_v3_5.pdb,C,0.010313960257011763,26.663738781849894,0.12331140965152762,63.95049999999999,0.07885826302920015
multimernew/s_hIZUMO1e_s_hTMEM95e/unrelaxed_model_5_multimer_v3_1.pdb,B,0.011262856415240786,23.645621460887565,0.1517184969957254,64.21117647058823,0.09742023184444934
multimernew/s_hIZUMO1e_s_hTMEM95e/unrelaxed_model_5_multimer_v3_1.pdb,C,0.011262856415240786,23.645621460887565,0.1517184969957254,64.21117647058824,0.09742023184444935
multimernew/s_hIZUMO1e_s_hTMEM95e/unrelaxed_model_5_multimer_v3_2.pdb,B,0.010216327081646145,27.58386021988679,0.11616164592659577,66.13060606060604,0.07681840046123307
multimernew/s_hIZUMO1e_s_hTMEM95e/unrelaxed_model_5_multimer_v3_2.pdb,C,0.010216327081646145,27.58386021988679,0.11616164592659577,66.13060606060607,0.0768184004612331
multimernew/s_hIZUMO1e_s_hTMEM95e/unrelaxed_model_5_multimer_v3_3.pdb,B,0.010426152580119917,26.821524347679144,0.12204138601989967,66.51038461538461,0.08117019523178148
multimernew/s_hIZUMO1e_s_hTMEM95e/unrelaxed_model_5_multimer_v3_3.pdb,C,0.010426152580119917,26.821524347679144,0.12204138601989967,66.51038461538461,0.08117019523178148
multimernew/s_hIZUMO1e_s_hTMEM95e/unrelaxed_model_5_multimer_v3_4.pdb,B,0.010234790620818604,27.046619379938452,0.12026174441204295,64.19846153846154,0.07720618973184831
multimernew/s_hIZUMO1e_s_hTMEM95e/unrelaxed_model_5_multimer_v3_4.pdb,C,0.010234790620818604,27.046619379938452,0.12026174441204295,64.19846153846154,0.07720618973184831
multimernew/s_hIZUMO1e_s_hTMEM95e/unrelaxed_model_5_multimer_v3_5.pdb,B,0.010368383679846003,26.88905306320824,0.12150355675140903,65.82851851851852,0.07998399135675996
multimernew/s_hIZUMO1e_s_hTMEM95e/unrelaxed_model_5_multimer_v3_5.pdb,C,0.010368383679846003,26.88905306320824,0.12150355675140903,65.82851851851854,0.07998399135675997
