multimernew/s_hIZUMO1e_s_hTMEM95e/result_model_1_multimer_v3_1.pkl.json,0.5750999259842481,0.13773639500141144,0.22520910119797877
multimernew/s_hIZUMO1e_s_hTMEM95e/result_model_1_multimer_v3_2.pkl.json,0.7527812324192795,0.7243232727050781,0.7300148646479184
multimernew/s_hIZUMO1e_s_hTMEM95e/result_model_1_multimer_v3_3.pkl.json,0.5787931618056548,0.12899357080459595,0.2189534890048077
multimernew/s_hIZUMO1e_s_hTMEM95e/result_model_1_multimer_v3_4.pkl.json,0.5797783332782398,0.15112358331680298,0.23685453330909034
multimernew/s_hIZUMO1e_s_hTMEM95e/result_model_1_multimer_v3_5.pkl.json,0.5730797885757013,0.11680813878774643,0.2080624687453374
multimernew/s_hIZUMO1e_s_hTMEM95e/result_model_2_multimer_v3_1.pkl.json,0.5613010510060414,0.10312744975090027,0.19476217000192853
multimernew/s_hIZUMO1e_s_hTMEM95e/result_model_2_multimer_v3_2.pkl.json,0.5587661775209267,0.09462448954582214,0.18745282714084308
multimernew/s_hIZUMO1e_s_hTMEM95e/result_model_2_multimer_v3_3.pkl.json,0.5667509369848488,0.11902132630348206,0.20856724843975544
multimernew/s_hIZUMO1e_s_hTMEM95e/result_model_2_multimer_v3_4.pkl.json,0.5653194356708032,0.112063929438591,0.20271503068503346
multimernew/s_hIZUMO1e_s_hTMEM95e/result_model_2_multimer_v3_5.pkl.json,0.601921089382291,0.2253636121749878,0.30067510761644844
multimernew/s_hIZUMO1e_s_hTMEM95e/result_model_3_multimer_v3_1.pkl.json,0.5786312927344852,0.13224613666534424,0.22152316787917245
multimernew/s_hIZUMO1e_s_hTMEM95e/result_model_3_multimer_v3_2.pkl.json,0.5712563692894492,0.12480326741933823,0.21409388779336044
multimernew/s_hIZUMO1e_s_hTMEM95e/result_model_3_multimer_v3_3.pkl.json,0.5748127736580253,0.12159428000450134,0.21223797873520614
multimernew/s_hIZUMO1e_s_hTMEM95e/result_model_3_multimer_v3_4.pkl.json,0.5759971889804751,0.1273832619190216,0.21710604733131234
multimernew/s_hIZUMO1e_s_hTMEM95e/result_model_3_multimer_v3_5.pkl.json,0.5658177360746091,0.11783503741025925,0.2074315771431292
multimernew/s_hIZUMO1e_s_hTMEM95e/result_model_4_multimer_v3_1.pkl.json,0.5597514049498747,0.11895672231912613,0.20711565884527586
multimernew/s_hIZUMO1e_s_hTMEM95e/result_model_4_multimer_v3_2.pkl.json,0.5600560215621553,0.129852294921875,0.21589304024993106
multimernew/s_hIZUMO1e_s_hTMEM95e/result_model_4_multimer_v3_3.pkl.json,0.5601195912827089,0.12545913457870483,0.21239122591950566
multimernew/s_hIZUMO1e_s_hTMEM95e/result_model_4_multimer_v3_4.pkl.json,0.5621329020245884,0.12844467163085938,0.21518231770960522
multimernew/s_hIZUMO1e_s_hTMEM95e/result_model_4_multimer_v3_5.pkl.json,0.5553880961280647,0.11800159513950348,0.20547889533721575
multimernew/s_hIZUMO1e_s_hTMEM95e/result_model_5_multimer_v3_1.pkl.json,0.5747373976839258,0.13643357157707214,0.2240943367984429
multimernew/s_hIZUMO1e_s_hTMEM95e/result_model_5_multimer_v3_2.pkl.json,0.5673725201531915,0.11970590054988861,0.2092392244705492
multimernew/s_hIZUMO1e_s_hTMEM95e/result_model_5_multimer_v3_3.pkl.json,0.563981493155143,0.11920841783285141,0.20816303289730975
multimernew/s_hIZUMO1e_s_hTMEM95e/result_model_5_multimer_v3_4.pkl.json,0.5638750740770834,0.11562012135982513,0.2052711119032768
multimernew/s_hIZUMO1e_s_hTMEM95e/result_model_5_multimer_v3_5.pkl.json,0.5627984310660527,0.11713621020317078,0.20626865437574715
