{
    "iptm+ptm": {
        "model_1_multimer_v3_1": 0.21498470756736143,
        "model_2_multimer_v3_1": 0.17279878257031692,
        "model_3_multimer_v3_1": 0.17610784935407003,
        "model_4_multimer_v3_1": 0.22210821563826405,
        "model_5_multimer_v3_1": 0.16649098298586296,
        "model_1_multimer_v3_2": 0.2127676479110226,
        "model_2_multimer_v3_2": 0.25621940583572783,
        "model_3_multimer_v3_2": 0.2517017931757698,
        "model_4_multimer_v3_2": 0.22300443250731147,
        "model_5_multimer_v3_2": 0.2809090385819595,
        "model_1_multimer_v3_3": 0.20814109934511082,
        "model_2_multimer_v3_3": 0.24990288527839188,
        "model_3_multimer_v3_3": 0.16526497617808078,
        "model_4_multimer_v3_3": 0.221515752520278,
        "model_5_multimer_v3_3": 0.2787362217275695,
        "model_1_multimer_v3_4": 0.22751985783259338,
        "model_2_multimer_v3_4": 0.2408567579568572,
        "model_3_multimer_v3_4": 0.17347117932847333,
        "model_4_multimer_v3_4": 0.22879910644175028,
        "model_5_multimer_v3_4": 0.27504648641472906,
        "model_1_multimer_v3_5": 0.1826750066992225,
        "model_2_multimer_v3_5": 0.24523975160925787,
        "model_3_multimer_v3_5": 0.1782626132280009,
        "model_4_multimer_v3_5": 0.2207782208453936,
        "model_5_multimer_v3_5": 0.2818691371325247
    },
    "order": [
        "model_5_multimer_v3_5",
        "model_5_multimer_v3_2",
        "model_5_multimer_v3_3",
        "model_5_multimer_v3_4",
        "model_2_multimer_v3_2",
        "model_3_multimer_v3_2",
        "model_2_multimer_v3_3",
        "model_2_multimer_v3_5",
        "model_2_multimer_v3_4",
        "model_4_multimer_v3_4",
        "model_1_multimer_v3_4",
        "model_4_multimer_v3_2",
        "model_4_multimer_v3_1",
        "model_4_multimer_v3_3",
        "model_4_multimer_v3_5",
        "model_1_multimer_v3_1",
        "model_1_multimer_v3_2",
        "model_1_multimer_v3_3",
        "model_1_multimer_v3_5",
        "model_3_multimer_v3_5",
        "model_3_multimer_v3_1",
        "model_3_multimer_v3_4",
        "model_2_multimer_v3_1",
        "model_5_multimer_v3_1",
        "model_3_multimer_v3_3"
    ]
}