{
    "features": 41.02470088005066,
    "process_features_model_1_multimer_v3_1": 5.7220458984375e-06,
    "predict_and_compile_model_1_multimer_v3_1": 118.91966986656189,
    "process_features_model_2_multimer_v3_1": 1.4781951904296875e-05,
    "predict_and_compile_model_2_multimer_v3_1": 150.50941967964172,
    "process_features_model_3_multimer_v3_1": 1.3113021850585938e-05,
    "predict_and_compile_model_3_multimer_v3_1": 147.7970108985901,
    "process_features_model_4_multimer_v3_1": 1.2159347534179688e-05,
    "predict_and_compile_model_4_multimer_v3_1": 128.28445982933044,
    "process_features_model_5_multimer_v3_1": 1.2636184692382812e-05,
    "predict_and_compile_model_5_multimer_v3_1": 142.6387414932251,
    "process_features_model_1_multimer_v3_2": 1.239776611328125e-05,
    "predict_and_compile_model_1_multimer_v3_2": 25.615374088287354,
    "process_features_model_2_multimer_v3_2": 6.67572021484375e-06,
    "predict_and_compile_model_2_multimer_v3_2": 30.65391969680786,
    "process_features_model_3_multimer_v3_2": 4.5299530029296875e-06,
    "predict_and_compile_model_3_multimer_v3_2": 25.589746236801147,
    "process_features_model_4_multimer_v3_2": 7.152557373046875e-06,
    "predict_and_compile_model_4_multimer_v3_2": 29.741583347320557,
    "process_features_model_5_multimer_v3_2": 4.0531158447265625e-06,
    "predict_and_compile_model_5_multimer_v3_2": 29.859588146209717,
    "process_features_model_1_multimer_v3_3": 1.0728836059570312e-05,
    "predict_and_compile_model_1_multimer_v3_3": 25.64738965034485,
    "process_features_model_2_multimer_v3_3": 1.33514404296875e-05,
    "predict_and_compile_model_2_multimer_v3_3": 35.7542884349823,
    "process_features_model_3_multimer_v3_3": 4.5299530029296875e-06,
    "predict_and_compile_model_3_multimer_v3_3": 45.8975145816803,
    "process_features_model_4_multimer_v3_3": 6.198883056640625e-06,
    "predict_and_compile_model_4_multimer_v3_3": 34.71516156196594,
    "process_features_model_5_multimer_v3_3": 4.291534423828125e-06,
    "predict_and_compile_model_5_multimer_v3_3": 29.789169788360596,
    "process_features_model_1_multimer_v3_4": 6.198883056640625e-06,
    "predict_and_compile_model_1_multimer_v3_4": 25.58474612236023,
    "process_features_model_2_multimer_v3_4": 6.4373016357421875e-06,
    "predict_and_compile_model_2_multimer_v3_4": 30.72472643852234,
    "process_features_model_3_multimer_v3_4": 1.3589859008789062e-05,
    "predict_and_compile_model_3_multimer_v3_4": 50.905550718307495,
    "process_features_model_4_multimer_v3_4": 5.4836273193359375e-06,
    "predict_and_compile_model_4_multimer_v3_4": 19.992286920547485,
    "process_features_model_5_multimer_v3_4": 3.337860107421875e-06,
    "predict_and_compile_model_5_multimer_v3_4": 39.62583065032959,
    "process_features_model_1_multimer_v3_5": 1.1444091796875e-05,
    "predict_and_compile_model_1_multimer_v3_5": 45.839046239852905,
    "process_features_model_2_multimer_v3_5": 6.4373016357421875e-06,
    "predict_and_compile_model_2_multimer_v3_5": 30.67272663116455,
    "process_features_model_3_multimer_v3_5": 6.9141387939453125e-06,
    "predict_and_compile_model_3_multimer_v3_5": 25.615930318832397,
    "process_features_model_4_multimer_v3_5": 5.7220458984375e-06,
    "predict_and_compile_model_4_multimer_v3_5": 29.775537490844727,
    "process_features_model_5_multimer_v3_5": 4.0531158447265625e-06,
    "predict_and_compile_model_5_multimer_v3_5": 29.78664469718933
}