multimernew/e_hMAIAe_e_hMAIAe/result_model_1_multimer_v3_1.pkl.json,0.3852705893031455,0.13533145189285278,0.18531927937491133
multimernew/e_hMAIAe_e_hMAIAe/result_model_1_multimer_v3_2.pkl.json,0.39110166192104245,0.13540612161159515,0.18654522967348464
multimernew/e_hMAIAe_e_hMAIAe/result_model_1_multimer_v3_3.pkl.json,0.3876211881471402,0.13211393356323242,0.183215384480014
multimernew/e_hMAIAe_e_hMAIAe/result_model_1_multimer_v3_4.pkl.json,0.38673174621574213,0.1343519687652588,0.18482792425535546
multimernew/e_hMAIAe_e_hMAIAe/result_model_1_multimer_v3_5.pkl.json,0.3869219170964443,0.13235026597976685,0.18326459620310237
multimernew/e_hMAIAe_e_hMAIAe/result_model_2_multimer_v3_1.pkl.json,0.3877345804980872,0.12665700912475586,0.17887252339942214
multimernew/e_hMAIAe_e_hMAIAe/result_model_2_multimer_v3_2.pkl.json,0.3847898782452357,0.1257384717464447,0.17754875304620293
multimernew/e_hMAIAe_e_hMAIAe/result_model_2_multimer_v3_3.pkl.json,0.38022533416147825,0.12518887221813202,0.17619616460680126
multimernew/e_hMAIAe_e_hMAIAe/result_model_2_multimer_v3_4.pkl.json,0.383778860957254,0.12608039379119873,0.1776200872244098
multimernew/e_hMAIAe_e_hMAIAe/result_model_2_multimer_v3_5.pkl.json,0.3921022239015808,0.1275385022163391,0.18045124655338746
multimernew/e_hMAIAe_e_hMAIAe/result_model_3_multimer_v3_1.pkl.json,0.38319055931550805,0.1383664906024933,0.18733130434509626
multimernew/e_hMAIAe_e_hMAIAe/result_model_3_multimer_v3_2.pkl.json,0.38142727096186313,0.139275461435318,0.18770582334062702
multimernew/e_hMAIAe_e_hMAIAe/result_model_3_multimer_v3_3.pkl.json,0.38294864520751015,0.13885582983493805,0.18767439290945248
multimernew/e_hMAIAe_e_hMAIAe/result_model_3_multimer_v3_4.pkl.json,0.38261647183867725,0.1415850669145584,0.18979134789938218
multimernew/e_hMAIAe_e_hMAIAe/result_model_3_multimer_v3_5.pkl.json,0.38345130648685066,0.13694626092910767,0.18624727004065628
multimernew/e_hMAIAe_e_hMAIAe/result_model_4_multimer_v3_1.pkl.json,0.40086541542082477,0.12909790873527527,0.1834514100723852
multimernew/e_hMAIAe_e_hMAIAe/result_model_4_multimer_v3_2.pkl.json,0.3972607561805265,0.12917965650558472,0.18279587644057307
multimernew/e_hMAIAe_e_hMAIAe/result_model_4_multimer_v3_3.pkl.json,0.39874478743050495,0.1296921968460083,0.18350271496290765
multimernew/e_hMAIAe_e_hMAIAe/result_model_4_multimer_v3_4.pkl.json,0.39860521139867144,0.13001973927021027,0.18373683369590252
multimernew/e_hMAIAe_e_hMAIAe/result_model_4_multimer_v3_5.pkl.json,0.39806402152529946,0.1312219649553299,0.18459037626932384
multimernew/e_hMAIAe_e_hMAIAe/result_model_5_multimer_v3_1.pkl.json,0.335461063508635,0.13710258901119232,0.17677428391068087
multimernew/e_hMAIAe_e_hMAIAe/result_model_5_multimer_v3_2.pkl.json,0.351989216011496,0.1283058524131775,0.17304252513284119
multimernew/e_hMAIAe_e_hMAIAe/result_model_5_multimer_v3_3.pkl.json,0.3557273914495041,0.12877249717712402,0.17416347603160004
multimernew/e_hMAIAe_e_hMAIAe/result_model_5_multimer_v3_4.pkl.json,0.3489363319086004,0.13093224167823792,0.17453305972431044
multimernew/e_hMAIAe_e_hMAIAe/result_model_5_multimer_v3_5.pkl.json,0.3514866532908093,0.12939196825027466,0.1738109052583816
