multimernew/s_hIZUMO1e_s_hDCST2f/unrelaxed_model_1_multimer_v3_1.pdb,B,0.007977016885212818,30.316279397685957,0.0981280315101149,21.273333333333333,0.02087510323658511
multimernew/s_hIZUMO1e_s_hDCST2f/unrelaxed_model_1_multimer_v3_1.pdb,C,0.007977016885212818,30.316279397685957,0.0981280315101149,21.273333333333333,0.02087510323658511
multimernew/s_hIZUMO1e_s_hDCST2f/unrelaxed_model_1_multimer_v3_2.pdb,B,0.007912660874069295,29.880490260029767,0.1007207883610871,18.79714285714286,0.01893263047507406
multimernew/s_hIZUMO1e_s_hDCST2f/unrelaxed_model_1_multimer_v3_2.pdb,C,0.007912660874069295,29.880490260029767,0.1007207883610871,18.79714285714286,0.01893263047507406
multimernew/s_hIZUMO1e_s_hDCST2f/unrelaxed_model_1_multimer_v3_3.pdb,B,0.009728424592084053,30.56556642084384,0.09668806158118241,68.47730769230769,0.06620938143067422
multimernew/s_hIZUMO1e_s_hDCST2f/unrelaxed_model_1_multimer_v3_3.pdb,C,0.009728424592084053,30.56556642084384,0.09668806158118241,68.47730769230769,0.06620938143067422
multimernew/s_hIZUMO1e_s_hDCST2f/unrelaxed_model_1_multimer_v3_4.pdb,B,0.011663823834665877,23.06233311079384,0.1582600989769708,66.12666666666667,0.10465212811683822
multimernew/s_hIZUMO1e_s_hDCST2f/unrelaxed_model_1_multimer_v3_4.pdb,C,0.011663823834665877,23.06233311079384,0.1582600989769708,66.12666666666667,0.10465212811683822
multimernew/s_hIZUMO1e_s_hDCST2f/unrelaxed_model_1_multimer_v3_5.pdb,B,0.00795515203525333,30.21475646850906,0.09872335806089384,20.479285714285716,0.020217838564027767
multimernew/s_hIZUMO1e_s_hDCST2f/unrelaxed_model_1_multimer_v3_5.pdb,C,0.00795515203525333,30.21475646850906,0.09872335806089384,20.479285714285716,0.020217838564027767
multimernew/s_hIZUMO1e_s_hDCST2f/unrelaxed_model_2_multimer_v3_1.pdb,B,0.00732534068972502,0.0,1,0,0.0
multimernew/s_hIZUMO1e_s_hDCST2f/unrelaxed_model_2_multimer_v3_1.pdb,C,0.00732534068972502,0.0,1,0,0.0
multimernew/s_hIZUMO1e_s_hDCST2f/unrelaxed_model_2_multimer_v3_2.pdb,B,0.010440800367727111,25.806273797301014,0.13055447825206137,62.40272727272729,0.08146955500596592
multimernew/s_hIZUMO1e_s_hDCST2f/unrelaxed_model_2_multimer_v3_2.pdb,C,0.010440800367727104,25.806273797301014,0.13055447825206137,62.402727272727276,0.08146955500596591
multimernew/s_hIZUMO1e_s_hDCST2f/unrelaxed_model_2_multimer_v3_3.pdb,B,0.010630107342376698,25.030061863345548,0.13764549187486105,61.962222222222216,0.08528820555437223
multimernew/s_hIZUMO1e_s_hDCST2f/unrelaxed_model_2_multimer_v3_3.pdb,C,0.010630107342376698,25.030061863345548,0.13764549187486105,61.962222222222216,0.08528820555437223
multimernew/s_hIZUMO1e_s_hDCST2f/unrelaxed_model_2_multimer_v3_4.pdb,B,0.010324253291292372,25.22108745695245,0.13585050692120462,58.205,0.07907178755348715
multimernew/s_hIZUMO1e_s_hDCST2f/unrelaxed_model_2_multimer_v3_4.pdb,C,0.010324253291292372,25.22108745695245,0.13585050692120462,58.205,0.07907178755348715
multimernew/s_hIZUMO1e_s_hDCST2f/unrelaxed_model_2_multimer_v3_5.pdb,B,0.010246756481859269,25.783033586321945,0.13075915270339433,59.23638888888888,0.07745700020319872
multimernew/s_hIZUMO1e_s_hDCST2f/unrelaxed_model_2_multimer_v3_5.pdb,C,0.010246756481859269,25.783033586321945,0.13075915270339433,59.23638888888888,0.07745700020319872
multimernew/s_hIZUMO1e_s_hDCST2f/unrelaxed_model_3_multimer_v3_1.pdb,B,0.010390586672161993,27.088446560913656,0.11993514812697625,67.07037593984963,0.0804409547327785
multimernew/s_hIZUMO1e_s_hDCST2f/unrelaxed_model_3_multimer_v3_1.pdb,C,0.010390586672161993,27.088446560913656,0.11993514812697625,67.07037593984961,0.08044095473277847
multimernew/s_hIZUMO1e_s_hDCST2f/unrelaxed_model_3_multimer_v3_2.pdb,B,0.00909143173605541,29.057440302131933,0.10589464254755947,48.33875,0.0511881465244584
multimernew/s_hIZUMO1e_s_hDCST2f/unrelaxed_model_3_multimer_v3_2.pdb,C,0.00909143173605541,29.057440302131933,0.10589464254755947,48.33875,0.0511881465244584
multimernew/s_hIZUMO1e_s_hDCST2f/unrelaxed_model_3_multimer_v3_3.pdb,B,0.010162943850601212,26.531381757502867,0.12439138127630753,60.84971428571428,0.07569180010268661
multimernew/s_hIZUMO1e_s_hDCST2f/unrelaxed_model_3_multimer_v3_3.pdb,C,0.010162943850601212,26.531381757502867,0.12439138127630753,60.84971428571428,0.07569180010268661
multimernew/s_hIZUMO1e_s_hDCST2f/unrelaxed_model_3_multimer_v3_4.pdb,B,0.01007525832593604,27.328916577144234,0.11808192241431412,62.51899999999999,0.07382363707420503
multimernew/s_hIZUMO1e_s_hDCST2f/unrelaxed_model_3_multimer_v3_4.pdb,C,0.01007525832593604,27.328916577144234,0.11808192241431412,62.519000000000005,0.07382363707420506
multimernew/s_hIZUMO1e_s_hDCST2f/unrelaxed_model_3_multimer_v3_5.pdb,B,0.01069067842710704,23.94393207498212,0.14851958281658498,58.235263157894735,0.08649076989424566
multimernew/s_hIZUMO1e_s_hDCST2f/unrelaxed_model_3_multimer_v3_5.pdb,C,0.01069067842710704,23.94393207498212,0.14851958281658498,58.235263157894735,0.08649076989424566
multimernew/s_hIZUMO1e_s_hDCST2f/unrelaxed_model_4_multimer_v3_1.pdb,B,0.009848209639143997,27.944499169080714,0.11352090335598773,60.67681818181816,0.06888087212767019
multimernew/s_hIZUMO1e_s_hDCST2f/unrelaxed_model_4_multimer_v3_1.pdb,C,0.009848209639143997,27.944499169080714,0.11352090335598773,60.676818181818184,0.06888087212767022
multimernew/s_hIZUMO1e_s_hDCST2f/unrelaxed_model_4_multimer_v3_2.pdb,B,0.009911236563272186,26.995952282749535,0.12065907272480698,58.23727272727273,0.07026855325294419
multimernew/s_hIZUMO1e_s_hDCST2f/unrelaxed_model_4_multimer_v3_2.pdb,C,0.009911236563272186,26.995952282749535,0.12065907272480698,58.23727272727272,0.07026855325294418
multimernew/s_hIZUMO1e_s_hDCST2f/unrelaxed_model_4_multimer_v3_3.pdb,B,0.009898332037644843,27.360789507604363,0.11783937233544577,59.390526315789465,0.06998542343724405
multimernew/s_hIZUMO1e_s_hDCST2f/unrelaxed_model_4_multimer_v3_3.pdb,C,0.009898332037644843,27.360789507604363,0.11783937233544577,59.390526315789465,0.06998542343724405
multimernew/s_hIZUMO1e_s_hDCST2f/unrelaxed_model_4_multimer_v3_4.pdb,B,0.009942670893812464,26.90257637080192,0.12139625867903923,58.449999999999996,0.07095611319789842
multimernew/s_hIZUMO1e_s_hDCST2f/unrelaxed_model_4_multimer_v3_4.pdb,C,0.009942670893812464,26.90257637080192,0.12139625867903923,58.449999999999996,0.07095611319789842
multimernew/s_hIZUMO1e_s_hDCST2f/unrelaxed_model_4_multimer_v3_5.pdb,B,0.00954448317418987,27.353262268395394,0.11789658949015298,52.60272727272727,0.062016821433352014
multimernew/s_hIZUMO1e_s_hDCST2f/unrelaxed_model_4_multimer_v3_5.pdb,C,0.00954448317418987,27.353262268395394,0.11789658949015298,52.60272727272727,0.062016821433352014
multimernew/s_hIZUMO1e_s_hDCST2f/unrelaxed_model_5_multimer_v3_1.pdb,B,0.010039753736863008,25.883398775315623,0.12987850751255775,56.25323529411765,0.07306086242752738
multimernew/s_hIZUMO1e_s_hDCST2f/unrelaxed_model_5_multimer_v3_1.pdb,C,0.010039753736863008,25.883398775315623,0.12987850751255775,56.253235294117644,0.07306086242752738
multimernew/s_hIZUMO1e_s_hDCST2f/unrelaxed_model_5_multimer_v3_2.pdb,B,0.010157957719974775,25.296584661437823,0.13515025816899084,55.9275,0.07558616063746236
multimernew/s_hIZUMO1e_s_hDCST2f/unrelaxed_model_5_multimer_v3_2.pdb,C,0.010157957719974775,25.296584661437823,0.13515025816899084,55.9275,0.07558616063746236
multimernew/s_hIZUMO1e_s_hDCST2f/unrelaxed_model_5_multimer_v3_3.pdb,B,0.009805343825944533,26.398005612373524,0.12549339291213768,54.1303846153846,0.06793005625023592
multimernew/s_hIZUMO1e_s_hDCST2f/unrelaxed_model_5_multimer_v3_3.pdb,C,0.009805343825944533,26.398005612373524,0.12549339291213768,54.13038461538462,0.06793005625023595
multimernew/s_hIZUMO1e_s_hDCST2f/unrelaxed_model_5_multimer_v3_4.pdb,B,0.009755614476258147,27.1649081660877,0.11934139270797382,55.990434782608695,0.06681976465281501
multimernew/s_hIZUMO1e_s_hDCST2f/unrelaxed_model_5_multimer_v3_4.pdb,C,0.009755614476258147,27.1649081660877,0.11934139270797382,55.990434782608695,0.06681976465281501
multimernew/s_hIZUMO1e_s_hDCST2f/unrelaxed_model_5_multimer_v3_5.pdb,B,0.009980350060198278,25.860987283056943,0.1300744204887733,55.180975609756096,0.07177633424444158
multimernew/s_hIZUMO1e_s_hDCST2f/unrelaxed_model_5_multimer_v3_5.pdb,C,0.009980350060198278,25.860987283056943,0.1300744204887733,55.180975609756096,0.07177633424444158
