multimernew/s_hIZUMO4f_s_hDCST2f/unrelaxed_model_1_multimer_v3_1.pdb,B,0.012765138583786886,22.036262848938073,0.1707659370395908,72.00785714285715,0.12296489199212994
multimernew/s_hIZUMO4f_s_hDCST2f/unrelaxed_model_1_multimer_v3_1.pdb,C,0.012765138583786886,22.036262848938073,0.1707659370395908,72.00785714285715,0.12296489199212994
multimernew/s_hIZUMO4f_s_hDCST2f/unrelaxed_model_1_multimer_v3_2.pdb,B,0.011706154358167263,22.914348628810963,0.15998275434985934,65.88,0.10539663856568733
multimernew/s_hIZUMO4f_s_hDCST2f/unrelaxed_model_1_multimer_v3_2.pdb,C,0.011706154358167263,22.914348628810963,0.15998275434985934,65.88,0.10539663856568733
multimernew/s_hIZUMO4f_s_hDCST2f/unrelaxed_model_1_multimer_v3_3.pdb,B,0.012480224392387555,22.820445128749665,0.16108955410381323,73.51615384615383,0.11842684442504253
multimernew/s_hIZUMO4f_s_hDCST2f/unrelaxed_model_1_multimer_v3_3.pdb,C,0.012480224392387555,22.820445128749665,0.16108955410381323,73.51615384615384,0.11842684442504256
multimernew/s_hIZUMO4f_s_hDCST2f/unrelaxed_model_1_multimer_v3_4.pdb,B,0.010429358082957946,25.17236876640136,0.13630512132255634,59.598461538461535,0.08123575530637707
multimernew/s_hIZUMO4f_s_hDCST2f/unrelaxed_model_1_multimer_v3_4.pdb,C,0.010429358082957946,25.17236876640136,0.13630512132255634,59.598461538461535,0.08123575530637707
multimernew/s_hIZUMO4f_s_hDCST2f/unrelaxed_model_1_multimer_v3_5.pdb,B,0.010723893643206991,24.42812884260382,0.14352690526553463,60.71777777777778,0.08714634739044896
multimernew/s_hIZUMO4f_s_hDCST2f/unrelaxed_model_1_multimer_v3_5.pdb,C,0.010723893643206991,24.42812884260382,0.14352690526553463,60.71777777777777,0.08714634739044894
multimernew/s_hIZUMO4f_s_hDCST2f/unrelaxed_model_2_multimer_v3_1.pdb,B,0.00732534068972502,0.0,1,0,0.0
multimernew/s_hIZUMO4f_s_hDCST2f/unrelaxed_model_2_multimer_v3_1.pdb,C,0.00732534068972502,0.0,1,0,0.0
multimernew/s_hIZUMO4f_s_hDCST2f/unrelaxed_model_2_multimer_v3_2.pdb,B,0.00732534068972502,0.0,1,0,0.0
multimernew/s_hIZUMO4f_s_hDCST2f/unrelaxed_model_2_multimer_v3_2.pdb,C,0.00732534068972502,0.0,1,0,0.0
multimernew/s_hIZUMO4f_s_hDCST2f/unrelaxed_model_2_multimer_v3_3.pdb,B,0.00732534068972502,0.0,1,0,0.0
multimernew/s_hIZUMO4f_s_hDCST2f/unrelaxed_model_2_multimer_v3_3.pdb,C,0.00732534068972502,0.0,1,0,0.0
multimernew/s_hIZUMO4f_s_hDCST2f/unrelaxed_model_2_multimer_v3_4.pdb,B,0.00732534068972502,0.0,1,0,0.0
multimernew/s_hIZUMO4f_s_hDCST2f/unrelaxed_model_2_multimer_v3_4.pdb,C,0.00732534068972502,0.0,1,0,0.0
multimernew/s_hIZUMO4f_s_hDCST2f/unrelaxed_model_2_multimer_v3_5.pdb,B,0.00732534068972502,0.0,1,0,0.0
multimernew/s_hIZUMO4f_s_hDCST2f/unrelaxed_model_2_multimer_v3_5.pdb,C,0.00732534068972502,0.0,1,0,0.0
multimernew/s_hIZUMO4f_s_hDCST2f/unrelaxed_model_3_multimer_v3_1.pdb,B,0.010928233165419713,24.183269706848485,0.14602152660695547,62.4021875,0.09112062682363474
multimernew/s_hIZUMO4f_s_hDCST2f/unrelaxed_model_3_multimer_v3_1.pdb,C,0.010928233165419713,24.183269706848485,0.14602152660695547,62.402187500000004,0.09112062682363474
multimernew/s_hIZUMO4f_s_hDCST2f/unrelaxed_model_3_multimer_v3_2.pdb,B,0.01067140788612269,24.95882103781198,0.1383235399100672,62.251999999999995,0.08610917006481504
multimernew/s_hIZUMO4f_s_hDCST2f/unrelaxed_model_3_multimer_v3_2.pdb,C,0.01067140788612269,24.95882103781198,0.1383235399100672,62.251999999999995,0.08610917006481504
multimernew/s_hIZUMO4f_s_hDCST2f/unrelaxed_model_3_multimer_v3_3.pdb,B,0.010726911798452525,24.725698984059033,0.1405757608741279,62.034722222222236,0.08720578277004062
multimernew/s_hIZUMO4f_s_hDCST2f/unrelaxed_model_3_multimer_v3_3.pdb,C,0.010726911798452518,24.725698984059033,0.1405757608741279,62.03472222222222,0.08720578277004058
multimernew/s_hIZUMO4f_s_hDCST2f/unrelaxed_model_3_multimer_v3_4.pdb,B,0.008432217400416156,27.504568075717692,0.11675405989772651,29.095000000000002,0.03396959372724353
multimernew/s_hIZUMO4f_s_hDCST2f/unrelaxed_model_3_multimer_v3_4.pdb,C,0.008432217400416156,27.504568075717692,0.11675405989772651,29.095000000000002,0.03396959372724353
multimernew/s_hIZUMO4f_s_hDCST2f/unrelaxed_model_3_multimer_v3_5.pdb,B,0.010664901862594257,24.74222397778279,0.14041440414444836,61.233125,0.08598012760777525
multimernew/s_hIZUMO4f_s_hDCST2f/unrelaxed_model_3_multimer_v3_5.pdb,C,0.010664901862594257,24.74222397778279,0.14041440414444836,61.233125,0.08598012760777525
multimernew/s_hIZUMO4f_s_hDCST2f/unrelaxed_model_4_multimer_v3_1.pdb,B,0.009806001952437231,24.96291121433791,0.1382844826977425,49.13399999999999,0.06794469772870879
multimernew/s_hIZUMO4f_s_hDCST2f/unrelaxed_model_4_multimer_v3_1.pdb,C,0.009806001952437231,24.96291121433791,0.1382844826977425,49.13400000000001,0.0679446977287088
multimernew/s_hIZUMO4f_s_hDCST2f/unrelaxed_model_4_multimer_v3_2.pdb,B,0.01017491883399612,24.752254779147528,0.1403165874324208,54.12419354838708,0.07594522136241522
multimernew/s_hIZUMO4f_s_hDCST2f/unrelaxed_model_4_multimer_v3_2.pdb,C,0.01017491883399612,24.752254779147528,0.1403165874324208,54.12419354838708,0.07594522136241522
multimernew/s_hIZUMO4f_s_hDCST2f/unrelaxed_model_4_multimer_v3_3.pdb,B,0.010926820714127336,23.202373455752102,0.1566538403877007,58.14954545454545,0.09109349612253709
multimernew/s_hIZUMO4f_s_hDCST2f/unrelaxed_model_4_multimer_v3_3.pdb,C,0.010926820714127343,23.202373455752102,0.1566538403877007,58.149545454545475,0.09109349612253713
multimernew/s_hIZUMO4f_s_hDCST2f/unrelaxed_model_4_multimer_v3_4.pdb,B,0.01026069884717789,24.341910840915812,0.14439836365305606,53.84322580645162,0.07774873700253614
multimernew/s_hIZUMO4f_s_hDCST2f/unrelaxed_model_4_multimer_v3_4.pdb,C,0.01026069884717789,24.341910840915812,0.14439836365305606,53.843225806451606,0.07774873700253611
multimernew/s_hIZUMO4f_s_hDCST2f/unrelaxed_model_4_multimer_v3_5.pdb,B,0.009034581142068086,25.545712452121354,0.13287563440778777,37.46,0.0497752126491573
multimernew/s_hIZUMO4f_s_hDCST2f/unrelaxed_model_4_multimer_v3_5.pdb,C,0.009034581142068086,25.545712452121354,0.13287563440778777,37.46,0.0497752126491573
multimernew/s_hIZUMO4f_s_hDCST2f/unrelaxed_model_5_multimer_v3_1.pdb,B,0.009712839912519963,26.32499946818359,0.12610251475944734,52.2261224489796,0.06585845376951154
multimernew/s_hIZUMO4f_s_hDCST2f/unrelaxed_model_5_multimer_v3_1.pdb,C,0.009712839912519963,26.32499946818359,0.12610251475944734,52.22612244897959,0.06585845376951152
multimernew/s_hIZUMO4f_s_hDCST2f/unrelaxed_model_5_multimer_v3_2.pdb,B,0.009868568026539824,25.902767655091722,0.12970953057181736,53.450540540540544,0.06933044522323406
multimernew/s_hIZUMO4f_s_hDCST2f/unrelaxed_model_5_multimer_v3_2.pdb,C,0.009868568026539824,25.902767655091722,0.12970953057181736,53.450540540540544,0.06933044522323406
multimernew/s_hIZUMO4f_s_hDCST2f/unrelaxed_model_5_multimer_v3_3.pdb,B,0.009185782425523781,27.432115200111557,0.11729917096170277,45.61453333333332,0.05350546943804955
multimernew/s_hIZUMO4f_s_hDCST2f/unrelaxed_model_5_multimer_v3_3.pdb,C,0.009185782425523781,27.432115200111557,0.11729917096170277,45.614533333333334,0.05350546943804956
multimernew/s_hIZUMO4f_s_hDCST2f/unrelaxed_model_5_multimer_v3_4.pdb,B,0.0095151345716705,26.663287979223277,0.1233150652055599,49.740428571428566,0.06133744192638209
multimernew/s_hIZUMO4f_s_hDCST2f/unrelaxed_model_5_multimer_v3_4.pdb,C,0.0095151345716705,26.663287979223277,0.1233150652055599,49.740428571428566,0.06133744192638209
multimernew/s_hIZUMO4f_s_hDCST2f/unrelaxed_model_5_multimer_v3_5.pdb,B,0.0094697807056592,26.02382679915258,0.1286604606645425,46.853375,0.06028176811188559
multimernew/s_hIZUMO4f_s_hDCST2f/unrelaxed_model_5_multimer_v3_5.pdb,C,0.0094697807056592,26.02382679915258,0.1286604606645425,46.853375,0.06028176811188559
