{
    "iptm+ptm": {
        "model_1_multimer_v3_1": 0.5727701388238486,
        "model_2_multimer_v3_1": 0.5744882918934112,
        "model_3_multimer_v3_1": 0.5932167299976037,
        "model_4_multimer_v3_1": 0.5657007084622654,
        "model_5_multimer_v3_1": 0.5801944849002891,
        "model_1_multimer_v3_2": 0.572838395859385,
        "model_2_multimer_v3_2": 0.571300961620772,
        "model_3_multimer_v3_2": 0.6071022458048279,
        "model_4_multimer_v3_2": 0.5754499614644185,
        "model_5_multimer_v3_2": 0.5810331059807629,
        "model_1_multimer_v3_3": 0.5702042301346643,
        "model_2_multimer_v3_3": 0.4984260312346095,
        "model_3_multimer_v3_3": 0.5827378859780015,
        "model_4_multimer_v3_3": 0.5866265618132318,
        "model_5_multimer_v3_3": 0.5739714663294943,
        "model_1_multimer_v3_4": 0.578972137071601,
        "model_2_multimer_v3_4": 0.5679692715005128,
        "model_3_multimer_v3_4": 0.5975689268166802,
        "model_4_multimer_v3_4": 0.5793281811245767,
        "model_5_multimer_v3_4": 0.5872577805697904,
        "model_1_multimer_v3_5": 0.5538367419567372,
        "model_2_multimer_v3_5": 0.530081149218667,
        "model_3_multimer_v3_5": 0.6091549564652428,
        "model_4_multimer_v3_5": 0.6027665238633718,
        "model_5_multimer_v3_5": 0.5871550892237277
    },
    "order": [
        "model_3_multimer_v3_5",
        "model_3_multimer_v3_2",
        "model_4_multimer_v3_5",
        "model_3_multimer_v3_4",
        "model_3_multimer_v3_1",
        "model_5_multimer_v3_4",
        "model_5_multimer_v3_5",
        "model_4_multimer_v3_3",
        "model_3_multimer_v3_3",
        "model_5_multimer_v3_2",
        "model_5_multimer_v3_1",
        "model_4_multimer_v3_4",
        "model_1_multimer_v3_4",
        "model_4_multimer_v3_2",
        "model_2_multimer_v3_1",
        "model_5_multimer_v3_3",
        "model_1_multimer_v3_2",
        "model_1_multimer_v3_1",
        "model_2_multimer_v3_2",
        "model_1_multimer_v3_3",
        "model_2_multimer_v3_4",
        "model_4_multimer_v3_1",
        "model_1_multimer_v3_5",
        "model_2_multimer_v3_5",
        "model_2_multimer_v3_3"
    ]
}