{
    "iptm+ptm": {
        "model_1_multimer_v3_1": 0.18012953310533686,
        "model_2_multimer_v3_1": 0.18563203881615145,
        "model_3_multimer_v3_1": 0.4787910736721566,
        "model_4_multimer_v3_1": 0.20635612257810032,
        "model_5_multimer_v3_1": 0.16930577600619173,
        "model_1_multimer_v3_2": 0.30470112607548366,
        "model_2_multimer_v3_2": 0.194289745380939,
        "model_3_multimer_v3_2": 0.18088963347620357,
        "model_4_multimer_v3_2": 0.1928006566138616,
        "model_5_multimer_v3_2": 0.17864666311992752,
        "model_1_multimer_v3_3": 0.19028744751259635,
        "model_2_multimer_v3_3": 0.2113490892740386,
        "model_3_multimer_v3_3": 0.18332145304198727,
        "model_4_multimer_v3_3": 0.2554445740152622,
        "model_5_multimer_v3_3": 0.18732209825566207,
        "model_1_multimer_v3_4": 0.33155946397216407,
        "model_2_multimer_v3_4": 0.2206879511269046,
        "model_3_multimer_v3_4": 0.19620932493100643,
        "model_4_multimer_v3_4": 0.20968096304972483,
        "model_5_multimer_v3_4": 0.1819363287935229,
        "model_1_multimer_v3_5": 0.2012864157820805,
        "model_2_multimer_v3_5": 0.22792758217155118,
        "model_3_multimer_v3_5": 0.21620038714819867,
        "model_4_multimer_v3_5": 0.19894639130143035,
        "model_5_multimer_v3_5": 0.19047622487382598
    },
    "order": [
        "model_3_multimer_v3_1",
        "model_1_multimer_v3_4",
        "model_1_multimer_v3_2",
        "model_4_multimer_v3_3",
        "model_2_multimer_v3_5",
        "model_2_multimer_v3_4",
        "model_3_multimer_v3_5",
        "model_2_multimer_v3_3",
        "model_4_multimer_v3_4",
        "model_4_multimer_v3_1",
        "model_1_multimer_v3_5",
        "model_4_multimer_v3_5",
        "model_3_multimer_v3_4",
        "model_2_multimer_v3_2",
        "model_4_multimer_v3_2",
        "model_5_multimer_v3_5",
        "model_1_multimer_v3_3",
        "model_5_multimer_v3_3",
        "model_2_multimer_v3_1",
        "model_3_multimer_v3_3",
        "model_5_multimer_v3_4",
        "model_3_multimer_v3_2",
        "model_1_multimer_v3_1",
        "model_5_multimer_v3_2",
        "model_5_multimer_v3_1"
    ]
}