{
    "features": 94.87766861915588,
    "process_features_model_1_multimer_v3_1": 1.1682510375976562e-05,
    "predict_and_compile_model_1_multimer_v3_1": 321.72326922416687,
    "process_features_model_2_multimer_v3_1": 2.002716064453125e-05,
    "predict_and_compile_model_2_multimer_v3_1": 677.8812439441681,
    "process_features_model_3_multimer_v3_1": 1.621246337890625e-05,
    "predict_and_compile_model_3_multimer_v3_1": 679.5684320926666,
    "process_features_model_4_multimer_v3_1": 1.2636184692382812e-05,
    "predict_and_compile_model_4_multimer_v3_1": 667.2735538482666,
    "process_features_model_5_multimer_v3_1": 1.3589859008789062e-05,
    "predict_and_compile_model_5_multimer_v3_1": 666.9087119102478,
    "process_features_model_1_multimer_v3_2": 1.1205673217773438e-05,
    "predict_and_compile_model_1_multimer_v3_2": 549.8872573375702,
    "process_features_model_2_multimer_v3_2": 1.7881393432617188e-05,
    "predict_and_compile_model_2_multimer_v3_2": 577.502384185791,
    "process_features_model_3_multimer_v3_2": 8.344650268554688e-06,
    "predict_and_compile_model_3_multimer_v3_2": 577.3288104534149,
    "process_features_model_4_multimer_v3_2": 7.3909759521484375e-06,
    "predict_and_compile_model_4_multimer_v3_2": 563.618462562561,
    "process_features_model_5_multimer_v3_2": 5.245208740234375e-06,
    "predict_and_compile_model_5_multimer_v3_2": 563.7590324878693,
    "process_features_model_1_multimer_v3_3": 6.9141387939453125e-06,
    "predict_and_compile_model_1_multimer_v3_3": 276.056697845459,
    "process_features_model_2_multimer_v3_3": 8.58306884765625e-06,
    "predict_and_compile_model_2_multimer_v3_3": 577.3700039386749,
    "process_features_model_3_multimer_v3_3": 7.867813110351562e-06,
    "predict_and_compile_model_3_multimer_v3_3": 577.4939482212067,
    "process_features_model_4_multimer_v3_3": 6.198883056640625e-06,
    "predict_and_compile_model_4_multimer_v3_3": 563.2292001247406,
    "process_features_model_5_multimer_v3_3": 5.4836273193359375e-06,
    "predict_and_compile_model_5_multimer_v3_3": 510.0780279636383,
    "process_features_model_1_multimer_v3_4": 4.291534423828125e-06,
    "predict_and_compile_model_1_multimer_v3_4": 248.34393620491028,
    "process_features_model_2_multimer_v3_4": 1.0728836059570312e-05,
    "predict_and_compile_model_2_multimer_v3_4": 577.4696090221405,
    "process_features_model_3_multimer_v3_4": 7.152557373046875e-06,
    "predict_and_compile_model_3_multimer_v3_4": 577.321270942688,
    "process_features_model_4_multimer_v3_4": 6.4373016357421875e-06,
    "predict_and_compile_model_4_multimer_v3_4": 563.2115480899811,
    "process_features_model_5_multimer_v3_4": 5.9604644775390625e-06,
    "predict_and_compile_model_5_multimer_v3_4": 562.9576182365417,
    "process_features_model_1_multimer_v3_5": 6.67572021484375e-06,
    "predict_and_compile_model_1_multimer_v3_5": 577.0388808250427,
    "process_features_model_2_multimer_v3_5": 1.7404556274414062e-05,
    "predict_and_compile_model_2_multimer_v3_5": 577.3653752803802,
    "process_features_model_3_multimer_v3_5": 8.106231689453125e-06,
    "predict_and_compile_model_3_multimer_v3_5": 577.4604256153107,
    "process_features_model_4_multimer_v3_5": 6.67572021484375e-06,
    "predict_and_compile_model_4_multimer_v3_5": 563.8998320102692,
    "process_features_model_5_multimer_v3_5": 5.9604644775390625e-06,
    "predict_and_compile_model_5_multimer_v3_5": 536.9019875526428
}