{
    "features": 32.85239553451538,
    "process_features_model_1_multimer_v3_1": 4.76837158203125e-06,
    "predict_and_compile_model_1_multimer_v3_1": 146.63918042182922,
    "process_features_model_2_multimer_v3_1": 8.106231689453125e-06,
    "predict_and_compile_model_2_multimer_v3_1": 162.0526430606842,
    "process_features_model_3_multimer_v3_1": 1.8835067749023438e-05,
    "predict_and_compile_model_3_multimer_v3_1": 167.55511379241943,
    "process_features_model_4_multimer_v3_1": 6.4373016357421875e-06,
    "predict_and_compile_model_4_multimer_v3_1": 254.04084968566895,
    "process_features_model_5_multimer_v3_1": 2.002716064453125e-05,
    "predict_and_compile_model_5_multimer_v3_1": 149.81241917610168,
    "process_features_model_1_multimer_v3_2": 5.7220458984375e-06,
    "predict_and_compile_model_1_multimer_v3_2": 73.86517000198364,
    "process_features_model_2_multimer_v3_2": 1.239776611328125e-05,
    "predict_and_compile_model_2_multimer_v3_2": 82.06316113471985,
    "process_features_model_3_multimer_v3_2": 8.821487426757812e-06,
    "predict_and_compile_model_3_multimer_v3_2": 49.42198324203491,
    "process_features_model_4_multimer_v3_2": 6.67572021484375e-06,
    "predict_and_compile_model_4_multimer_v3_2": 103.36585140228271,
    "process_features_model_5_multimer_v3_2": 6.198883056640625e-06,
    "predict_and_compile_model_5_multimer_v3_2": 47.966590881347656,
    "process_features_model_1_multimer_v3_3": 1.1682510375976562e-05,
    "predict_and_compile_model_1_multimer_v3_3": 122.91761946678162,
    "process_features_model_2_multimer_v3_3": 2.09808349609375e-05,
    "predict_and_compile_model_2_multimer_v3_3": 122.7375717163086,
    "process_features_model_3_multimer_v3_3": 1.0013580322265625e-05,
    "predict_and_compile_model_3_multimer_v3_3": 49.44839429855347,
    "process_features_model_4_multimer_v3_3": 1.621246337890625e-05,
    "predict_and_compile_model_4_multimer_v3_3": 150.98791551589966,
    "process_features_model_5_multimer_v3_3": 5.4836273193359375e-06,
    "predict_and_compile_model_5_multimer_v3_3": 47.9839563369751,
    "process_features_model_1_multimer_v3_4": 5.7220458984375e-06,
    "predict_and_compile_model_1_multimer_v3_4": 171.50162410736084,
    "process_features_model_2_multimer_v3_4": 1.1444091796875e-05,
    "predict_and_compile_model_2_multimer_v3_4": 65.71183848381042,
    "process_features_model_3_multimer_v3_4": 1.0013580322265625e-05,
    "predict_and_compile_model_3_multimer_v3_4": 65.66026401519775,
    "process_features_model_4_multimer_v3_4": 2.6702880859375e-05,
    "predict_and_compile_model_4_multimer_v3_4": 166.64648938179016,
    "process_features_model_5_multimer_v3_4": 5.245208740234375e-06,
    "predict_and_compile_model_5_multimer_v3_4": 119.16207218170166,
    "process_features_model_1_multimer_v3_5": 6.67572021484375e-06,
    "predict_and_compile_model_1_multimer_v3_5": 82.14551305770874,
    "process_features_model_2_multimer_v3_5": 1.0728836059570312e-05,
    "predict_and_compile_model_2_multimer_v3_5": 90.2170741558075,
    "process_features_model_3_multimer_v3_5": 9.298324584960938e-06,
    "predict_and_compile_model_3_multimer_v3_5": 57.60310435295105,
    "process_features_model_4_multimer_v3_5": 5.9604644775390625e-06,
    "predict_and_compile_model_4_multimer_v3_5": 111.39037156105042,
    "process_features_model_5_multimer_v3_5": 4.76837158203125e-06,
    "predict_and_compile_model_5_multimer_v3_5": 32.142467975616455
}