multimernew/s_hIZUMO4f_s_hSOF1f/unrelaxed_model_1_multimer_v3_1.pdb,B,0.014861119449320326,13.401756983559492,0.35764472178399154,42.742340425531914,0.15286572449886016
multimernew/s_hIZUMO4f_s_hSOF1f/unrelaxed_model_1_multimer_v3_1.pdb,C,0.014861119449320326,13.401756983559492,0.35764472178399154,42.742340425531914,0.15286572449886016
multimernew/s_hIZUMO4f_s_hSOF1f/unrelaxed_model_1_multimer_v3_2.pdb,B,0.0180314669096854,12.044150539485056,0.408060730108026,46.442,0.18951156427676946
multimernew/s_hIZUMO4f_s_hSOF1f/unrelaxed_model_1_multimer_v3_2.pdb,C,0.0180314669096854,12.044150539485056,0.408060730108026,46.442,0.18951156427676946
multimernew/s_hIZUMO4f_s_hSOF1f/unrelaxed_model_1_multimer_v3_3.pdb,B,0.01722678239836851,12.122681424155385,0.40492485004088313,44.69456521739131,0.18097940118294645
multimernew/s_hIZUMO4f_s_hSOF1f/unrelaxed_model_1_multimer_v3_3.pdb,C,0.01722678239836851,12.122681424155385,0.40492485004088313,44.69456521739131,0.18097940118294645
multimernew/s_hIZUMO4f_s_hSOF1f/unrelaxed_model_1_multimer_v3_4.pdb,B,0.020790640229805004,11.408399113082467,0.4344962750394978,49.64842105263158,0.21572054008961003
multimernew/s_hIZUMO4f_s_hSOF1f/unrelaxed_model_1_multimer_v3_4.pdb,C,0.020790640229805004,11.408399113082467,0.4344962750394978,49.64842105263159,0.21572054008961009
multimernew/s_hIZUMO4f_s_hSOF1f/unrelaxed_model_1_multimer_v3_5.pdb,B,0.01522964163492574,13.141807009817882,0.3666938012359109,42.97480769230769,0.15758595590074573
multimernew/s_hIZUMO4f_s_hSOF1f/unrelaxed_model_1_multimer_v3_5.pdb,C,0.01522964163492574,13.141807009817882,0.3666938012359109,42.9748076923077,0.15758595590074573
multimernew/s_hIZUMO4f_s_hSOF1f/unrelaxed_model_2_multimer_v3_1.pdb,B,0.016264906385078746,13.240118637150264,0.3632391233157047,46.839999999999996,0.17014120536107605
multimernew/s_hIZUMO4f_s_hSOF1f/unrelaxed_model_2_multimer_v3_1.pdb,C,0.016264906385078746,13.240118637150264,0.3632391233157047,46.839999999999996,0.17014120536107605
multimernew/s_hIZUMO4f_s_hSOF1f/unrelaxed_model_2_multimer_v3_2.pdb,B,0.018303565304908925,12.731823357626617,0.38153474685493244,50.400714285714294,0.19229623766307782
multimernew/s_hIZUMO4f_s_hSOF1f/unrelaxed_model_2_multimer_v3_2.pdb,C,0.018303565304908925,12.731823357626617,0.38153474685493244,50.40071428571429,0.1922962376630778
multimernew/s_hIZUMO4f_s_hSOF1f/unrelaxed_model_2_multimer_v3_3.pdb,B,0.012936000438978934,16.34474485397806,0.2723677341887988,46.123374999999996,0.12562519141890285
multimernew/s_hIZUMO4f_s_hSOF1f/unrelaxed_model_2_multimer_v3_3.pdb,C,0.012936000438978934,16.34474485397806,0.2723677341887988,46.123374999999996,0.12562519141890285
multimernew/s_hIZUMO4f_s_hSOF1f/unrelaxed_model_2_multimer_v3_4.pdb,B,0.02133113068373452,11.579708211876136,0.4271867778059285,51.59020833333333,0.22038654864253224
multimernew/s_hIZUMO4f_s_hSOF1f/unrelaxed_model_2_multimer_v3_4.pdb,C,0.02133113068373452,11.579708211876136,0.4271867778059285,51.59020833333333,0.22038654864253224
multimernew/s_hIZUMO4f_s_hSOF1f/unrelaxed_model_2_multimer_v3_5.pdb,B,0.01901271633580456,12.679399770543165,0.3834838439385165,51.97951219512195,0.1993330314263436
multimernew/s_hIZUMO4f_s_hSOF1f/unrelaxed_model_2_multimer_v3_5.pdb,C,0.01901271633580456,12.679399770543165,0.3834838439385165,51.979512195121956,0.19933303142634362
multimernew/s_hIZUMO4f_s_hSOF1f/unrelaxed_model_3_multimer_v3_1.pdb,B,0.015418546838657825,13.139355981386737,0.366780438087605,43.60979591836735,0.15995220051849826
multimernew/s_hIZUMO4f_s_hSOF1f/unrelaxed_model_3_multimer_v3_1.pdb,C,0.015418546838657825,13.139355981386737,0.366780438087605,43.60979591836735,0.15995220051849826
multimernew/s_hIZUMO4f_s_hSOF1f/unrelaxed_model_3_multimer_v3_2.pdb,B,0.011010368163134339,17.185325695793424,0.252949761457062,36.64377049180328,0.09269033004788968
multimernew/s_hIZUMO4f_s_hSOF1f/unrelaxed_model_3_multimer_v3_2.pdb,C,0.011010368163134339,17.185325695793424,0.252949761457062,36.64377049180328,0.09269033004788968
multimernew/s_hIZUMO4f_s_hSOF1f/unrelaxed_model_3_multimer_v3_3.pdb,B,0.010802070683769765,17.431454663186784,0.24761324866903076,35.813384615384614,0.0886786851044887
multimernew/s_hIZUMO4f_s_hSOF1f/unrelaxed_model_3_multimer_v3_3.pdb,C,0.010802070683769765,17.431454663186784,0.24761324866903076,35.813384615384614,0.0886786851044887
multimernew/s_hIZUMO4f_s_hSOF1f/unrelaxed_model_3_multimer_v3_4.pdb,B,0.01674648713704575,13.004477368720973,0.37158637766183733,47.27295454545455,0.17565985940918147
multimernew/s_hIZUMO4f_s_hSOF1f/unrelaxed_model_3_multimer_v3_4.pdb,C,0.01674648713704575,13.004477368720973,0.37158637766183733,47.27295454545455,0.17565985940918147
multimernew/s_hIZUMO4f_s_hSOF1f/unrelaxed_model_3_multimer_v3_5.pdb,B,0.013264836199088342,14.397318526634631,0.325433139317226,40.13807692307692,0.13062260379233226
multimernew/s_hIZUMO4f_s_hSOF1f/unrelaxed_model_3_multimer_v3_5.pdb,C,0.013264836199088342,14.397318526634631,0.325433139317226,40.13807692307693,0.1306226037923323
multimernew/s_hIZUMO4f_s_hSOF1f/unrelaxed_model_4_multimer_v3_1.pdb,B,0.012564253250330277,16.727267310161857,0.2632954515985749,45.49217391304349,0.11977882474635694
multimernew/s_hIZUMO4f_s_hSOF1f/unrelaxed_model_4_multimer_v3_1.pdb,C,0.012564253250330277,16.727267310161857,0.2632954515985749,45.49217391304347,0.1197788247463569
multimernew/s_hIZUMO4f_s_hSOF1f/unrelaxed_model_4_multimer_v3_2.pdb,B,0.02039480699624589,12.270631724116207,0.3990926183791916,53.17432835820895,0.2122148193503251
multimernew/s_hIZUMO4f_s_hSOF1f/unrelaxed_model_4_multimer_v3_2.pdb,C,0.02039480699624589,12.270631724116207,0.3990926183791916,53.17432835820895,0.2122148193503251
multimernew/s_hIZUMO4f_s_hSOF1f/unrelaxed_model_4_multimer_v3_3.pdb,B,0.033763774112505376,9.737276287851614,0.5133086838411012,58.76862068965518,0.3016644333736381
multimernew/s_hIZUMO4f_s_hSOF1f/unrelaxed_model_4_multimer_v3_3.pdb,C,0.033763774112505376,9.737276287851614,0.5133086838411012,58.76862068965517,0.3016644333736381
multimernew/s_hIZUMO4f_s_hSOF1f/unrelaxed_model_4_multimer_v3_4.pdb,B,0.017958502117533682,13.77770227947339,0.34503570210305196,54.70636363636363,0.18875648586777596
multimernew/s_hIZUMO4f_s_hSOF1f/unrelaxed_model_4_multimer_v3_4.pdb,C,0.017958502117533682,13.77770227947339,0.34503570210305196,54.70636363636363,0.18875648586777596
multimernew/s_hIZUMO4f_s_hSOF1f/unrelaxed_model_4_multimer_v3_5.pdb,B,0.01347253979481227,16.145085164630828,0.27726654834529924,48.220652173913045,0.1336997378722012
multimernew/s_hIZUMO4f_s_hSOF1f/unrelaxed_model_4_multimer_v3_5.pdb,C,0.01347253979481227,16.145085164630828,0.27726654834529924,48.22065217391304,0.13369973787220119
multimernew/s_hIZUMO4f_s_hSOF1f/unrelaxed_model_5_multimer_v3_1.pdb,B,0.0166078069945249,13.606862891937995,0.3506966546399719,49.64125,0.17409020307146506
multimernew/s_hIZUMO4f_s_hSOF1f/unrelaxed_model_5_multimer_v3_1.pdb,C,0.0166078069945249,13.606862891937995,0.3506966546399719,49.64125,0.17409020307146506
multimernew/s_hIZUMO4f_s_hSOF1f/unrelaxed_model_5_multimer_v3_2.pdb,B,0.015033528139675805,13.350127137001905,0.35942017601586573,43.1504761904762,0.15509151747549377
multimernew/s_hIZUMO4f_s_hSOF1f/unrelaxed_model_5_multimer_v3_2.pdb,C,0.015033528139675805,13.350127137001905,0.35942017601586573,43.1504761904762,0.15509151747549377
multimernew/s_hIZUMO4f_s_hSOF1f/unrelaxed_model_5_multimer_v3_3.pdb,B,0.022603220948715745,11.207011605515214,0.44326809145449,52.08122448979592,0.23085944980204684
multimernew/s_hIZUMO4f_s_hSOF1f/unrelaxed_model_5_multimer_v3_3.pdb,C,0.022603220948715745,11.207011605515214,0.44326809145449,52.08122448979592,0.23085944980204684
multimernew/s_hIZUMO4f_s_hSOF1f/unrelaxed_model_5_multimer_v3_4.pdb,B,0.02871027349251651,10.42687602970893,0.47911135865079935,57.05799999999999,0.273371359018973
multimernew/s_hIZUMO4f_s_hSOF1f/unrelaxed_model_5_multimer_v3_4.pdb,C,0.028710273492516536,10.42687602970893,0.47911135865079935,57.05800000000001,0.27337135901897314
multimernew/s_hIZUMO4f_s_hSOF1f/unrelaxed_model_5_multimer_v3_5.pdb,B,0.014460033219616865,14.783341215843288,0.3139252426706192,47.005961538461534,0.14756357882927332
multimernew/s_hIZUMO4f_s_hSOF1f/unrelaxed_model_5_multimer_v3_5.pdb,C,0.014460033219616865,14.783341215843288,0.3139252426706192,47.005961538461534,0.14756357882927332
