{
    "features": 221.41845154762268,
    "process_features_model_1_multimer_v3_1": 3.814697265625e-06,
    "predict_and_compile_model_1_multimer_v3_1": 176.95172238349915,
    "process_features_model_2_multimer_v3_1": 1.5735626220703125e-05,
    "predict_and_compile_model_2_multimer_v3_1": 174.5206639766693,
    "process_features_model_3_multimer_v3_1": 1.52587890625e-05,
    "predict_and_compile_model_3_multimer_v3_1": 179.2884702682495,
    "process_features_model_4_multimer_v3_1": 1.5020370483398438e-05,
    "predict_and_compile_model_4_multimer_v3_1": 177.2076382637024,
    "process_features_model_5_multimer_v3_1": 1.52587890625e-05,
    "predict_and_compile_model_5_multimer_v3_1": 178.0459840297699,
    "process_features_model_1_multimer_v3_2": 1.2159347534179688e-05,
    "predict_and_compile_model_1_multimer_v3_2": 74.08910346031189,
    "process_features_model_2_multimer_v3_2": 6.67572021484375e-06,
    "predict_and_compile_model_2_multimer_v3_2": 60.10773015022278,
    "process_features_model_3_multimer_v3_2": 6.4373016357421875e-06,
    "predict_and_compile_model_3_multimer_v3_2": 45.99771785736084,
    "process_features_model_4_multimer_v3_2": 1.5735626220703125e-05,
    "predict_and_compile_model_4_multimer_v3_2": 74.07863211631775,
    "process_features_model_5_multimer_v3_2": 3.0994415283203125e-06,
    "predict_and_compile_model_5_multimer_v3_2": 74.10688781738281,
    "process_features_model_1_multimer_v3_3": 1.2636184692382812e-05,
    "predict_and_compile_model_1_multimer_v3_3": 74.0726706981659,
    "process_features_model_2_multimer_v3_3": 8.821487426757812e-06,
    "predict_and_compile_model_2_multimer_v3_3": 74.0718629360199,
    "process_features_model_3_multimer_v3_3": 5.4836273193359375e-06,
    "predict_and_compile_model_3_multimer_v3_3": 74.00088930130005,
    "process_features_model_4_multimer_v3_3": 5.245208740234375e-06,
    "predict_and_compile_model_4_multimer_v3_3": 74.01638531684875,
    "process_features_model_5_multimer_v3_3": 2.86102294921875e-06,
    "predict_and_compile_model_5_multimer_v3_3": 74.02115178108215,
    "process_features_model_1_multimer_v3_4": 3.0994415283203125e-06,
    "predict_and_compile_model_1_multimer_v3_4": 49.37134337425232,
    "process_features_model_2_multimer_v3_4": 1.71661376953125e-05,
    "predict_and_compile_model_2_multimer_v3_4": 74.22006416320801,
    "process_features_model_3_multimer_v3_4": 5.245208740234375e-06,
    "predict_and_compile_model_3_multimer_v3_4": 74.04339098930359,
    "process_features_model_4_multimer_v3_4": 4.76837158203125e-06,
    "predict_and_compile_model_4_multimer_v3_4": 74.08717584609985,
    "process_features_model_5_multimer_v3_4": 3.0994415283203125e-06,
    "predict_and_compile_model_5_multimer_v3_4": 74.1110360622406,
    "process_features_model_1_multimer_v3_5": 3.814697265625e-06,
    "predict_and_compile_model_1_multimer_v3_5": 74.02227926254272,
    "process_features_model_2_multimer_v3_5": 5.9604644775390625e-06,
    "predict_and_compile_model_2_multimer_v3_5": 73.99594950675964,
    "process_features_model_3_multimer_v3_5": 6.4373016357421875e-06,
    "predict_and_compile_model_3_multimer_v3_5": 73.94665837287903,
    "process_features_model_4_multimer_v3_5": 5.0067901611328125e-06,
    "predict_and_compile_model_4_multimer_v3_5": 73.9766480922699,
    "process_features_model_5_multimer_v3_5": 3.0994415283203125e-06,
    "predict_and_compile_model_5_multimer_v3_5": 74.20302319526672
}