{
    "iptm+ptm": {
        "model_1_multimer_v3_1": 0.24377085119962322,
        "model_2_multimer_v3_1": 0.1878821226484214,
        "model_3_multimer_v3_1": 0.14457438221318325,
        "model_4_multimer_v3_1": 0.18776972666506897,
        "model_5_multimer_v3_1": 0.13930058306094387,
        "model_1_multimer_v3_2": 0.21878682196713278,
        "model_2_multimer_v3_2": 0.19234855724826022,
        "model_3_multimer_v3_2": 0.14534835993925915,
        "model_4_multimer_v3_2": 0.1938914152904439,
        "model_5_multimer_v3_2": 0.1363520488635878,
        "model_1_multimer_v3_3": 0.2249107613257546,
        "model_2_multimer_v3_3": 0.19442943275657343,
        "model_3_multimer_v3_3": 0.14440898708369385,
        "model_4_multimer_v3_3": 0.18854308640908143,
        "model_5_multimer_v3_3": 0.13748093603665745,
        "model_1_multimer_v3_4": 0.2326382429129852,
        "model_2_multimer_v3_4": 0.197397853364026,
        "model_3_multimer_v3_4": 0.14305003483126608,
        "model_4_multimer_v3_4": 0.18755205553148646,
        "model_5_multimer_v3_4": 0.13906466740728882,
        "model_1_multimer_v3_5": 0.23548046487292554,
        "model_2_multimer_v3_5": 0.19130954767131894,
        "model_3_multimer_v3_5": 0.14661883361636519,
        "model_4_multimer_v3_5": 0.18656721769145207,
        "model_5_multimer_v3_5": 0.13720982845922902
    },
    "order": [
        "model_1_multimer_v3_1",
        "model_1_multimer_v3_5",
        "model_1_multimer_v3_4",
        "model_1_multimer_v3_3",
        "model_1_multimer_v3_2",
        "model_2_multimer_v3_4",
        "model_2_multimer_v3_3",
        "model_4_multimer_v3_2",
        "model_2_multimer_v3_2",
        "model_2_multimer_v3_5",
        "model_4_multimer_v3_3",
        "model_2_multimer_v3_1",
        "model_4_multimer_v3_1",
        "model_4_multimer_v3_4",
        "model_4_multimer_v3_5",
        "model_3_multimer_v3_5",
        "model_3_multimer_v3_2",
        "model_3_multimer_v3_1",
        "model_3_multimer_v3_3",
        "model_3_multimer_v3_4",
        "model_5_multimer_v3_1",
        "model_5_multimer_v3_4",
        "model_5_multimer_v3_3",
        "model_5_multimer_v3_5",
        "model_5_multimer_v3_2"
    ]
}