{
    "features": 43.13493824005127,
    "process_features_model_1_multimer_v3_1": 6.67572021484375e-06,
    "predict_and_compile_model_1_multimer_v3_1": 533.7998337745667,
    "process_features_model_2_multimer_v3_1": 8.58306884765625e-06,
    "predict_and_compile_model_2_multimer_v3_1": 530.7990536689758,
    "process_features_model_3_multimer_v3_1": 7.62939453125e-06,
    "predict_and_compile_model_3_multimer_v3_1": 532.9912536144257,
    "process_features_model_4_multimer_v3_1": 5.7220458984375e-06,
    "predict_and_compile_model_4_multimer_v3_1": 524.899484872818,
    "process_features_model_5_multimer_v3_1": 6.4373016357421875e-06,
    "predict_and_compile_model_5_multimer_v3_1": 524.8971107006073,
    "process_features_model_1_multimer_v3_2": 1.430511474609375e-05,
    "predict_and_compile_model_1_multimer_v3_2": 186.17330193519592,
    "process_features_model_2_multimer_v3_2": 1.1444091796875e-05,
    "predict_and_compile_model_2_multimer_v3_2": 433.4835751056671,
    "process_features_model_3_multimer_v3_2": 9.5367431640625e-06,
    "predict_and_compile_model_3_multimer_v3_2": 165.98968768119812,
    "process_features_model_4_multimer_v3_2": 5.7220458984375e-06,
    "predict_and_compile_model_4_multimer_v3_2": 422.44083189964294,
    "process_features_model_5_multimer_v3_2": 4.291534423828125e-06,
    "predict_and_compile_model_5_multimer_v3_2": 422.5149121284485,
    "process_features_model_1_multimer_v3_3": 5.7220458984375e-06,
    "predict_and_compile_model_1_multimer_v3_3": 433.26251220703125,
    "process_features_model_2_multimer_v3_3": 1.6450881958007812e-05,
    "predict_and_compile_model_2_multimer_v3_3": 433.4960124492645,
    "process_features_model_3_multimer_v3_3": 1.0013580322265625e-05,
    "predict_and_compile_model_3_multimer_v3_3": 289.3702850341797,
    "process_features_model_4_multimer_v3_3": 8.106231689453125e-06,
    "predict_and_compile_model_4_multimer_v3_3": 422.2722725868225,
    "process_features_model_5_multimer_v3_3": 1.0013580322265625e-05,
    "predict_and_compile_model_5_multimer_v3_3": 422.2630307674408,
    "process_features_model_1_multimer_v3_4": 5.4836273193359375e-06,
    "predict_and_compile_model_1_multimer_v3_4": 206.98356747627258,
    "process_features_model_2_multimer_v3_4": 1.1920928955078125e-05,
    "predict_and_compile_model_2_multimer_v3_4": 432.9204623699188,
    "process_features_model_3_multimer_v3_4": 7.62939453125e-06,
    "predict_and_compile_model_3_multimer_v3_4": 392.59990668296814,
    "process_features_model_4_multimer_v3_4": 5.4836273193359375e-06,
    "predict_and_compile_model_4_multimer_v3_4": 421.7352752685547,
    "process_features_model_5_multimer_v3_4": 3.0994415283203125e-06,
    "predict_and_compile_model_5_multimer_v3_4": 421.9409396648407,
    "process_features_model_1_multimer_v3_5": 4.291534423828125e-06,
    "predict_and_compile_model_1_multimer_v3_5": 145.16253447532654,
    "process_features_model_2_multimer_v3_5": 1.049041748046875e-05,
    "predict_and_compile_model_2_multimer_v3_5": 433.35239124298096,
    "process_features_model_3_multimer_v3_5": 1.0013580322265625e-05,
    "predict_and_compile_model_3_multimer_v3_5": 433.24765372276306,
    "process_features_model_4_multimer_v3_5": 5.0067901611328125e-06,
    "predict_and_compile_model_4_multimer_v3_5": 121.52613401412964,
    "process_features_model_5_multimer_v3_5": 2.86102294921875e-06,
    "predict_and_compile_model_5_multimer_v3_5": 422.1851222515106
}