multimernew/s_hFIMPe_s_hSOF1f/unrelaxed_model_1_multimer_v3_1.pdb,B,0.01030945501562019,18.376373979877012,0.2284716213842347,34.47461538461538,0.07876471273520959
multimernew/s_hFIMPe_s_hSOF1f/unrelaxed_model_1_multimer_v3_1.pdb,C,0.01030945501562019,18.376373979877012,0.2284716213842347,34.47461538461539,0.07876471273520962
multimernew/s_hFIMPe_s_hSOF1f/unrelaxed_model_1_multimer_v3_2.pdb,B,0.009990422624154796,19.273305454436272,0.21210693526895816,33.942727272727275,0.07199487856488265
multimernew/s_hFIMPe_s_hSOF1f/unrelaxed_model_1_multimer_v3_2.pdb,C,0.009990422624154796,19.273305454436272,0.21210693526895816,33.942727272727275,0.07199487856488265
multimernew/s_hFIMPe_s_hSOF1f/unrelaxed_model_1_multimer_v3_3.pdb,B,0.010428017122016197,18.179856055138988,0.2322841705192293,34.96076923076923,0.08120833281483426
multimernew/s_hFIMPe_s_hSOF1f/unrelaxed_model_1_multimer_v3_3.pdb,C,0.010428017122016197,18.179856055138988,0.2322841705192293,34.96076923076923,0.08120833281483426
multimernew/s_hFIMPe_s_hSOF1f/unrelaxed_model_1_multimer_v3_4.pdb,B,0.009888302430605685,19.535346391332762,0.20762836641279012,33.600909090909084,0.06976501864530121
multimernew/s_hFIMPe_s_hSOF1f/unrelaxed_model_1_multimer_v3_4.pdb,C,0.009888302430605685,19.535346391332762,0.20762836641279012,33.600909090909084,0.06976501864530121
multimernew/s_hFIMPe_s_hSOF1f/unrelaxed_model_1_multimer_v3_5.pdb,B,0.010316371520671937,18.47301149276913,0.22662778908029094,34.818461538461534,0.07890830957638684
multimernew/s_hFIMPe_s_hSOF1f/unrelaxed_model_1_multimer_v3_5.pdb,C,0.010316371520671937,18.47301149276913,0.22662778908029094,34.81846153846154,0.07890830957638684
multimernew/s_hFIMPe_s_hSOF1f/unrelaxed_model_2_multimer_v3_1.pdb,B,0.00732534068972502,0.0,1,0,0.0
multimernew/s_hFIMPe_s_hSOF1f/unrelaxed_model_2_multimer_v3_1.pdb,C,0.00732534068972502,0.0,1,0,0.0
multimernew/s_hFIMPe_s_hSOF1f/unrelaxed_model_2_multimer_v3_2.pdb,B,0.010344254610569767,18.243825676782542,0.2310337598080694,34.40444444444445,0.07948588154107847
multimernew/s_hFIMPe_s_hSOF1f/unrelaxed_model_2_multimer_v3_2.pdb,C,0.010344254610569767,18.243825676782542,0.2310337598080694,34.40444444444445,0.07948588154107847
multimernew/s_hFIMPe_s_hSOF1f/unrelaxed_model_2_multimer_v3_3.pdb,B,0.01106530062695478,16.62992009490133,0.2655659895703733,35.294999999999995,0.09373151601886325
multimernew/s_hFIMPe_s_hSOF1f/unrelaxed_model_2_multimer_v3_3.pdb,C,0.011065300626954787,16.62992009490133,0.2655659895703733,35.295,0.09373151601886326
multimernew/s_hFIMPe_s_hSOF1f/unrelaxed_model_2_multimer_v3_4.pdb,B,0.010616512451063154,17.64452733448499,0.2431141887887211,34.97,0.08501703181941578
multimernew/s_hFIMPe_s_hSOF1f/unrelaxed_model_2_multimer_v3_4.pdb,C,0.010616512451063154,17.64452733448499,0.2431141887887211,34.97,0.08501703181941578
multimernew/s_hFIMPe_s_hSOF1f/unrelaxed_model_2_multimer_v3_5.pdb,B,0.010429532877110424,18.72844312823299,0.22185021293548507,36.61900000000001,0.0812393294748453
multimernew/s_hFIMPe_s_hSOF1f/unrelaxed_model_2_multimer_v3_5.pdb,C,0.010429532877110424,18.72844312823299,0.22185021293548507,36.61899999999999,0.08123932947484526
multimernew/s_hFIMPe_s_hSOF1f/unrelaxed_model_3_multimer_v3_1.pdb,B,0.010516001778905508,18.33369663247269,0.2292923592767107,36.197272727272725,0.08299758063018899
multimernew/s_hFIMPe_s_hSOF1f/unrelaxed_model_3_multimer_v3_1.pdb,C,0.010516001778905508,18.33369663247269,0.2292923592767107,36.197272727272725,0.08299758063018899
multimernew/s_hFIMPe_s_hSOF1f/unrelaxed_model_3_multimer_v3_2.pdb,B,0.011932243599840383,15.599350433359389,0.29125670615412813,37.532105263157895,0.10931477353977385
multimernew/s_hFIMPe_s_hSOF1f/unrelaxed_model_3_multimer_v3_2.pdb,C,0.011932243599840383,15.599350433359389,0.29125670615412813,37.532105263157895,0.10931477353977385
multimernew/s_hFIMPe_s_hSOF1f/unrelaxed_model_3_multimer_v3_3.pdb,B,0.01059515225408756,18.09016414920647,0.23405279034194895,36.14142857142857,0.08459002204087093
multimernew/s_hFIMPe_s_hSOF1f/unrelaxed_model_3_multimer_v3_3.pdb,C,0.01059515225408756,18.09016414920647,0.23405279034194895,36.14142857142858,0.08459002204087096
multimernew/s_hFIMPe_s_hSOF1f/unrelaxed_model_3_multimer_v3_4.pdb,B,0.01114706254408746,17.200875460540246,0.25260810504361925,37.714,0.09526862073615057
multimernew/s_hFIMPe_s_hSOF1f/unrelaxed_model_3_multimer_v3_4.pdb,C,0.01114706254408746,17.200875460540246,0.25260810504361925,37.714,0.09526862073615057
multimernew/s_hFIMPe_s_hSOF1f/unrelaxed_model_3_multimer_v3_5.pdb,B,0.009272561982734066,22.596397267003933,0.1637740969064109,33.95357142857142,0.055607154974616
multimernew/s_hFIMPe_s_hSOF1f/unrelaxed_model_3_multimer_v3_5.pdb,C,0.009272561982734066,22.596397267003933,0.1637740969064109,33.95357142857143,0.05560715497461602
multimernew/s_hFIMPe_s_hSOF1f/unrelaxed_model_4_multimer_v3_1.pdb,B,0.011798418263751902,16.921594889268274,0.258839113989259,41.341249999999995,0.10700732521208453
multimernew/s_hFIMPe_s_hSOF1f/unrelaxed_model_4_multimer_v3_1.pdb,C,0.011798418263751902,16.921594889268274,0.258839113989259,41.341249999999995,0.10700732521208453
multimernew/s_hFIMPe_s_hSOF1f/unrelaxed_model_4_multimer_v3_2.pdb,B,0.010787369143646867,19.292669379923936,0.21177149122891067,41.73916666666667,0.08839165567652042
multimernew/s_hFIMPe_s_hSOF1f/unrelaxed_model_4_multimer_v3_2.pdb,C,0.010787369143646867,19.292669379923936,0.21177149122891067,41.73916666666666,0.08839165567652041
multimernew/s_hFIMPe_s_hSOF1f/unrelaxed_model_4_multimer_v3_3.pdb,B,0.011140622497168205,18.057482067999235,0.23470175326458745,40.540000000000006,0.09514809077346376
multimernew/s_hFIMPe_s_hSOF1f/unrelaxed_model_4_multimer_v3_3.pdb,C,0.011140622497168205,18.057482067999235,0.23470175326458745,40.540000000000006,0.09514809077346376
multimernew/s_hFIMPe_s_hSOF1f/unrelaxed_model_4_multimer_v3_4.pdb,B,0.01258845949629683,15.61153903725435,0.29093435364951253,41.303529411764714,0.12016615632855399
multimernew/s_hFIMPe_s_hSOF1f/unrelaxed_model_4_multimer_v3_4.pdb,C,0.01258845949629683,15.61153903725435,0.29093435364951253,41.30352941176471,0.12016615632855396
multimernew/s_hFIMPe_s_hSOF1f/unrelaxed_model_4_multimer_v3_5.pdb,B,0.011983616784017213,16.870838462085175,0.2599933714492852,42.3825,0.11019169065449329
multimernew/s_hFIMPe_s_hSOF1f/unrelaxed_model_4_multimer_v3_5.pdb,C,0.011983616784017213,16.870838462085175,0.2599933714492852,42.3825,0.11019169065449329
multimernew/s_hFIMPe_s_hSOF1f/unrelaxed_model_5_multimer_v3_1.pdb,B,0.012956138282129015,14.944541737977639,0.3092726167687087,40.72,0.12593580954821817
multimernew/s_hFIMPe_s_hSOF1f/unrelaxed_model_5_multimer_v3_1.pdb,C,0.012956138282129015,14.944541737977639,0.3092726167687087,40.72,0.12593580954821817
multimernew/s_hFIMPe_s_hSOF1f/unrelaxed_model_5_multimer_v3_2.pdb,B,0.013052614687256906,14.70877335744601,0.31610756406053764,40.30764705882353,0.127415521247766
multimernew/s_hFIMPe_s_hSOF1f/unrelaxed_model_5_multimer_v3_2.pdb,C,0.013052614687256906,14.70877335744601,0.31610756406053764,40.307647058823534,0.127415521247766
multimernew/s_hFIMPe_s_hSOF1f/unrelaxed_model_5_multimer_v3_3.pdb,B,0.011292729499326417,16.536298918666557,0.26777405023052253,36.587037037037035,0.09797059093341544
multimernew/s_hFIMPe_s_hSOF1f/unrelaxed_model_5_multimer_v3_3.pdb,C,0.011292729499326417,16.536298918666557,0.26777405023052253,36.587037037037035,0.09797059093341544
multimernew/s_hFIMPe_s_hSOF1f/unrelaxed_model_5_multimer_v3_4.pdb,B,0.013367771157483086,14.317969875745433,0.3278642716439494,40.307857142857145,0.1321550622367122
multimernew/s_hFIMPe_s_hSOF1f/unrelaxed_model_5_multimer_v3_4.pdb,C,0.013367771157483086,14.317969875745433,0.3278642716439494,40.30785714285714,0.13215506223671217
multimernew/s_hFIMPe_s_hSOF1f/unrelaxed_model_5_multimer_v3_5.pdb,B,0.012886136607237555,14.863477843550479,0.3116012508436351,40.068333333333335,0.12485342785886386
multimernew/s_hFIMPe_s_hSOF1f/unrelaxed_model_5_multimer_v3_5.pdb,C,0.012886136607237555,14.863477843550479,0.3116012508436351,40.06833333333332,0.12485342785886383
