multimernew/e_hCD9f_s_hTMEM81e/unrelaxed_model_1_multimer_v3_1.pdb,B,0.011609900271070256,23.75087471042504,0.15057881377735502,68.86666666666665,0.1036986097546718
multimernew/e_hCD9f_s_hTMEM81e/unrelaxed_model_1_multimer_v3_1.pdb,C,0.011609900271070256,23.75087471042504,0.15057881377735502,68.86666666666665,0.1036986097546718
multimernew/e_hCD9f_s_hTMEM81e/unrelaxed_model_1_multimer_v3_2.pdb,B,0.011548774821331185,23.92941012291697,0.14867309216977087,69.01769230769231,0.10261073729806425
multimernew/e_hCD9f_s_hTMEM81e/unrelaxed_model_1_multimer_v3_2.pdb,C,0.011548774821331185,23.92941012291697,0.14867309216977087,69.01769230769231,0.10261073729806425
multimernew/e_hCD9f_s_hTMEM81e/unrelaxed_model_1_multimer_v3_3.pdb,B,0.011410880700504479,24.075205647045564,0.14714201785404452,68.04903225806453,0.10012871919466582
multimernew/e_hCD9f_s_hTMEM81e/unrelaxed_model_1_multimer_v3_3.pdb,C,0.011410880700504479,24.075205647045564,0.14714201785404452,68.04903225806451,0.1001287191946658
multimernew/e_hCD9f_s_hTMEM81e/unrelaxed_model_1_multimer_v3_4.pdb,B,0.011696103213372189,23.47072223593693,0.15363937834164007,68.48516129032258,0.10522017606272113
multimernew/e_hCD9f_s_hTMEM81e/unrelaxed_model_1_multimer_v3_4.pdb,C,0.011696103213372189,23.47072223593693,0.15363937834164007,68.48516129032258,0.10522017606272113
multimernew/e_hCD9f_s_hTMEM81e/unrelaxed_model_1_multimer_v3_5.pdb,B,0.011702511221198985,23.592817380864798,0.15229484760861375,69.16366666666667,0.1053327007505296
multimernew/e_hCD9f_s_hTMEM81e/unrelaxed_model_1_multimer_v3_5.pdb,C,0.011702511221198985,23.592817380864798,0.15229484760861375,69.16366666666666,0.10533270075052957
multimernew/e_hCD9f_s_hTMEM81e/unrelaxed_model_2_multimer_v3_1.pdb,B,0.011035134269731024,25.02990931106039,0.13764693877268028,67.68083333333333,0.09316059521917311
multimernew/e_hCD9f_s_hTMEM81e/unrelaxed_model_2_multimer_v3_1.pdb,C,0.011035134269731024,25.02990931106039,0.13764693877268028,67.68083333333333,0.09316059521917311
multimernew/e_hCD9f_s_hTMEM81e/unrelaxed_model_2_multimer_v3_2.pdb,B,0.011111201475527022,24.91273841404733,0.13876466843699758,68.17029411764706,0.09459628260487901
multimernew/e_hCD9f_s_hTMEM81e/unrelaxed_model_2_multimer_v3_2.pdb,C,0.011111201475527022,24.91273841404733,0.13876466843699758,68.17029411764706,0.09459628260487901
multimernew/e_hCD9f_s_hTMEM81e/unrelaxed_model_2_multimer_v3_3.pdb,B,0.010938859768889664,24.42580122871841,0.14355033395378738,63.61851851851852,0.09132459578978541
multimernew/e_hCD9f_s_hTMEM81e/unrelaxed_model_2_multimer_v3_3.pdb,C,0.010938859768889664,24.42580122871841,0.14355033395378738,63.61851851851852,0.09132459578978541
multimernew/e_hCD9f_s_hTMEM81e/unrelaxed_model_2_multimer_v3_4.pdb,B,0.011172112595106603,24.77585456466761,0.14008683181780546,68.34088235294118,0.095736576924569
multimernew/e_hCD9f_s_hTMEM81e/unrelaxed_model_2_multimer_v3_4.pdb,C,0.011172112595106603,24.77585456466761,0.14008683181780546,68.34088235294118,0.095736576924569
multimernew/e_hCD9f_s_hTMEM81e/unrelaxed_model_2_multimer_v3_5.pdb,B,0.011001914144755112,25.26633538677958,0.135430207565627,68.32263157894738,0.09252948176166705
multimernew/e_hCD9f_s_hTMEM81e/unrelaxed_model_2_multimer_v3_5.pdb,C,0.011001914144755105,25.26633538677958,0.135430207565627,68.32263157894737,0.09252948176166703
multimernew/e_hCD9f_s_hTMEM81e/unrelaxed_model_3_multimer_v3_1.pdb,B,0.010861518583247028,24.680570598769215,0.14101775459164045,63.704062500000006,0.08983403852115526
multimernew/e_hCD9f_s_hTMEM81e/unrelaxed_model_3_multimer_v3_1.pdb,C,0.010861518583247028,24.680570598769215,0.14101775459164045,63.704062500000006,0.08983403852115526
multimernew/e_hCD9f_s_hTMEM81e/unrelaxed_model_3_multimer_v3_2.pdb,B,0.010877485808971993,24.356298916104546,0.14425241467510586,62.48971428571429,0.09014292178071745
multimernew/e_hCD9f_s_hTMEM81e/unrelaxed_model_3_multimer_v3_2.pdb,C,0.010877485808971993,24.356298916104546,0.14425241467510586,62.48971428571429,0.09014292178071745
multimernew/e_hCD9f_s_hTMEM81e/unrelaxed_model_3_multimer_v3_3.pdb,B,0.010783890194840384,24.468829129507494,0.14311810871645073,61.71382352941176,0.08832365705190208
multimernew/e_hCD9f_s_hTMEM81e/unrelaxed_model_3_multimer_v3_3.pdb,C,0.010783890194840384,24.468829129507494,0.14311810871645073,61.71382352941176,0.08832365705190208
multimernew/e_hCD9f_s_hTMEM81e/unrelaxed_model_3_multimer_v3_4.pdb,B,0.010685854512953952,24.802162301738335,0.1398313414796306,61.785384615384615,0.08639533214604161
multimernew/e_hCD9f_s_hTMEM81e/unrelaxed_model_3_multimer_v3_4.pdb,C,0.010685854512953952,24.802162301738335,0.1398313414796306,61.78538461538463,0.08639533214604164
multimernew/e_hCD9f_s_hTMEM81e/unrelaxed_model_3_multimer_v3_5.pdb,B,0.010926520493976155,24.42738400774548,0.14353440184060717,63.46055555555555,0.09108772882139286
multimernew/e_hCD9f_s_hTMEM81e/unrelaxed_model_3_multimer_v3_5.pdb,C,0.010926520493976155,24.42738400774548,0.14353440184060717,63.46055555555555,0.09108772882139286
multimernew/e_hCD9f_s_hTMEM81e/unrelaxed_model_4_multimer_v3_1.pdb,B,0.010517975166217695,25.258691877887486,0.1355010767806223,61.28178571428572,0.08303747951325072
multimernew/e_hCD9f_s_hTMEM81e/unrelaxed_model_4_multimer_v3_1.pdb,C,0.010517975166217695,25.258691877887486,0.1355010767806223,61.28178571428572,0.08303747951325072
multimernew/e_hCD9f_s_hTMEM81e/unrelaxed_model_4_multimer_v3_2.pdb,B,0.01061842096043604,25.27530555663485,0.1353471049831999,62.842222222222226,0.0850551284848869
multimernew/e_hCD9f_s_hTMEM81e/unrelaxed_model_4_multimer_v3_2.pdb,C,0.01061842096043604,25.27530555663485,0.1353471049831999,62.84222222222223,0.0850551284848869
multimernew/e_hCD9f_s_hTMEM81e/unrelaxed_model_4_multimer_v3_3.pdb,B,0.010518613860608247,24.9296018919329,0.13860301046022766,59.919615384615376,0.08305039077926663
multimernew/e_hCD9f_s_hTMEM81e/unrelaxed_model_4_multimer_v3_3.pdb,C,0.010518613860608247,24.9296018919329,0.13860301046022766,59.919615384615376,0.08305039077926663
multimernew/e_hCD9f_s_hTMEM81e/unrelaxed_model_4_multimer_v3_4.pdb,B,0.010511980781546349,25.172221841526014,0.13630649560775973,60.830740740740744,0.08291625095594549
multimernew/e_hCD9f_s_hTMEM81e/unrelaxed_model_4_multimer_v3_4.pdb,C,0.010511980781546349,25.172221841526014,0.13630649560775973,60.830740740740744,0.08291625095594549
multimernew/e_hCD9f_s_hTMEM81e/unrelaxed_model_4_multimer_v3_5.pdb,B,0.010576247806789665,25.041254458508377,0.13753939345861668,61.22692307692308,0.0842111386333738
multimernew/e_hCD9f_s_hTMEM81e/unrelaxed_model_4_multimer_v3_5.pdb,C,0.010576247806789665,25.041254458508377,0.13753939345861668,61.22692307692308,0.0842111386333738
multimernew/e_hCD9f_s_hTMEM81e/unrelaxed_model_5_multimer_v3_1.pdb,B,0.010320795583059095,26.709930733977004,0.12293765932460625,64.26028571428571,0.07900009113244719
multimernew/e_hCD9f_s_hTMEM81e/unrelaxed_model_5_multimer_v3_1.pdb,C,0.010320795583059095,26.709930733977004,0.12293765932460625,64.26028571428571,0.07900009113244719
multimernew/e_hCD9f_s_hTMEM81e/unrelaxed_model_5_multimer_v3_2.pdb,B,0.010464822263239769,26.39104999474271,0.1255512453251877,65.27953488372093,0.08195926898900194
multimernew/e_hCD9f_s_hTMEM81e/unrelaxed_model_5_multimer_v3_2.pdb,C,0.010464822263239769,26.39104999474271,0.1255512453251877,65.27953488372094,0.08195926898900195
multimernew/e_hCD9f_s_hTMEM81e/unrelaxed_model_5_multimer_v3_3.pdb,B,0.010460741338055338,26.199628635468276,0.12715842838879832,64.3891111111111,0.08187618174240599
multimernew/e_hCD9f_s_hTMEM81e/unrelaxed_model_5_multimer_v3_3.pdb,C,0.010460741338055338,26.199628635468276,0.12715842838879832,64.38911111111109,0.08187618174240598
multimernew/e_hCD9f_s_hTMEM81e/unrelaxed_model_5_multimer_v3_4.pdb,B,0.010446253043221197,26.434081371111976,0.12519394765708597,65.16357142857143,0.08158084750577353
multimernew/e_hCD9f_s_hTMEM81e/unrelaxed_model_5_multimer_v3_4.pdb,C,0.010446253043221197,26.434081371111976,0.12519394765708597,65.16357142857143,0.08158084750577353
multimernew/e_hCD9f_s_hTMEM81e/unrelaxed_model_5_multimer_v3_5.pdb,B,0.010552478607411889,26.412210599923178,0.12537536305868238,66.7862162162162,0.08373346105423768
multimernew/e_hCD9f_s_hTMEM81e/unrelaxed_model_5_multimer_v3_5.pdb,C,0.010552478607411896,26.412210599923178,0.12537536305868238,66.78621621621622,0.08373346105423769
