{
    "features": 88.6423110961914,
    "process_features_model_1_multimer_v3_1": 5.0067901611328125e-06,
    "predict_and_compile_model_1_multimer_v3_1": 186.24112224578857,
    "process_features_model_2_multimer_v3_1": 7.867813110351562e-06,
    "predict_and_compile_model_2_multimer_v3_1": 186.96147346496582,
    "process_features_model_3_multimer_v3_1": 8.106231689453125e-06,
    "predict_and_compile_model_3_multimer_v3_1": 190.59394931793213,
    "process_features_model_4_multimer_v3_1": 7.3909759521484375e-06,
    "predict_and_compile_model_4_multimer_v3_1": 188.61252093315125,
    "process_features_model_5_multimer_v3_1": 3.5762786865234375e-06,
    "predict_and_compile_model_5_multimer_v3_1": 171.28677535057068,
    "process_features_model_1_multimer_v3_2": 6.9141387939453125e-06,
    "predict_and_compile_model_1_multimer_v3_2": 88.7287290096283,
    "process_features_model_2_multimer_v3_2": 5.7220458984375e-06,
    "predict_and_compile_model_2_multimer_v3_2": 88.79560160636902,
    "process_features_model_3_multimer_v3_2": 7.152557373046875e-06,
    "predict_and_compile_model_3_multimer_v3_2": 76.09860444068909,
    "process_features_model_4_multimer_v3_2": 9.059906005859375e-06,
    "predict_and_compile_model_4_multimer_v3_2": 86.40440082550049,
    "process_features_model_5_multimer_v3_2": 3.0994415283203125e-06,
    "predict_and_compile_model_5_multimer_v3_2": 33.095643043518066,
    "process_features_model_1_multimer_v3_3": 6.198883056640625e-06,
    "predict_and_compile_model_1_multimer_v3_3": 88.5742769241333,
    "process_features_model_2_multimer_v3_3": 6.67572021484375e-06,
    "predict_and_compile_model_2_multimer_v3_3": 88.61307859420776,
    "process_features_model_3_multimer_v3_3": 6.9141387939453125e-06,
    "predict_and_compile_model_3_multimer_v3_3": 88.55448150634766,
    "process_features_model_4_multimer_v3_3": 7.152557373046875e-06,
    "predict_and_compile_model_4_multimer_v3_3": 86.52600502967834,
    "process_features_model_5_multimer_v3_3": 2.86102294921875e-06,
    "predict_and_compile_model_5_multimer_v3_3": 57.723628759384155,
    "process_features_model_1_multimer_v3_4": 5.7220458984375e-06,
    "predict_and_compile_model_1_multimer_v3_4": 88.57592439651489,
    "process_features_model_2_multimer_v3_4": 7.152557373046875e-06,
    "predict_and_compile_model_2_multimer_v3_4": 29.684558629989624,
    "process_features_model_3_multimer_v3_4": 8.344650268554688e-06,
    "predict_and_compile_model_3_multimer_v3_4": 88.6575620174408,
    "process_features_model_4_multimer_v3_4": 7.152557373046875e-06,
    "predict_and_compile_model_4_multimer_v3_4": 86.38288998603821,
    "process_features_model_5_multimer_v3_4": 1.52587890625e-05,
    "predict_and_compile_model_5_multimer_v3_4": 66.0594527721405,
    "process_features_model_1_multimer_v3_5": 5.7220458984375e-06,
    "predict_and_compile_model_1_multimer_v3_5": 33.89380645751953,
    "process_features_model_2_multimer_v3_5": 6.9141387939453125e-06,
    "predict_and_compile_model_2_multimer_v3_5": 76.05919480323792,
    "process_features_model_3_multimer_v3_5": 6.9141387939453125e-06,
    "predict_and_compile_model_3_multimer_v3_5": 88.70919442176819,
    "process_features_model_4_multimer_v3_5": 7.3909759521484375e-06,
    "predict_and_compile_model_4_multimer_v3_5": 86.65726232528687,
    "process_features_model_5_multimer_v3_5": 4.291534423828125e-06,
    "predict_and_compile_model_5_multimer_v3_5": 78.2146418094635
}