{
    "features": 215.1989860534668,
    "process_features_model_1_multimer_v3_1": 5.7220458984375e-06,
    "predict_and_compile_model_1_multimer_v3_1": 749.0644459724426,
    "process_features_model_2_multimer_v3_1": 1.7881393432617188e-05,
    "predict_and_compile_model_2_multimer_v3_1": 740.7381908893585,
    "process_features_model_3_multimer_v3_1": 9.298324584960938e-06,
    "predict_and_compile_model_3_multimer_v3_1": 741.5625476837158,
    "process_features_model_4_multimer_v3_1": 8.58306884765625e-06,
    "predict_and_compile_model_4_multimer_v3_1": 730.7787916660309,
    "process_features_model_5_multimer_v3_1": 8.106231689453125e-06,
    "predict_and_compile_model_5_multimer_v3_1": 731.9431457519531,
    "process_features_model_1_multimer_v3_2": 6.9141387939453125e-06,
    "predict_and_compile_model_1_multimer_v3_2": 647.5975930690765,
    "process_features_model_2_multimer_v3_2": 1.2636184692382812e-05,
    "predict_and_compile_model_2_multimer_v3_2": 648.0251669883728,
    "process_features_model_3_multimer_v3_2": 7.62939453125e-06,
    "predict_and_compile_model_3_multimer_v3_2": 647.538970708847,
    "process_features_model_4_multimer_v3_2": 8.58306884765625e-06,
    "predict_and_compile_model_4_multimer_v3_2": 633.9787039756775,
    "process_features_model_5_multimer_v3_2": 1.0251998901367188e-05,
    "predict_and_compile_model_5_multimer_v3_2": 632.9300899505615,
    "process_features_model_1_multimer_v3_3": 8.344650268554688e-06,
    "predict_and_compile_model_1_multimer_v3_3": 647.2633850574493,
    "process_features_model_2_multimer_v3_3": 1.0728836059570312e-05,
    "predict_and_compile_model_2_multimer_v3_3": 647.5280637741089,
    "process_features_model_3_multimer_v3_3": 1.1444091796875e-05,
    "predict_and_compile_model_3_multimer_v3_3": 647.2712869644165,
    "process_features_model_4_multimer_v3_3": 8.821487426757812e-06,
    "predict_and_compile_model_4_multimer_v3_3": 633.2758963108063,
    "process_features_model_5_multimer_v3_3": 6.9141387939453125e-06,
    "predict_and_compile_model_5_multimer_v3_3": 634.0854053497314,
    "process_features_model_1_multimer_v3_4": 9.5367431640625e-06,
    "predict_and_compile_model_1_multimer_v3_4": 647.472651720047,
    "process_features_model_2_multimer_v3_4": 1.2159347534179688e-05,
    "predict_and_compile_model_2_multimer_v3_4": 647.7410042285919,
    "process_features_model_3_multimer_v3_4": 1.1920928955078125e-05,
    "predict_and_compile_model_3_multimer_v3_4": 646.863290309906,
    "process_features_model_4_multimer_v3_4": 7.867813110351562e-06,
    "predict_and_compile_model_4_multimer_v3_4": 633.4117712974548,
    "process_features_model_5_multimer_v3_4": 9.298324584960938e-06,
    "predict_and_compile_model_5_multimer_v3_4": 633.7438988685608,
    "process_features_model_1_multimer_v3_5": 8.106231689453125e-06,
    "predict_and_compile_model_1_multimer_v3_5": 647.0164058208466,
    "process_features_model_2_multimer_v3_5": 1.1920928955078125e-05,
    "predict_and_compile_model_2_multimer_v3_5": 646.9705712795258,
    "process_features_model_3_multimer_v3_5": 2.1457672119140625e-05,
    "predict_and_compile_model_3_multimer_v3_5": 647.7371654510498,
    "process_features_model_4_multimer_v3_5": 8.344650268554688e-06,
    "predict_and_compile_model_4_multimer_v3_5": 634.9030315876007,
    "process_features_model_5_multimer_v3_5": 7.867813110351562e-06,
    "predict_and_compile_model_5_multimer_v3_5": 634.3720517158508
}