{
    "features": 73.00166726112366,
    "process_features_model_1_multimer_v3_1": 5.7220458984375e-06,
    "predict_and_compile_model_1_multimer_v3_1": 167.00824093818665,
    "process_features_model_2_multimer_v3_1": 1.6689300537109375e-05,
    "predict_and_compile_model_2_multimer_v3_1": 159.1501762866974,
    "process_features_model_3_multimer_v3_1": 1.5974044799804688e-05,
    "predict_and_compile_model_3_multimer_v3_1": 171.5417833328247,
    "process_features_model_4_multimer_v3_1": 1.2636184692382812e-05,
    "predict_and_compile_model_4_multimer_v3_1": 168.67637991905212,
    "process_features_model_5_multimer_v3_1": 1.3113021850585938e-05,
    "predict_and_compile_model_5_multimer_v3_1": 169.5665864944458,
    "process_features_model_1_multimer_v3_2": 2.1457672119140625e-05,
    "predict_and_compile_model_1_multimer_v3_2": 66.89460682868958,
    "process_features_model_2_multimer_v3_2": 1.4781951904296875e-05,
    "predict_and_compile_model_2_multimer_v3_2": 66.95965433120728,
    "process_features_model_3_multimer_v3_2": 4.76837158203125e-06,
    "predict_and_compile_model_3_multimer_v3_2": 66.91897773742676,
    "process_features_model_4_multimer_v3_2": 3.0994415283203125e-06,
    "predict_and_compile_model_4_multimer_v3_2": 66.89571452140808,
    "process_features_model_5_multimer_v3_2": 3.337860107421875e-06,
    "predict_and_compile_model_5_multimer_v3_2": 66.94589114189148,
    "process_features_model_1_multimer_v3_3": 6.4373016357421875e-06,
    "predict_and_compile_model_1_multimer_v3_3": 66.93819618225098,
    "process_features_model_2_multimer_v3_3": 8.106231689453125e-06,
    "predict_and_compile_model_2_multimer_v3_3": 67.12229657173157,
    "process_features_model_3_multimer_v3_3": 1.430511474609375e-05,
    "predict_and_compile_model_3_multimer_v3_3": 67.01077032089233,
    "process_features_model_4_multimer_v3_3": 3.5762786865234375e-06,
    "predict_and_compile_model_4_multimer_v3_3": 66.88475513458252,
    "process_features_model_5_multimer_v3_3": 3.337860107421875e-06,
    "predict_and_compile_model_5_multimer_v3_3": 66.89575791358948,
    "process_features_model_1_multimer_v3_4": 6.9141387939453125e-06,
    "predict_and_compile_model_1_multimer_v3_4": 66.91659641265869,
    "process_features_model_2_multimer_v3_4": 8.821487426757812e-06,
    "predict_and_compile_model_2_multimer_v3_4": 66.94108724594116,
    "process_features_model_3_multimer_v3_4": 1.1682510375976562e-05,
    "predict_and_compile_model_3_multimer_v3_4": 67.10751533508301,
    "process_features_model_4_multimer_v3_4": 3.5762786865234375e-06,
    "predict_and_compile_model_4_multimer_v3_4": 67.02875995635986,
    "process_features_model_5_multimer_v3_4": 3.5762786865234375e-06,
    "predict_and_compile_model_5_multimer_v3_4": 66.90299820899963,
    "process_features_model_1_multimer_v3_5": 6.9141387939453125e-06,
    "predict_and_compile_model_1_multimer_v3_5": 66.90921068191528,
    "process_features_model_2_multimer_v3_5": 8.58306884765625e-06,
    "predict_and_compile_model_2_multimer_v3_5": 66.92664742469788,
    "process_features_model_3_multimer_v3_5": 8.344650268554688e-06,
    "predict_and_compile_model_3_multimer_v3_5": 66.97522902488708,
    "process_features_model_4_multimer_v3_5": 2.6226043701171875e-06,
    "predict_and_compile_model_4_multimer_v3_5": 67.13610982894897,
    "process_features_model_5_multimer_v3_5": 2.6226043701171875e-06,
    "predict_and_compile_model_5_multimer_v3_5": 67.02876353263855
}