multimernew/s_hIZUMO3e_s_hFIMPe/unrelaxed_model_1_multimer_v3_1.pdb,B,0.01600610083846273,15.539106051711633,0.2928567978647231,57.056666666666665,0.1670943269683488
multimernew/s_hIZUMO3e_s_hFIMPe/unrelaxed_model_1_multimer_v3_1.pdb,C,0.01600610083846273,15.539106051711633,0.2928567978647231,57.056666666666665,0.1670943269683488
multimernew/s_hIZUMO3e_s_hFIMPe/unrelaxed_model_1_multimer_v3_2.pdb,B,0.021428476295625113,13.388121713288724,0.35811257097662663,61.77181818181818,0.22121264622991638
multimernew/s_hIZUMO3e_s_hFIMPe/unrelaxed_model_1_multimer_v3_2.pdb,C,0.021428476295625127,13.388121713288724,0.35811257097662663,61.77181818181819,0.22121264622991643
multimernew/s_hIZUMO3e_s_hFIMPe/unrelaxed_model_1_multimer_v3_3.pdb,B,0.01791183039422729,15.719054178563542,0.28811082093596935,65.34694444444445,0.1882716180954607
multimernew/s_hIZUMO3e_s_hFIMPe/unrelaxed_model_1_multimer_v3_3.pdb,C,0.01791183039422729,15.719054178563542,0.28811082093596935,65.34694444444443,0.18827161809546067
multimernew/s_hIZUMO3e_s_hFIMPe/unrelaxed_model_1_multimer_v3_4.pdb,B,0.01843491429072513,14.709265650395237,0.31609309343750697,61.255135135135134,0.19362325153797386
multimernew/s_hIZUMO3e_s_hFIMPe/unrelaxed_model_1_multimer_v3_4.pdb,C,0.01843491429072513,14.709265650395237,0.31609309343750697,61.255135135135134,0.19362325153797386
multimernew/s_hIZUMO3e_s_hFIMPe/unrelaxed_model_1_multimer_v3_5.pdb,B,0.01708448116827495,14.571908819503069,0.3201633840939462,56.04069767441862,0.17942179414427603
multimernew/s_hIZUMO3e_s_hFIMPe/unrelaxed_model_1_multimer_v3_5.pdb,C,0.01708448116827495,14.571908819503069,0.3201633840939462,56.04069767441862,0.17942179414427603
multimernew/s_hIZUMO3e_s_hFIMPe/unrelaxed_model_2_multimer_v3_1.pdb,B,0.013710525883620038,17.641611255845802,0.24317502086434975,56.401162790697676,0.13715353938401495
multimernew/s_hIZUMO3e_s_hFIMPe/unrelaxed_model_2_multimer_v3_1.pdb,C,0.013710525883620038,17.641611255845802,0.24317502086434975,56.40116279069768,0.13715353938401495
multimernew/s_hIZUMO3e_s_hFIMPe/unrelaxed_model_2_multimer_v3_2.pdb,B,0.012657532283274734,20.782270739278566,0.18800428256615948,64.50184210526318,0.12126622549195702
multimernew/s_hIZUMO3e_s_hFIMPe/unrelaxed_model_2_multimer_v3_2.pdb,C,0.012657532283274734,20.782270739278566,0.18800428256615948,64.50184210526318,0.12126622549195702
multimernew/s_hIZUMO3e_s_hFIMPe/unrelaxed_model_2_multimer_v3_3.pdb,B,0.015343434510849891,17.098706109705187,0.2548642429682949,62.392258064516106,0.1590155561869539
multimernew/s_hIZUMO3e_s_hFIMPe/unrelaxed_model_2_multimer_v3_3.pdb,C,0.015343434510849904,17.098706109705187,0.2548642429682949,62.39225806451613,0.15901555618695395
multimernew/s_hIZUMO3e_s_hFIMPe/unrelaxed_model_2_multimer_v3_4.pdb,B,0.013111652558015824,18.444672913792548,0.2271663933187358,56.484693877551024,0.12831424185876145
multimernew/s_hIZUMO3e_s_hFIMPe/unrelaxed_model_2_multimer_v3_4.pdb,C,0.013111652558015824,18.444672913792548,0.2271663933187358,56.484693877551024,0.12831424185876145
multimernew/s_hIZUMO3e_s_hFIMPe/unrelaxed_model_2_multimer_v3_5.pdb,B,0.0206442489134292,13.136439352218302,0.3668835648794017,58.44714285714287,0.2144329612844424
multimernew/s_hIZUMO3e_s_hFIMPe/unrelaxed_model_2_multimer_v3_5.pdb,C,0.0206442489134292,13.136439352218302,0.3668835648794017,58.447142857142865,0.21443296128444234
multimernew/s_hIZUMO3e_s_hFIMPe/unrelaxed_model_3_multimer_v3_1.pdb,B,0.022339911993755693,12.780799449218367,0.3797244828010942,60.24030303030303,0.22874717911963008
multimernew/s_hIZUMO3e_s_hFIMPe/unrelaxed_model_3_multimer_v3_1.pdb,C,0.022339911993755693,12.780799449218367,0.3797244828010942,60.24030303030303,0.22874717911963008
multimernew/s_hIZUMO3e_s_hFIMPe/unrelaxed_model_3_multimer_v3_2.pdb,B,0.019270473166519503,14.247835597559607,0.33003211099906127,61.1503125,0.20181566722627284
multimernew/s_hIZUMO3e_s_hFIMPe/unrelaxed_model_3_multimer_v3_2.pdb,C,0.019270473166519503,14.247835597559607,0.33003211099906127,61.1503125,0.20181566722627284
multimernew/s_hIZUMO3e_s_hFIMPe/unrelaxed_model_3_multimer_v3_3.pdb,B,0.05267060493349171,8.17037836346064,0.5996818713982467,63.02142857142857,0.37792808223905217
multimernew/s_hIZUMO3e_s_hFIMPe/unrelaxed_model_3_multimer_v3_3.pdb,C,0.05267060493349169,8.17037836346064,0.5996818713982467,63.02142857142855,0.37792808223905205
multimernew/s_hIZUMO3e_s_hFIMPe/unrelaxed_model_3_multimer_v3_4.pdb,B,0.013396638634414974,19.05863466237591,0.21587475826887126,61.416250000000005,0.13258218122530566
multimernew/s_hIZUMO3e_s_hFIMPe/unrelaxed_model_3_multimer_v3_4.pdb,C,0.013396638634414974,19.05863466237591,0.21587475826887126,61.41625,0.13258218122530566
multimernew/s_hIZUMO3e_s_hFIMPe/unrelaxed_model_3_multimer_v3_5.pdb,B,0.017616965460697114,14.958378907333142,0.3088773517335283,59.95055555555555,0.18517368834953765
multimernew/s_hIZUMO3e_s_hFIMPe/unrelaxed_model_3_multimer_v3_5.pdb,C,0.017616965460697114,14.958378907333142,0.3088773517335283,59.95055555555556,0.18517368834953765
multimernew/s_hIZUMO3e_s_hFIMPe/unrelaxed_model_4_multimer_v3_1.pdb,B,0.3874201159680002,3.283522379859728,0.902677637073001,81.3953846153846,0.7347379345326347
multimernew/s_hIZUMO3e_s_hFIMPe/unrelaxed_model_4_multimer_v3_1.pdb,C,0.38742011596800063,3.283522379859728,0.902677637073001,81.39538461538463,0.7347379345326349
multimernew/s_hIZUMO3e_s_hFIMPe/unrelaxed_model_4_multimer_v3_2.pdb,B,0.38074633575703354,3.6220574086156794,0.8840224445675217,82.70769230769231,0.7311545633838457
multimernew/s_hIZUMO3e_s_hFIMPe/unrelaxed_model_4_multimer_v3_2.pdb,C,0.38074633575703354,3.6220574086156794,0.8840224445675217,82.70769230769231,0.7311545633838457
multimernew/s_hIZUMO3e_s_hFIMPe/unrelaxed_model_4_multimer_v3_3.pdb,B,0.2680138773926027,4.6036320081141096,0.825127252572499,80.24642857142858,0.6621351513589815
multimernew/s_hIZUMO3e_s_hFIMPe/unrelaxed_model_4_multimer_v3_3.pdb,C,0.2680138773926027,4.6036320081141096,0.825127252572499,80.24642857142858,0.6621351513589815
multimernew/s_hIZUMO3e_s_hFIMPe/unrelaxed_model_4_multimer_v3_4.pdb,B,0.37891063986953155,3.3834870067083154,0.8972795749160913,81.37500000000001,0.7301612540879695
multimernew/s_hIZUMO3e_s_hFIMPe/unrelaxed_model_4_multimer_v3_4.pdb,C,0.37891063986953133,3.3834870067083154,0.8972795749160913,81.375,0.7301612540879694
multimernew/s_hIZUMO3e_s_hFIMPe/unrelaxed_model_4_multimer_v3_5.pdb,B,0.0855583729143531,7.434817993538359,0.6440123780692824,71.47999999999999,0.46034004784392296
multimernew/s_hIZUMO3e_s_hFIMPe/unrelaxed_model_4_multimer_v3_5.pdb,C,0.08555837291435313,7.434817993538359,0.6440123780692824,71.48,0.460340047843923
multimernew/s_hIZUMO3e_s_hFIMPe/unrelaxed_model_5_multimer_v3_1.pdb,B,0.022731522200828663,12.890836762391544,0.37569455718638334,61.72,0.2318786806954358
multimernew/s_hIZUMO3e_s_hFIMPe/unrelaxed_model_5_multimer_v3_1.pdb,C,0.022731522200828663,12.890836762391544,0.37569455718638334,61.72,0.2318786806954358
multimernew/s_hIZUMO3e_s_hFIMPe/unrelaxed_model_5_multimer_v3_2.pdb,B,0.07938730564153602,7.096199968150918,0.665087951882476,67.300625,0.44760834841660563
multimernew/s_hIZUMO3e_s_hFIMPe/unrelaxed_model_5_multimer_v3_2.pdb,C,0.07938730564153602,7.096199968150918,0.665087951882476,67.300625,0.44760834841660563
multimernew/s_hIZUMO3e_s_hFIMPe/unrelaxed_model_5_multimer_v3_3.pdb,B,0.06417065370319963,7.975090926267949,0.6112391901354736,67.31882352941177,0.4114790317499052
multimernew/s_hIZUMO3e_s_hFIMPe/unrelaxed_model_5_multimer_v3_3.pdb,C,0.06417065370319963,7.975090926267949,0.6112391901354736,67.31882352941177,0.4114790317499052
multimernew/s_hIZUMO3e_s_hFIMPe/unrelaxed_model_5_multimer_v3_4.pdb,B,0.08112307827063722,6.90584370237649,0.6770908080838369,66.65058823529411,0.45128500647498365
multimernew/s_hIZUMO3e_s_hFIMPe/unrelaxed_model_5_multimer_v3_4.pdb,C,0.08112307827063725,6.90584370237649,0.6770908080838369,66.65058823529412,0.4512850064749837
multimernew/s_hIZUMO3e_s_hFIMPe/unrelaxed_model_5_multimer_v3_5.pdb,B,0.10529957160537959,6.637707281646568,0.6941592705267035,71.42222222222223,0.49578397677173897
multimernew/s_hIZUMO3e_s_hFIMPe/unrelaxed_model_5_multimer_v3_5.pdb,C,0.1052995716053795,6.637707281646568,0.6941592705267035,71.42222222222222,0.4957839767717388
