{
    "iptm+ptm": {
        "model_1_multimer_v3_1": 0.20279304860970454,
        "model_2_multimer_v3_1": 0.19410850836558974,
        "model_3_multimer_v3_1": 0.17729113912818634,
        "model_4_multimer_v3_1": 0.17095841792318278,
        "model_5_multimer_v3_1": 0.17139762778377857,
        "model_1_multimer_v3_2": 0.2051600603783142,
        "model_2_multimer_v3_2": 0.17938534076112905,
        "model_3_multimer_v3_2": 0.2149793819925911,
        "model_4_multimer_v3_2": 0.1780664755914575,
        "model_5_multimer_v3_2": 0.17455328314818713,
        "model_1_multimer_v3_3": 0.1976371786734798,
        "model_2_multimer_v3_3": 0.19460029224666683,
        "model_3_multimer_v3_3": 0.17389547033467512,
        "model_4_multimer_v3_3": 0.1672043300194248,
        "model_5_multimer_v3_3": 0.1757812603546458,
        "model_1_multimer_v3_4": 0.19936168871749194,
        "model_2_multimer_v3_4": 0.1911356585861561,
        "model_3_multimer_v3_4": 0.1686592601576047,
        "model_4_multimer_v3_4": 0.16762430792512192,
        "model_5_multimer_v3_4": 0.17611770326924536,
        "model_1_multimer_v3_5": 0.20099697935791144,
        "model_2_multimer_v3_5": 0.19586193657687279,
        "model_3_multimer_v3_5": 0.17028727922246187,
        "model_4_multimer_v3_5": 0.17039642240549685,
        "model_5_multimer_v3_5": 0.1725310145980008
    },
    "order": [
        "model_3_multimer_v3_2",
        "model_1_multimer_v3_2",
        "model_1_multimer_v3_1",
        "model_1_multimer_v3_5",
        "model_1_multimer_v3_4",
        "model_1_multimer_v3_3",
        "model_2_multimer_v3_5",
        "model_2_multimer_v3_3",
        "model_2_multimer_v3_1",
        "model_2_multimer_v3_4",
        "model_2_multimer_v3_2",
        "model_4_multimer_v3_2",
        "model_3_multimer_v3_1",
        "model_5_multimer_v3_4",
        "model_5_multimer_v3_3",
        "model_5_multimer_v3_2",
        "model_3_multimer_v3_3",
        "model_5_multimer_v3_5",
        "model_5_multimer_v3_1",
        "model_4_multimer_v3_1",
        "model_4_multimer_v3_5",
        "model_3_multimer_v3_5",
        "model_3_multimer_v3_4",
        "model_4_multimer_v3_4",
        "model_4_multimer_v3_3"
    ]
}